Documentos/Otros_resultados/Pruebas A/CS01.CSV

Record Length,20480,,Source,CH1,CH2
Sample Interval,CH1:0.0000080000000 CH2:0.0000080000000,,Second,Volt,Volt
Vertical Units,CH1:V CH2:V,,-0.08191999793,1.90000,0.94000
Vertical Scale,CH1:0.50 CH2:0.50,,-0.08191200346,1.88000,0.96000
Vertical Offset,CH1:-1.50000 CH2:-1.50000,,-0.08190400153,1.88000,0.94000
Horizontal Units,s,,-0.08189599961,1.88000,0.94000
Horizontal Scale,0.0049999999,,-0.08188799769,1.88000,0.94000
Model Number,SDS1102CNL+,,-0.08188000321,1.88000,0.96000
Serial Number,SDS10BA3163724,,-0.08187200129,1.86000,0.96000
Software Version,6.01.01.17,,-0.08186399937,1.86000,0.96000
,,,-0.08185599744,1.88000,0.96000
,,,-0.08184800297,1.86000,0.96000
,,,-0.08184000105,1.86000,0.96000
,,,-0.08183199912,1.84000,0.96000
,,,-0.08182399720,1.86000,0.98000
,,,-0.08181600273,1.84000,0.98000
,,,-0.08180800080,1.84000,0.98000
,,,-0.08179999888,1.86000,0.98000
,,,-0.08179199696,1.82000,0.98000
,,,-0.08178400248,1.82000,0.98000
,,,-0.08177600056,1.84000,0.98000
,,,-0.08176799864,1.82000,0.98000
,,,-0.08175999671,1.82000,0.98000
,,,-0.08175200224,1.82000,1.00000
,,,-0.08174400032,1.82000,0.98000
,,,-0.08173599839,1.82000,0.98000
,,,-0.08172799647,1.82000,1.02000
,,,-0.08172000200,1.80000,1.02000
,,,-0.08171200007,1.82000,1.02000
,,,-0.08170399815,1.80000,1.02000
,,,-0.08169599622,1.82000,1.02000
,,,-0.08168800175,1.80000,1.02000
,,,-0.08167999983,1.80000,1.02000
,,,-0.08167199790,1.80000,1.02000
,,,-0.08166400343,1.80000,1.02000
,,,-0.08165600151,1.80000,1.04000
,,,-0.08164799958,1.80000,1.02000
,,,-0.08163999766,1.78000,1.04000
,,,-0.08163200319,1.78000,1.04000
,,,-0.08162400126,1.80000,1.04000
,,,-0.08161599934,1.80000,1.04000
,,,-0.08160799742,1.80000,1.04000
,,,-0.08160000294,1.80000,1.04000
,,,-0.08159200102,1.76000,1.06000
,,,-0.08158399910,1.76000,1.06000
,,,-0.08157599717,1.76000,1.06000
,,,-0.08156800270,1.76000,1.06000
,,,-0.08156000078,1.76000,1.06000
,,,-0.08155199885,1.78000,1.06000
,,,-0.08154399693,1.74000,1.06000
,,,-0.08153600246,1.74000,1.06000
,,,-0.08152800053,1.74000,1.06000
,,,-0.08151999861,1.76000,1.06000
,,,-0.08151199669,1.74000,1.08000
,,,-0.08150400221,1.74000,1.08000
,,,-0.08149600029,1.72000,1.10000
,,,-0.08148799837,1.74000,1.08000
,,,-0.08147999644,1.74000,1.10000
,,,-0.08147200197,1.72000,1.10000
,,,-0.08146400005,1.72000,1.08000
,,,-0.08145599812,1.72000,1.10000
,,,-0.08144799620,1.72000,1.10000
,,,-0.08144000173,1.72000,1.10000
,,,-0.08143199980,1.70000,1.10000
,,,-0.08142399788,1.72000,1.10000
,,,-0.08141600341,1.70000,1.12000
,,,-0.08140800148,1.70000,1.10000
,,,-0.08139999956,1.70000,1.12000
,,,-0.08139199764,1.70000,1.12000
,,,-0.08138400316,1.68000,1.12000
,,,-0.08137600124,1.70000,1.12000
,,,-0.08136799932,1.70000,1.10000
,,,-0.08135999739,1.68000,1.12000
,,,-0.08135200292,1.68000,1.14000
,,,-0.08134400100,1.70000,1.14000
,,,-0.08133599907,1.70000,1.14000
,,,-0.08132799715,1.68000,1.14000
,,,-0.08132000268,1.66000,1.14000
,,,-0.08131200075,1.64000,1.14000
,,,-0.08130399883,1.66000,1.14000
,,,-0.08129599690,1.66000,1.14000
,,,-0.08128800243,1.66000,1.14000
,,,-0.08128000051,1.66000,1.14000
,,,-0.08127199858,1.66000,1.18000
,,,-0.08126399666,1.66000,1.14000
,,,-0.08125600219,1.66000,1.14000
,,,-0.08124800026,1.64000,1.18000
,,,-0.08123999834,1.66000,1.18000
,,,-0.08123199642,1.66000,1.18000
,,,-0.08122400194,1.64000,1.18000
,,,-0.08121600002,1.64000,1.18000
,,,-0.08120799810,1.64000,1.18000
,,,-0.08119999617,1.64000,1.18000
,,,-0.08119200170,1.64000,1.18000
,,,-0.08118399978,1.64000,1.18000
,,,-0.08117599785,1.62000,1.18000
,,,-0.08116800338,1.62000,1.18000
,,,-0.08116000146,1.62000,1.20000
,,,-0.08115199953,1.62000,1.20000
,,,-0.08114399761,1.62000,1.18000
,,,-0.08113600314,1.62000,1.18000
,,,-0.08112800121,1.62000,1.20000
,,,-0.08111999929,1.62000,1.20000
,,,-0.08111199737,1.60000,1.20000
,,,-0.08110400289,1.60000,1.22000
,,,-0.08109600097,1.58000,1.22000
,,,-0.08108799905,1.58000,1.20000
,,,-0.08107999712,1.58000,1.22000
,,,-0.08107200265,1.58000,1.22000
,,,-0.08106400073,1.58000,1.22000
,,,-0.08105599880,1.58000,1.22000
,,,-0.08104799688,1.58000,1.22000
,,,-0.08104000241,1.58000,1.26000
,,,-0.08103200048,1.58000,1.24000
,,,-0.08102399856,1.56000,1.22000
,,,-0.08101599663,1.56000,1.26000
,,,-0.08100800216,1.58000,1.24000
,,,-0.08100000024,1.58000,1.26000
,,,-0.08099199831,1.56000,1.26000
,,,-0.08098399639,1.56000,1.26000
,,,-0.08097600192,1.56000,1.26000
,,,-0.08096799999,1.54000,1.26000
,,,-0.08095999807,1.54000,1.26000
,,,-0.08095199615,1.54000,1.26000
,,,-0.08094400167,1.54000,1.26000
,,,-0.08093599975,1.54000,1.26000
,,,-0.08092799783,1.54000,1.28000
,,,-0.08092000335,1.54000,1.26000
,,,-0.08091200143,1.54000,1.26000
,,,-0.08090399951,1.52000,1.28000
,,,-0.08089599758,1.54000,1.28000
,,,-0.08088800311,1.52000,1.28000
,,,-0.08088000119,1.52000,1.30000
,,,-0.08087199926,1.50000,1.30000
,,,-0.08086399734,1.52000,1.30000
,,,-0.08085600287,1.50000,1.28000
,,,-0.08084800094,1.52000,1.28000
,,,-0.08083999902,1.50000,1.30000
,,,-0.08083199710,1.50000,1.30000
,,,-0.08082400262,1.50000,1.30000
,,,-0.08081600070,1.50000,1.30000
,,,-0.08080799878,1.50000,1.30000
,,,-0.08079999685,1.50000,1.30000
,,,-0.08079200238,1.50000,1.34000
,,,-0.08078400046,1.50000,1.32000
,,,-0.08077599853,1.48000,1.32000
,,,-0.08076799661,1.48000,1.34000
,,,-0.08076000214,1.48000,1.34000
,,,-0.08075200021,1.48000,1.34000
,,,-0.08074399829,1.46000,1.34000
,,,-0.08073599637,1.46000,1.34000
,,,-0.08072800189,1.48000,1.34000
,,,-0.08071999997,1.46000,1.34000
,,,-0.08071199805,1.46000,1.34000
,,,-0.08070399612,1.48000,1.34000
,,,-0.08069600165,1.46000,1.36000
,,,-0.08068799973,1.46000,1.36000
,,,-0.08067999780,1.44000,1.36000
,,,-0.08067200333,1.46000,1.36000
,,,-0.08066400141,1.46000,1.36000
,,,-0.08065599948,1.44000,1.38000
,,,-0.08064799756,1.46000,1.36000
,,,-0.08064000309,1.44000,1.38000
,,,-0.08063200116,1.44000,1.38000
,,,-0.08062399924,1.42000,1.38000
,,,-0.08061599731,1.44000,1.38000
,,,-0.08060800284,1.42000,1.38000
,,,-0.08060000092,1.42000,1.38000
,,,-0.08059199899,1.42000,1.38000
,,,-0.08058399707,1.40000,1.38000
,,,-0.08057600260,1.40000,1.42000
,,,-0.08056800067,1.42000,1.42000
,,,-0.08055999875,1.40000,1.38000
,,,-0.08055199683,1.40000,1.40000
,,,-0.08054400235,1.40000,1.42000
,,,-0.08053600043,1.40000,1.42000
,,,-0.08052799851,1.40000,1.42000
,,,-0.08051999658,1.40000,1.42000
,,,-0.08051200211,1.40000,1.42000
,,,-0.08050400019,1.40000,1.42000
,,,-0.08049599826,1.38000,1.44000
,,,-0.08048799634,1.38000,1.44000
,,,-0.08048000187,1.38000,1.44000
,,,-0.08047199994,1.38000,1.42000
,,,-0.08046399802,1.38000,1.44000
,,,-0.08045599610,1.38000,1.44000
,,,-0.08044800162,1.38000,1.42000
,,,-0.08043999970,1.38000,1.44000
,,,-0.08043199778,1.36000,1.46000
,,,-0.08042400330,1.38000,1.46000
,,,-0.08041600138,1.36000,1.46000
,,,-0.08040799946,1.36000,1.46000
,,,-0.08039999753,1.36000,1.46000
,,,-0.08039200306,1.34000,1.46000
,,,-0.08038400114,1.34000,1.46000
,,,-0.08037599921,1.34000,1.46000
,,,-0.08036799729,1.34000,1.48000
,,,-0.08036000282,1.34000,1.46000
,,,-0.08035200089,1.34000,1.50000
,,,-0.08034399897,1.34000,1.48000
,,,-0.08033599705,1.34000,1.46000
,,,-0.08032800257,1.34000,1.50000
,,,-0.08032000065,1.34000,1.48000
,,,-0.08031199872,1.32000,1.50000
,,,-0.08030399680,1.30000,1.50000
,,,-0.08029600233,1.30000,1.50000
,,,-0.08028800040,1.30000,1.50000
,,,-0.08027999848,1.32000,1.50000
,,,-0.08027199656,1.30000,1.50000
,,,-0.08026400208,1.32000,1.50000
,,,-0.08025600016,1.28000,1.52000
,,,-0.08024799824,1.28000,1.52000
,,,-0.08023999631,1.28000,1.50000
,,,-0.08023200184,1.30000,1.52000
,,,-0.08022399992,1.30000,1.50000
,,,-0.08021599799,1.30000,1.50000
,,,-0.08020800352,1.28000,1.54000
,,,-0.08020000160,1.30000,1.52000
,,,-0.08019199967,1.28000,1.52000
,,,-0.08018399775,1.26000,1.54000
,,,-0.08017600328,1.26000,1.54000
,,,-0.08016800135,1.26000,1.54000
,,,-0.08015999943,1.26000,1.54000
,,,-0.08015199751,1.26000,1.54000
,,,-0.08014400303,1.26000,1.54000
,,,-0.08013600111,1.26000,1.54000
,,,-0.08012799919,1.26000,1.56000
,,,-0.08011999726,1.26000,1.54000
,,,-0.08011200279,1.24000,1.56000
,,,-0.08010400087,1.24000,1.58000
,,,-0.08009599894,1.24000,1.58000
,,,-0.08008799702,1.24000,1.58000
,,,-0.08008000255,1.24000,1.58000
,,,-0.08007200062,1.22000,1.58000
,,,-0.08006399870,1.22000,1.58000
,,,-0.08005599678,1.24000,1.60000
,,,-0.08004800230,1.24000,1.58000
,,,-0.08004000038,1.22000,1.58000
,,,-0.08003199846,1.22000,1.60000
,,,-0.08002399653,1.22000,1.58000
,,,-0.08001600206,1.22000,1.60000
,,,-0.08000800014,1.22000,1.60000
,,,-0.07999999821,1.22000,1.62000
,,,-0.07999199629,1.20000,1.60000
,,,-0.07998400182,1.20000,1.60000
,,,-0.07997599989,1.22000,1.62000
,,,-0.07996799797,1.18000,1.60000
,,,-0.07996000350,1.20000,1.60000
,,,-0.07995200157,1.20000,1.62000
,,,-0.07994399965,1.20000,1.62000
,,,-0.07993599772,1.20000,1.62000
,,,-0.07992800325,1.20000,1.62000
,,,-0.07992000133,1.18000,1.62000
,,,-0.07991199940,1.18000,1.62000
,,,-0.07990399748,1.16000,1.66000
,,,-0.07989600301,1.18000,1.62000
,,,-0.07988800108,1.16000,1.66000
,,,-0.07987999916,1.16000,1.66000
,,,-0.07987199724,1.16000,1.66000
,,,-0.07986400276,1.16000,1.66000
,,,-0.07985600084,1.16000,1.66000
,,,-0.07984799892,1.16000,1.66000
,,,-0.07983999699,1.16000,1.66000
,,,-0.07983200252,1.14000,1.66000
,,,-0.07982400060,1.16000,1.66000
,,,-0.07981599867,1.14000,1.68000
,,,-0.07980799675,1.16000,1.66000
,,,-0.07980000228,1.14000,1.68000
,,,-0.07979200035,1.14000,1.66000
,,,-0.07978399843,1.14000,1.68000
,,,-0.07977599651,1.14000,1.68000
,,,-0.07976800203,1.14000,1.68000
,,,-0.07976000011,1.14000,1.68000
,,,-0.07975199819,1.12000,1.70000
,,,-0.07974399626,1.12000,1.70000
,,,-0.07973600179,1.12000,1.70000
,,,-0.07972799987,1.14000,1.70000
,,,-0.07971999794,1.10000,1.70000
,,,-0.07971200347,1.12000,1.70000
,,,-0.07970400155,1.12000,1.70000
,,,-0.07969599962,1.10000,1.72000
,,,-0.07968799770,1.12000,1.70000
,,,-0.07968000323,1.10000,1.74000
,,,-0.07967200130,1.10000,1.72000
,,,-0.07966399938,1.08000,1.74000
,,,-0.07965599746,1.10000,1.70000
,,,-0.07964800298,1.08000,1.74000
,,,-0.07964000106,1.08000,1.74000
,,,-0.07963199914,1.08000,1.74000
,,,-0.07962399721,1.08000,1.74000
,,,-0.07961600274,1.08000,1.74000
,,,-0.07960800081,1.08000,1.74000
,,,-0.07959999889,1.08000,1.74000
,,,-0.07959199697,1.06000,1.74000
,,,-0.07958400249,1.08000,1.74000
,,,-0.07957600057,1.08000,1.74000
,,,-0.07956799865,1.08000,1.74000
,,,-0.07955999672,1.06000,1.76000
,,,-0.07955200225,1.06000,1.76000
,,,-0.07954400033,1.06000,1.76000
,,,-0.07953599840,1.06000,1.78000
,,,-0.07952799648,1.06000,1.76000
,,,-0.07952000201,1.04000,1.76000
,,,-0.07951200008,1.04000,1.78000
,,,-0.07950399816,1.04000,1.78000
,,,-0.07949599624,1.04000,1.78000
,,,-0.07948800176,1.02000,1.78000
,,,-0.07947999984,1.04000,1.78000
,,,-0.07947199792,1.02000,1.80000
,,,-0.07946400344,1.02000,1.80000
,,,-0.07945600152,1.02000,1.78000
,,,-0.07944799960,1.02000,1.78000
,,,-0.07943999767,1.02000,1.82000
,,,-0.07943200320,1.02000,1.78000
,,,-0.07942400128,1.02000,1.82000
,,,-0.07941599935,1.02000,1.82000
,,,-0.07940799743,1.02000,1.82000
,,,-0.07940000296,1.00000,1.82000
,,,-0.07939200103,1.00000,1.82000
,,,-0.07938399911,1.00000,1.82000
,,,-0.07937599719,1.00000,1.82000
,,,-0.07936800271,1.00000,1.82000
,,,-0.07936000079,1.00000,1.82000
,,,-0.07935199887,1.00000,1.82000
,,,-0.07934399694,1.00000,1.82000
,,,-0.07933600247,1.00000,1.84000
,,,-0.07932800055,0.98000,1.84000
,,,-0.07931999862,0.98000,1.84000
,,,-0.07931199670,1.00000,1.84000
,,,-0.07930400223,0.96000,1.84000
,,,-0.07929600030,1.00000,1.84000
,,,-0.07928799838,0.98000,1.86000
,,,-0.07927999645,0.98000,1.84000
,,,-0.07927200198,0.98000,1.86000
,,,-0.07926400006,0.96000,1.86000
,,,-0.07925599813,0.96000,1.86000
,,,-0.07924799621,0.96000,1.86000
,,,-0.07924000174,0.96000,1.86000
,,,-0.07923199981,0.96000,1.90000
,,,-0.07922399789,0.94000,1.88000
,,,-0.07921600342,0.94000,1.86000
,,,-0.07920800149,0.94000,1.88000
,,,-0.07919999957,0.94000,1.86000
,,,-0.07919199765,0.96000,1.90000
,,,-0.07918400317,0.94000,1.90000
,,,-0.07917600125,0.94000,1.86000
,,,-0.07916799933,0.94000,1.90000
,,,-0.07915999740,0.94000,1.90000
,,,-0.07915200293,0.92000,1.90000
,,,-0.07914400101,0.94000,1.90000
,,,-0.07913599908,0.94000,1.92000
,,,-0.07912799716,0.92000,1.90000
,,,-0.07912000269,0.92000,1.90000
,,,-0.07911200076,0.92000,1.92000
,,,-0.07910399884,0.92000,1.90000
,,,-0.07909599692,0.90000,1.92000
,,,-0.07908800244,0.92000,1.92000
,,,-0.07908000052,0.90000,1.92000
,,,-0.07907199860,0.90000,1.92000
,,,-0.07906399667,0.90000,1.92000
,,,-0.07905600220,0.90000,1.92000
,,,-0.07904800028,0.90000,1.94000
,,,-0.07903999835,0.90000,1.94000
,,,-0.07903199643,0.90000,1.94000
,,,-0.07902400196,0.90000,1.94000
,,,-0.07901600003,0.90000,1.94000
,,,-0.07900799811,0.88000,1.94000
,,,-0.07899999619,0.88000,1.94000
,,,-0.07899200171,0.90000,1.94000
,,,-0.07898399979,0.88000,1.98000
,,,-0.07897599787,0.86000,1.96000
,,,-0.07896800339,0.90000,1.94000
,,,-0.07896000147,0.86000,1.96000
,,,-0.07895199955,0.86000,1.96000
,,,-0.07894399762,0.86000,1.96000
,,,-0.07893600315,0.86000,1.98000
,,,-0.07892800122,0.86000,1.96000
,,,-0.07891999930,0.86000,1.98000
,,,-0.07891199738,0.86000,1.98000
,,,-0.07890400290,0.86000,1.98000
,,,-0.07889600098,0.86000,1.98000
,,,-0.07888799906,0.86000,1.98000
,,,-0.07887999713,0.84000,1.98000
,,,-0.07887200266,0.86000,1.98000
,,,-0.07886400074,0.84000,1.98000
,,,-0.07885599881,0.84000,2.00000
,,,-0.07884799689,0.84000,2.00000
,,,-0.07884000242,0.84000,2.00000
,,,-0.07883200049,0.84000,2.00000
,,,-0.07882399857,0.84000,2.02000
,,,-0.07881599665,0.84000,2.02000
,,,-0.07880800217,0.84000,2.02000
,,,-0.07880000025,0.84000,2.00000
,,,-0.07879199833,0.82000,2.02000
,,,-0.07878399640,0.84000,2.02000
,,,-0.07877600193,0.82000,2.02000
,,,-0.07876800001,0.82000,2.02000
,,,-0.07875999808,0.82000,2.02000
,,,-0.07875199616,0.82000,2.02000
,,,-0.07874400169,0.82000,2.06000
,,,-0.07873599976,0.82000,2.02000
,,,-0.07872799784,0.80000,2.02000
,,,-0.07872000337,0.80000,2.06000
,,,-0.07871200144,0.80000,2.02000
,,,-0.07870399952,0.80000,2.06000
,,,-0.07869599760,0.82000,2.02000
,,,-0.07868800312,0.80000,2.06000
,,,-0.07868000120,0.80000,2.06000
,,,-0.07867199928,0.80000,2.08000
,,,-0.07866399735,0.78000,2.06000
,,,-0.07865600288,0.80000,2.06000
,,,-0.07864800096,0.78000,2.06000
,,,-0.07863999903,0.78000,2.08000
,,,-0.07863199711,0.78000,2.06000
,,,-0.07862400264,0.78000,2.08000
,,,-0.07861600071,0.78000,2.06000
,,,-0.07860799879,0.76000,2.10000
,,,-0.07859999686,0.76000,2.08000
,,,-0.07859200239,0.76000,2.10000
,,,-0.07858400047,0.76000,2.10000
,,,-0.07857599854,0.76000,2.10000
,,,-0.07856799662,0.76000,2.10000
,,,-0.07856000215,0.76000,2.10000
,,,-0.07855200022,0.76000,2.08000
,,,-0.07854399830,0.76000,2.10000
,,,-0.07853599638,0.74000,2.10000
,,,-0.07852800190,0.74000,2.10000
,,,-0.07851999998,0.74000,2.10000
,,,-0.07851199806,0.74000,2.10000
,,,-0.07850399613,0.74000,2.14000
,,,-0.07849600166,0.74000,2.12000
,,,-0.07848799974,0.76000,2.14000
,,,-0.07847999781,0.74000,2.14000
,,,-0.07847200334,0.74000,2.14000
,,,-0.07846400142,0.74000,2.12000
,,,-0.07845599949,0.74000,2.12000
,,,-0.07844799757,0.72000,2.12000
,,,-0.07844000310,0.74000,2.14000
,,,-0.07843200117,0.74000,2.12000
,,,-0.07842399925,0.72000,2.14000
,,,-0.07841599733,0.74000,2.14000
,,,-0.07840800285,0.70000,2.14000
,,,-0.07840000093,0.72000,2.14000
,,,-0.07839199901,0.72000,2.14000
,,,-0.07838399708,0.74000,2.14000
,,,-0.07837600261,0.72000,2.16000
,,,-0.07836800069,0.72000,2.14000
,,,-0.07835999876,0.70000,2.16000
,,,-0.07835199684,0.70000,2.16000
,,,-0.07834400237,0.70000,2.16000
,,,-0.07833600044,0.70000,2.16000
,,,-0.07832799852,0.70000,2.16000
,,,-0.07831999660,0.70000,2.16000
,,,-0.07831200212,0.70000,2.18000
,,,-0.07830400020,0.70000,2.18000
,,,-0.07829599828,0.70000,2.18000
,,,-0.07828799635,0.68000,2.18000
,,,-0.07828000188,0.70000,2.18000
,,,-0.07827199996,0.70000,2.18000
,,,-0.07826399803,0.68000,2.18000
,,,-0.07825599611,0.70000,2.18000
,,,-0.07824800164,0.68000,2.18000
,,,-0.07823999971,0.68000,2.18000
,,,-0.07823199779,0.68000,2.18000
,,,-0.07822400331,0.68000,2.20000
,,,-0.07821600139,0.68000,2.22000
,,,-0.07820799947,0.68000,2.18000
,,,-0.07819999754,0.68000,2.20000
,,,-0.07819200307,0.68000,2.22000
,,,-0.07818400115,0.66000,2.22000
,,,-0.07817599922,0.66000,2.22000
,,,-0.07816799730,0.66000,2.22000
,,,-0.07816000283,0.66000,2.22000
,,,-0.07815200090,0.68000,2.22000
,,,-0.07814399898,0.66000,2.22000
,,,-0.07813599706,0.66000,2.22000
,,,-0.07812800258,0.66000,2.22000
,,,-0.07812000066,0.66000,2.22000
,,,-0.07811199874,0.66000,2.24000
,,,-0.07810399681,0.66000,2.22000
,,,-0.07809600234,0.66000,2.22000
,,,-0.07808800042,0.66000,2.24000
,,,-0.07807999849,0.64000,2.24000
,,,-0.07807199657,0.66000,2.24000
,,,-0.07806400210,0.64000,2.24000
,,,-0.07805600017,0.64000,2.24000
,,,-0.07804799825,0.64000,2.24000
,,,-0.07803999633,0.66000,2.26000
,,,-0.07803200185,0.64000,2.24000
,,,-0.07802399993,0.64000,2.26000
,,,-0.07801599801,0.66000,2.26000
,,,-0.07800799608,0.64000,2.26000
,,,-0.07800000161,0.64000,2.26000
,,,-0.07799199969,0.62000,2.26000
,,,-0.07798399776,0.64000,2.26000
,,,-0.07797600329,0.64000,2.26000
,,,-0.07796800137,0.62000,2.26000
,,,-0.07795999944,0.64000,2.28000
,,,-0.07795199752,0.64000,2.30000
,,,-0.07794400305,0.62000,2.26000
,,,-0.07793600112,0.62000,2.26000
,,,-0.07792799920,0.64000,2.30000
,,,-0.07791999727,0.64000,2.26000
,,,-0.07791200280,0.62000,2.30000
,,,-0.07790400088,0.60000,2.30000
,,,-0.07789599895,0.62000,2.30000
,,,-0.07788799703,0.64000,2.30000
,,,-0.07788000256,0.62000,2.30000
,,,-0.07787200063,0.62000,2.30000
,,,-0.07786399871,0.62000,2.30000
,,,-0.07785599679,0.60000,2.30000
,,,-0.07784800231,0.60000,2.30000
,,,-0.07784000039,0.60000,2.30000
,,,-0.07783199847,0.60000,2.30000
,,,-0.07782399654,0.60000,2.32000
,,,-0.07781600207,0.60000,2.30000
,,,-0.07780800015,0.60000,2.32000
,,,-0.07779999822,0.60000,2.32000
,,,-0.07779199630,0.60000,2.32000
,,,-0.07778400183,0.58000,2.32000
,,,-0.07777599990,0.60000,2.32000
,,,-0.07776799798,0.58000,2.34000
,,,-0.07776000351,0.60000,2.32000
,,,-0.07775200158,0.60000,2.32000
,,,-0.07774399966,0.58000,2.34000
,,,-0.07773599774,0.58000,2.34000
,,,-0.07772800326,0.58000,2.34000
,,,-0.07772000134,0.60000,2.34000
,,,-0.07771199942,0.58000,2.34000
,,,-0.07770399749,0.58000,2.34000
,,,-0.07769600302,0.58000,2.34000
,,,-0.07768800110,0.56000,2.34000
,,,-0.07767999917,0.56000,2.34000
,,,-0.07767199725,0.56000,2.34000
,,,-0.07766400278,0.56000,2.34000
,,,-0.07765600085,0.56000,2.34000
,,,-0.07764799893,0.56000,2.34000
,,,-0.07763999701,0.58000,2.34000
,,,-0.07763200253,0.56000,2.34000
,,,-0.07762400061,0.56000,2.34000
,,,-0.07761599869,0.56000,2.38000
,,,-0.07760799676,0.58000,2.38000
,,,-0.07760000229,0.56000,2.36000
,,,-0.07759200037,0.56000,2.36000
,,,-0.07758399844,0.54000,2.34000
,,,-0.07757599652,0.56000,2.38000
,,,-0.07756800205,0.54000,2.38000
,,,-0.07756000012,0.56000,2.38000
,,,-0.07755199820,0.56000,2.36000
,,,-0.07754399627,0.54000,2.38000
,,,-0.07753600180,0.54000,2.38000
,,,-0.07752799988,0.54000,2.38000
,,,-0.07751999795,0.54000,2.38000
,,,-0.07751200348,0.54000,2.38000
,,,-0.07750400156,0.54000,2.38000
,,,-0.07749599963,0.54000,2.38000
,,,-0.07748799771,0.54000,2.38000
,,,-0.07748000324,0.54000,2.38000
,,,-0.07747200131,0.54000,2.38000
,,,-0.07746399939,0.54000,2.40000
,,,-0.07745599747,0.52000,2.40000
,,,-0.07744800299,0.54000,2.38000
,,,-0.07744000107,0.52000,2.40000
,,,-0.07743199915,0.54000,2.38000
,,,-0.07742399722,0.52000,2.40000
,,,-0.07741600275,0.54000,2.42000
,,,-0.07740800083,0.54000,2.40000
,,,-0.07739999890,0.54000,2.40000
,,,-0.07739199698,0.52000,2.42000
,,,-0.07738400251,0.54000,2.42000
,,,-0.07737600058,0.52000,2.42000
,,,-0.07736799866,0.52000,2.42000
,,,-0.07735999674,0.52000,2.42000
,,,-0.07735200226,0.52000,2.42000
,,,-0.07734400034,0.52000,2.42000
,,,-0.07733599842,0.50000,2.42000
,,,-0.07732799649,0.52000,2.42000
,,,-0.07732000202,0.52000,2.42000
,,,-0.07731200010,0.52000,2.42000
,,,-0.07730399817,0.50000,2.42000
