Documentos/Otros_resultados/Pruebas A/SDS00012.CSV

Record Length,20480,,Source,CH1,CH2
Sample Interval,CH1:0.0000040000000 CH2:0.0000040000000,,Second,Volt,Volt
Vertical Units,CH1:V CH2:V,,-0.04095999897,2.04000,1.92000
Vertical Scale,CH1:0.50 CH2:0.50,,-0.04095600173,2.04000,1.90000
Vertical Offset,CH1:-1.50000 CH2:-1.50000,,-0.04095200077,2.02000,1.90000
Horizontal Units,s,,-0.04094799981,2.02000,1.90000
Horizontal Scale,0.0024999999,,-0.04094399884,2.04000,1.90000
Model Number,SDS1102CNL+,,-0.04094000161,2.02000,1.90000
Serial Number,SDS10BA3163724,,-0.04093600065,2.02000,1.88000
Software Version,6.01.01.17,,-0.04093199968,2.02000,1.88000
,,,-0.04092799872,2.00000,1.90000
,,,-0.04092400149,2.00000,1.90000
,,,-0.04092000052,2.00000,1.90000
,,,-0.04091599956,2.00000,1.86000
,,,-0.04091199860,2.00000,1.88000
,,,-0.04090800136,2.00000,1.86000
,,,-0.04090400040,1.98000,1.86000
,,,-0.04089999944,1.98000,1.86000
,,,-0.04089599848,1.98000,1.86000
,,,-0.04089200124,2.00000,1.86000
,,,-0.04088800028,2.00000,1.86000
,,,-0.04088399932,1.96000,1.86000
,,,-0.04087999836,1.98000,1.84000
,,,-0.04087600112,1.98000,1.84000
,,,-0.04087200016,1.98000,1.84000
,,,-0.04086799920,1.98000,1.86000
,,,-0.04086399823,1.96000,1.84000
,,,-0.04086000100,1.98000,1.84000
,,,-0.04085600004,1.96000,1.84000
,,,-0.04085199907,1.96000,1.84000
,,,-0.04084799811,1.96000,1.84000
,,,-0.04084400088,1.96000,1.84000
,,,-0.04083999991,1.96000,1.82000
,,,-0.04083599895,1.96000,1.82000
,,,-0.04083200172,1.96000,1.82000
,,,-0.04082800075,1.96000,1.82000
,,,-0.04082399979,1.94000,1.82000
,,,-0.04081999883,1.94000,1.82000
,,,-0.04081600159,1.96000,1.82000
,,,-0.04081200063,1.94000,1.82000
,,,-0.04080799967,1.94000,1.82000
,,,-0.04080399871,1.92000,1.82000
,,,-0.04080000147,1.92000,1.78000
,,,-0.04079600051,1.94000,1.82000
,,,-0.04079199955,1.92000,1.78000
,,,-0.04078799859,1.94000,1.80000
,,,-0.04078400135,1.92000,1.82000
,,,-0.04078000039,1.92000,1.78000
,,,-0.04077599943,1.90000,1.78000
,,,-0.04077199847,1.92000,1.78000
,,,-0.04076800123,1.90000,1.78000
,,,-0.04076400027,1.90000,1.76000
,,,-0.04075999931,1.90000,1.78000
,,,-0.04075599834,1.90000,1.76000
,,,-0.04075200111,1.90000,1.76000
,,,-0.04074800014,1.90000,1.74000
,,,-0.04074399918,1.90000,1.76000
,,,-0.04073999822,1.90000,1.76000
,,,-0.04073600098,1.88000,1.76000
,,,-0.04073200002,1.88000,1.74000
,,,-0.04072799906,1.88000,1.74000
,,,-0.04072399810,1.88000,1.74000
,,,-0.04072000086,1.86000,1.74000
,,,-0.04071599990,1.88000,1.74000
,,,-0.04071199894,1.86000,1.74000
,,,-0.04070800170,1.86000,1.74000
,,,-0.04070400074,1.86000,1.74000
,,,-0.04069999978,1.88000,1.74000
,,,-0.04069599882,1.86000,1.70000
,,,-0.04069200158,1.86000,1.74000
,,,-0.04068800062,1.86000,1.74000
,,,-0.04068399966,1.84000,1.72000
,,,-0.04067999870,1.84000,1.70000
,,,-0.04067600146,1.84000,1.70000
,,,-0.04067200050,1.84000,1.70000
,,,-0.04066799954,1.84000,1.70000
,,,-0.04066399857,1.84000,1.70000
,,,-0.04066000134,1.82000,1.70000
,,,-0.04065600038,1.84000,1.70000
,,,-0.04065199941,1.84000,1.70000
,,,-0.04064799845,1.84000,1.70000
,,,-0.04064400122,1.82000,1.70000
,,,-0.04064000025,1.82000,1.70000
,,,-0.04063599929,1.82000,1.70000
,,,-0.04063199833,1.82000,1.68000
,,,-0.04062800109,1.80000,1.68000
,,,-0.04062400013,1.80000,1.68000
,,,-0.04061999917,1.80000,1.68000
,,,-0.04061599821,1.82000,1.68000
,,,-0.04061200097,1.80000,1.68000
,,,-0.04060800001,1.80000,1.66000
,,,-0.04060399905,1.80000,1.66000
,,,-0.04059999809,1.80000,1.66000
,,,-0.04059600085,1.80000,1.66000
,,,-0.04059199989,1.80000,1.66000
,,,-0.04058799893,1.80000,1.66000
,,,-0.04058400169,1.78000,1.62000
,,,-0.04058000073,1.78000,1.62000
,,,-0.04057599977,1.78000,1.66000
,,,-0.04057199880,1.78000,1.66000
,,,-0.04056800157,1.80000,1.62000
,,,-0.04056400061,1.78000,1.62000
,,,-0.04055999964,1.78000,1.62000
,,,-0.04055599868,1.76000,1.62000
,,,-0.04055200145,1.76000,1.62000
,,,-0.04054800048,1.76000,1.62000
,,,-0.04054399952,1.76000,1.62000
,,,-0.04053999856,1.76000,1.60000
,,,-0.04053600132,1.76000,1.60000
,,,-0.04053200036,1.74000,1.60000
,,,-0.04052799940,1.74000,1.60000
,,,-0.04052399844,1.76000,1.62000
,,,-0.04052000120,1.74000,1.60000
,,,-0.04051600024,1.72000,1.58000
,,,-0.04051199928,1.72000,1.60000
,,,-0.04050799832,1.72000,1.58000
,,,-0.04050400108,1.72000,1.58000
,,,-0.04050000012,1.72000,1.60000
,,,-0.04049599916,1.72000,1.58000
,,,-0.04049199820,1.72000,1.58000
,,,-0.04048800096,1.72000,1.58000
,,,-0.04048400000,1.72000,1.58000
,,,-0.04047999904,1.70000,1.58000
,,,-0.04047599807,1.70000,1.58000
,,,-0.04047200084,1.72000,1.58000
,,,-0.04046799988,1.70000,1.56000
,,,-0.04046399891,1.72000,1.54000
,,,-0.04046000168,1.70000,1.54000
,,,-0.04045600072,1.68000,1.56000
,,,-0.04045199975,1.70000,1.56000
,,,-0.04044799879,1.70000,1.54000
,,,-0.04044400156,1.68000,1.54000
,,,-0.04044000059,1.68000,1.54000
,,,-0.04043599963,1.68000,1.54000
,,,-0.04043199867,1.66000,1.52000
,,,-0.04042800143,1.66000,1.54000
,,,-0.04042400047,1.68000,1.52000
,,,-0.04041999951,1.66000,1.52000
,,,-0.04041599855,1.66000,1.52000
,,,-0.04041200131,1.66000,1.52000
,,,-0.04040800035,1.66000,1.52000
,,,-0.04040399939,1.66000,1.52000
,,,-0.04039999843,1.64000,1.52000
,,,-0.04039600119,1.66000,1.50000
,,,-0.04039200023,1.64000,1.50000
,,,-0.04038799927,1.64000,1.52000
,,,-0.04038399830,1.64000,1.50000
,,,-0.04038000107,1.64000,1.50000
,,,-0.04037600011,1.64000,1.50000
,,,-0.04037199914,1.64000,1.50000
,,,-0.04036799818,1.64000,1.50000
,,,-0.04036400095,1.62000,1.50000
,,,-0.04035999998,1.64000,1.50000
,,,-0.04035599902,1.62000,1.50000
,,,-0.04035199806,1.62000,1.46000
,,,-0.04034800082,1.62000,1.50000
,,,-0.04034399986,1.62000,1.48000
,,,-0.04033999890,1.62000,1.48000
,,,-0.04033600166,1.60000,1.46000
,,,-0.04033200070,1.60000,1.46000
,,,-0.04032799974,1.62000,1.46000
,,,-0.04032399878,1.60000,1.46000
,,,-0.04032000154,1.60000,1.46000
,,,-0.04031600058,1.60000,1.46000
,,,-0.04031199962,1.62000,1.46000
,,,-0.04030799866,1.58000,1.44000
,,,-0.04030400142,1.60000,1.44000
,,,-0.04030000046,1.58000,1.44000
,,,-0.04029599950,1.58000,1.44000
,,,-0.04029199854,1.58000,1.44000
,,,-0.04028800130,1.58000,1.44000
,,,-0.04028400034,1.58000,1.44000
,,,-0.04027999938,1.56000,1.44000
,,,-0.04027599841,1.58000,1.42000
,,,-0.04027200118,1.56000,1.42000
,,,-0.04026800022,1.54000,1.42000
,,,-0.04026399925,1.56000,1.42000
,,,-0.04025999829,1.56000,1.42000
,,,-0.04025600106,1.54000,1.42000
,,,-0.04025200009,1.54000,1.38000
,,,-0.04024799913,1.54000,1.42000
,,,-0.04024399817,1.54000,1.40000
,,,-0.04024000093,1.54000,1.38000
,,,-0.04023599997,1.54000,1.38000
,,,-0.04023199901,1.54000,1.38000
,,,-0.04022799805,1.54000,1.38000
,,,-0.04022400081,1.52000,1.38000
,,,-0.04021999985,1.54000,1.38000
,,,-0.04021599889,1.52000,1.38000
,,,-0.04021200165,1.52000,1.38000
,,,-0.04020800069,1.52000,1.38000
,,,-0.04020399973,1.52000,1.38000
,,,-0.04019999877,1.52000,1.36000
,,,-0.04019600153,1.50000,1.36000
,,,-0.04019200057,1.50000,1.34000
,,,-0.04018799961,1.50000,1.36000
,,,-0.04018399864,1.50000,1.36000
,,,-0.04018000141,1.50000,1.36000
,,,-0.04017600045,1.50000,1.36000
,,,-0.04017199948,1.50000,1.34000
,,,-0.04016799852,1.50000,1.34000
,,,-0.04016400129,1.50000,1.34000
,,,-0.04016000032,1.48000,1.34000
,,,-0.04015599936,1.50000,1.34000
,,,-0.04015199840,1.50000,1.34000
,,,-0.04014800116,1.48000,1.34000
,,,-0.04014400020,1.48000,1.34000
,,,-0.04013999924,1.48000,1.34000
,,,-0.04013599828,1.48000,1.34000
,,,-0.04013200104,1.48000,1.32000
,,,-0.04012800008,1.48000,1.32000
,,,-0.04012399912,1.46000,1.34000
,,,-0.04011999816,1.46000,1.30000
,,,-0.04011600092,1.44000,1.30000
,,,-0.04011199996,1.46000,1.30000
,,,-0.04010799900,1.46000,1.30000
,,,-0.04010400176,1.46000,1.30000
,,,-0.04010000080,1.46000,1.30000
,,,-0.04009599984,1.44000,1.30000
,,,-0.04009199888,1.46000,1.30000
,,,-0.04008800164,1.46000,1.30000
,,,-0.04008400068,1.42000,1.30000
,,,-0.04007999972,1.42000,1.30000
,,,-0.04007599875,1.42000,1.28000
,,,-0.04007200152,1.42000,1.28000
,,,-0.04006800056,1.42000,1.28000
,,,-0.04006399959,1.42000,1.26000
,,,-0.04005999863,1.42000,1.26000
,,,-0.04005600139,1.42000,1.28000
,,,-0.04005200043,1.40000,1.26000
,,,-0.04004799947,1.42000,1.26000
,,,-0.04004399851,1.40000,1.26000
,,,-0.04004000127,1.40000,1.26000
,,,-0.04003600031,1.40000,1.26000
,,,-0.04003199935,1.40000,1.26000
,,,-0.04002799839,1.40000,1.26000
,,,-0.04002400115,1.40000,1.26000
,,,-0.04002000019,1.40000,1.26000
,,,-0.04001599923,1.40000,1.24000
,,,-0.04001199827,1.38000,1.24000
,,,-0.04000800103,1.40000,1.24000
,,,-0.04000400007,1.38000,1.24000
,,,-0.03999999911,1.38000,1.22000
,,,-0.03999599814,1.38000,1.22000
,,,-0.03999200091,1.38000,1.22000
,,,-0.03998799995,1.38000,1.22000
,,,-0.03998399898,1.38000,1.20000
,,,-0.03998000175,1.36000,1.22000
,,,-0.03997600079,1.36000,1.22000
,,,-0.03997199982,1.38000,1.20000
,,,-0.03996799886,1.34000,1.22000
,,,-0.03996400163,1.36000,1.20000
,,,-0.03996000066,1.34000,1.20000
,,,-0.03995599970,1.34000,1.20000
,,,-0.03995199874,1.34000,1.20000
,,,-0.03994800150,1.34000,1.20000
,,,-0.03994400054,1.34000,1.22000
,,,-0.03993999958,1.34000,1.18000
,,,-0.03993599862,1.32000,1.18000
,,,-0.03993200138,1.34000,1.18000
,,,-0.03992800042,1.34000,1.18000
,,,-0.03992399946,1.32000,1.18000
,,,-0.03991999850,1.32000,1.18000
,,,-0.03991600126,1.30000,1.18000
,,,-0.03991200030,1.30000,1.18000
,,,-0.03990799934,1.30000,1.18000
,,,-0.03990399837,1.34000,1.18000
,,,-0.03990000114,1.32000,1.16000
,,,-0.03989600018,1.28000,1.18000
,,,-0.03989199921,1.30000,1.14000
,,,-0.03988799825,1.30000,1.14000
,,,-0.03988400102,1.28000,1.14000
,,,-0.03988000005,1.30000,1.14000
,,,-0.03987599909,1.28000,1.14000
,,,-0.03987199813,1.28000,1.14000
,,,-0.03986800089,1.26000,1.14000
,,,-0.03986399993,1.26000,1.14000
,,,-0.03985999897,1.26000,1.14000
,,,-0.03985600173,1.28000,1.14000
,,,-0.03985200077,1.26000,1.12000
,,,-0.03984799981,1.26000,1.14000
,,,-0.03984399885,1.28000,1.12000
,,,-0.03984000161,1.26000,1.12000
,,,-0.03983600065,1.26000,1.10000
,,,-0.03983199969,1.26000,1.10000
,,,-0.03982799873,1.24000,1.12000
,,,-0.03982400149,1.24000,1.10000
,,,-0.03982000053,1.24000,1.10000
,,,-0.03981599957,1.24000,1.10000
,,,-0.03981199861,1.24000,1.10000
,,,-0.03980800137,1.24000,1.10000
,,,-0.03980400041,1.24000,1.10000
,,,-0.03979999945,1.24000,1.10000
,,,-0.03979599848,1.24000,1.08000
,,,-0.03979200125,1.22000,1.10000
,,,-0.03978800029,1.24000,1.10000
,,,-0.03978399932,1.24000,1.08000
,,,-0.03977999836,1.20000,1.08000
,,,-0.03977600113,1.22000,1.10000
,,,-0.03977200016,1.22000,1.06000
,,,-0.03976799920,1.20000,1.06000
,,,-0.03976399824,1.20000,1.06000
,,,-0.03976000100,1.22000,1.06000
,,,-0.03975600004,1.20000,1.06000
,,,-0.03975199908,1.20000,1.06000
,,,-0.03974799812,1.20000,1.06000
,,,-0.03974400088,1.18000,1.06000
,,,-0.03973999992,1.20000,1.06000
,,,-0.03973599896,1.18000,1.06000
,,,-0.03973200172,1.18000,1.04000
,,,-0.03972800076,1.18000,1.04000
,,,-0.03972399980,1.18000,1.04000
,,,-0.03971999884,1.18000,1.04000
,,,-0.03971600160,1.18000,1.06000
,,,-0.03971200064,1.16000,1.04000
,,,-0.03970799968,1.16000,1.04000
,,,-0.03970399871,1.18000,1.02000
,,,-0.03970000148,1.16000,1.02000
,,,-0.03969600052,1.16000,1.04000
,,,-0.03969199955,1.16000,1.02000
,,,-0.03968799859,1.16000,1.02000
,,,-0.03968400136,1.16000,1.02000
,,,-0.03968000039,1.16000,1.02000
,,,-0.03967599943,1.16000,1.00000
,,,-0.03967199847,1.16000,1.02000
,,,-0.03966800123,1.16000,1.02000
,,,-0.03966400027,1.14000,1.00000
,,,-0.03965999931,1.14000,1.02000
,,,-0.03965599835,1.12000,1.00000
,,,-0.03965200111,1.14000,0.98000
,,,-0.03964800015,1.14000,1.02000
,,,-0.03964399919,1.14000,1.00000
,,,-0.03963999823,1.14000,0.98000
,,,-0.03963600099,1.12000,0.98000
,,,-0.03963200003,1.12000,0.98000
,,,-0.03962799907,1.12000,0.98000
,,,-0.03962399811,1.12000,0.98000
,,,-0.03962000087,1.12000,0.98000
,,,-0.03961599991,1.12000,0.98000
,,,-0.03961199895,1.10000,0.98000
,,,-0.03960800171,1.10000,0.98000
,,,-0.03960400075,1.12000,0.96000
,,,-0.03959999979,1.12000,0.98000
,,,-0.03959599882,1.10000,0.94000
,,,-0.03959200159,1.08000,0.96000
,,,-0.03958800063,1.10000,0.96000
,,,-0.03958399966,1.10000,0.96000
,,,-0.03957999870,1.10000,0.94000
,,,-0.03957600147,1.08000,0.94000
,,,-0.03957200050,1.08000,0.94000
,,,-0.03956799954,1.08000,0.94000
,,,-0.03956399858,1.08000,0.94000
,,,-0.03956000134,1.08000,0.94000
,,,-0.03955600038,1.08000,0.94000
,,,-0.03955199942,1.08000,0.94000
,,,-0.03954799846,1.08000,0.94000
,,,-0.03954400122,1.08000,0.96000
,,,-0.03954000026,1.08000,0.94000
,,,-0.03953599930,1.06000,0.92000
,,,-0.03953199834,1.06000,0.94000
,,,-0.03952800110,1.06000,0.92000
,,,-0.03952400014,1.06000,0.92000
,,,-0.03951999918,1.04000,0.90000
,,,-0.03951599821,1.04000,0.90000
,,,-0.03951200098,1.04000,0.90000
,,,-0.03950800002,1.04000,0.90000
,,,-0.03950399905,1.04000,0.90000
,,,-0.03949999809,1.06000,0.90000
,,,-0.03949600086,1.04000,0.90000
,,,-0.03949199989,1.02000,0.90000
,,,-0.03948799893,1.02000,0.90000
,,,-0.03948400170,1.02000,0.90000
,,,-0.03948000073,1.02000,0.90000
,,,-0.03947599977,1.04000,0.90000
,,,-0.03947199881,1.02000,0.90000
,,,-0.03946800157,1.02000,0.88000
,,,-0.03946400061,1.02000,0.88000
,,,-0.03945999965,1.00000,0.88000
,,,-0.03945599869,1.02000,0.88000
,,,-0.03945200145,1.02000,0.88000
,,,-0.03944800049,1.00000,0.90000
,,,-0.03944399953,1.00000,0.88000
,,,-0.03943999857,1.00000,0.86000
,,,-0.03943600133,1.00000,0.86000
,,,-0.03943200037,1.00000,0.86000
,,,-0.03942799941,0.98000,0.86000
,,,-0.03942399845,1.00000,0.84000
,,,-0.03942000121,1.00000,0.86000
,,,-0.03941600025,0.96000,0.86000
,,,-0.03941199929,1.00000,0.86000
,,,-0.03940799832,1.00000,0.86000
,,,-0.03940400109,1.00000,0.84000
,,,-0.03940000013,0.96000,0.86000
,,,-0.03939599916,0.98000,0.86000
,,,-0.03939199820,0.98000,0.86000
,,,-0.03938800097,0.98000,0.82000
,,,-0.03938400000,0.98000,0.84000
,,,-0.03937999904,0.98000,0.86000
,,,-0.03937599808,0.94000,0.84000
,,,-0.03937200084,0.96000,0.84000
,,,-0.03936799988,0.96000,0.82000
,,,-0.03936399892,0.94000,0.82000
,,,-0.03936000168,0.96000,0.82000
,,,-0.03935600072,0.94000,0.82000
,,,-0.03935199976,0.94000,0.82000
,,,-0.03934799880,0.94000,0.82000
,,,-0.03934400156,0.94000,0.82000
,,,-0.03934000060,0.94000,0.82000
,,,-0.03933599964,0.94000,0.82000
,,,-0.03933199868,0.94000,0.82000
,,,-0.03932800144,0.94000,0.82000
,,,-0.03932400048,0.94000,0.82000
,,,-0.03931999952,0.92000,0.80000
,,,-0.03931599855,0.92000,0.80000
,,,-0.03931200132,0.92000,0.80000
,,,-0.03930800036,0.92000,0.80000
,,,-0.03930399939,0.92000,0.80000
,,,-0.03929999843,0.92000,0.80000
,,,-0.03929600120,0.92000,0.80000
,,,-0.03929200023,0.92000,0.80000
,,,-0.03928799927,0.88000,0.80000
,,,-0.03928399831,0.90000,0.78000
,,,-0.03928000107,0.92000,0.80000
,,,-0.03927600011,0.90000,0.78000
,,,-0.03927199915,0.90000,0.78000
,,,-0.03926799819,0.90000,0.78000
,,,-0.03926400095,0.92000,0.78000
,,,-0.03925999999,0.90000,0.78000
,,,-0.03925599903,0.90000,0.78000
,,,-0.03925199807,0.88000,0.78000
,,,-0.03924800083,0.90000,0.78000
,,,-0.03924399987,0.90000,0.78000
,,,-0.03923999891,0.90000,0.78000
,,,-0.03923600167,0.88000,0.74000
,,,-0.03923200071,0.88000,0.78000
,,,-0.03922799975,0.88000,0.78000
,,,-0.03922399879,0.86000,0.76000
,,,-0.03922000155,0.86000,0.74000
,,,-0.03921600059,0.86000,0.74000
,,,-0.03921199962,0.88000,0.74000
,,,-0.03920799866,0.88000,0.74000
,,,-0.03920400143,0.86000,0.74000
,,,-0.03920000046,0.84000,0.72000
,,,-0.03919599950,0.86000,0.74000
,,,-0.03919199854,0.86000,0.74000
,,,-0.03918800130,0.86000,0.74000
,,,-0.03918400034,0.86000,0.72000
,,,-0.03917999938,0.86000,0.72000
,,,-0.03917599842,0.86000,0.74000
,,,-0.03917200118,0.84000,0.74000
,,,-0.03916800022,0.84000,0.72000
,,,-0.03916399926,0.84000,0.72000
,,,-0.03915999830,0.86000,0.72000
,,,-0.03915600106,0.82000,0.72000
,,,-0.03915200010,0.84000,0.72000
,,,-0.03914799914,0.84000,0.70000
,,,-0.03914399818,0.84000,0.72000
,,,-0.03914000094,0.84000,0.72000
,,,-0.03913599998,0.84000,0.72000
,,,-0.03913199902,0.82000,0.70000
,,,-0.03912799805,0.82000,0.72000
,,,-0.03912400082,0.82000,0.70000
,,,-0.03911999986,0.82000,0.70000
,,,-0.03911599889,0.82000,0.72000
,,,-0.03911200166,0.82000,0.70000
,,,-0.03910800070,0.82000,0.70000
,,,-0.03910399973,0.82000,0.70000
,,,-0.03909999877,0.82000,0.70000
,,,-0.03909600154,0.82000,0.70000
,,,-0.03909200057,0.82000,0.70000
,,,-0.03908799961,0.80000,0.70000
,,,-0.03908399865,0.80000,0.70000
,,,-0.03908000141,0.82000,0.70000
,,,-0.03907600045,0.82000,0.70000
,,,-0.03907199949,0.78000,0.70000
,,,-0.03906799853,0.80000,0.68000
,,,-0.03906400129,0.78000,0.70000
,,,-0.03906000033,0.78000,0.68000
,,,-0.03905599937,0.80000,0.66000
,,,-0.03905199841,0.78000,0.68000
,,,-0.03904800117,0.80000,0.68000
,,,-0.03904400021,0.78000,0.68000
,,,-0.03903999925,0.78000,0.68000
,,,-0.03903599828,0.80000,0.68000
,,,-0.03903200105,0.78000,0.66000
,,,-0.03902800009,0.78000,0.66000
,,,-0.03902399912,0.78000,0.66000
,,,-0.03901999816,0.78000,0.66000
,,,-0.03901600093,0.76000,0.66000
,,,-0.03901199996,0.76000,0.66000
,,,-0.03900799900,0.76000,0.66000
,,,-0.03900399804,0.78000,0.66000
,,,-0.03900000080,0.76000,0.66000
,,,-0.03899599984,0.76000,0.66000
,,,-0.03899199888,0.76000,0.66000
,,,-0.03898800164,0.76000,0.66000
,,,-0.03898400068,0.76000,0.64000
,,,-0.03897999972,0.76000,0.64000
,,,-0.03897599876,0.76000,0.64000
,,,-0.03897200152,0.74000,0.64000
,,,-0.03896800056,0.74000,0.64000
,,,-0.03896399960,0.74000,0.64000
,,,-0.03895999864,0.74000,0.64000
,,,-0.03895600140,0.74000,0.64000
,,,-0.03895200044,0.74000,0.64000
,,,-0.03894799948,0.74000,0.64000
,,,-0.03894399852,0.72000,0.62000
,,,-0.03894000128,0.72000,0.62000
,,,-0.03893600032,0.74000,0.62000
,,,-0.03893199936,0.74000,0.64000
,,,-0.03892799839,0.74000,0.64000
,,,-0.03892400116,0.74000,0.62000
,,,-0.03892000020,0.72000,0.64000
,,,-0.03891599923,0.72000,0.62000
,,,-0.03891199827,0.72000,0.62000
,,,-0.03890800104,0.72000,0.62000
,,,-0.03890400007,0.72000,0.62000
,,,-0.03889999911,0.72000,0.62000
,,,-0.03889599815,0.70000,0.62000
,,,-0.03889200091,0.72000,0.62000
,,,-0.03888799995,0.70000,0.62000
,,,-0.03888399899,0.72000,0.62000
,,,-0.03888000175,0.70000,0.62000
,,,-0.03887600079,0.70000,0.62000
,,,-0.03887199983,0.70000,0.62000
,,,-0.03886799887,0.72000,0.58000
,,,-0.03886400163,0.72000,0.58000
,,,-0.03886000067,0.70000,0.60000
,,,-0.03885599971,0.70000,0.62000
,,,-0.03885199875,0.72000,0.58000
,,,-0.03884800151,0.70000,0.60000
,,,-0.03884400055,0.68000,0.58000
,,,-0.03883999959,0.70000,0.58000
,,,-0.03883599862,0.70000,0.62000
,,,-0.03883200139,0.70000,0.58000
,,,-0.03882800043,0.68000,0.62000
,,,-0.03882399946,0.68000,0.58000
,,,-0.03881999850,0.70000,0.58000
,,,-0.03881600127,0.68000,0.58000
,,,-0.03881200030,0.68000,0.58000
,,,-0.03880799934,0.68000,0.58000
,,,-0.03880399838,0.68000,0.58000
,,,-0.03880000114,0.66000,0.58000
,,,-0.03879600018,0.68000,0.58000
,,,-0.03879199922,0.66000,0.58000
,,,-0.03878799826,0.66000,0.58000
,,,-0.03878400102,0.66000,0.58000
,,,-0.03878000006,0.66000,0.58000
,,,-0.03877599910,0.66000,0.56000
,,,-0.03877199814,0.68000,0.58000
,,,-0.03876800090,0.66000,0.56000
,,,-0.03876399994,0.66000,0.58000
,,,-0.03875999898,0.68000,0.58000
,,,-0.03875600174,0.66000,0.58000
,,,-0.03875200078,0.66000,0.58000
,,,-0.03874799982,0.66000,0.56000
,,,-0.03874399886,0.66000,0.56000
,,,-0.03874000162,0.66000,0.58000
,,,-0.03873600066,0.66000,0.56000
,,,-0.03873199970,0.66000,0.56000
,,,-0.03872799873,0.66000,0.56000
,,,-0.03872400150,0.66000,0.56000
,,,-0.03872000054,0.66000,0.56000
,,,-0.03871599957,0.66000,0.56000
,,,-0.03871199861,0.66000,0.56000
,,,-0.03870800138,0.66000,0.56000
,,,-0.03870400041,0.64000,0.56000
,,,-0.03869999945,0.64000,0.56000
,,,-0.03869599849,0.64000,0.56000
,,,-0.03869200125,0.64000,0.54000
,,,-0.03868800029,0.64000,0.54000
,,,-0.03868399933,0.64000,0.54000
,,,-0.03867999837,0.64000,0.54000
,,,-0.03867600113,0.64000,0.56000
,,,-0.03867200017,0.64000,0.56000
,,,-0.03866799921,0.64000,0.54000
,,,-0.03866399825,0.64000,0.54000
,,,-0.03866000101,0.64000,0.54000
,,,-0.03865600005,0.64000,0.54000
,,,-0.03865199909,0.64000,0.54000
