Documentos/Otros_resultados/Pruebas A/SDS00023.CSV

Record Length,20480,,Source,CH1,CH2
Sample Interval,CH1:0.0000020000000 CH2:0.0000020000000,,Second,Volt,Volt
Vertical Units,CH1:V CH2:V,,-0.02047999948,1.30000,0.98000
Vertical Scale,CH1:0.50 CH2:0.50,,-0.02047800086,1.28000,0.96000
Vertical Offset,CH1:-1.50000 CH2:-1.50000,,-0.02047600038,1.28000,0.98000
Horizontal Units,s,,-0.02047399990,1.28000,0.98000
Horizontal Scale,0.0010000000,,-0.02047199942,1.30000,0.96000
Model Number,SDS1102CNL+,,-0.02047000080,1.28000,0.98000
Serial Number,SDS10BA3163724,,-0.02046800032,1.26000,0.96000
Software Version,6.01.01.17,,-0.02046599984,1.26000,0.98000
,,,-0.02046399936,1.28000,0.96000
,,,-0.02046200074,1.26000,0.96000
,,,-0.02046000026,1.26000,0.94000
,,,-0.02045799978,1.26000,0.96000
,,,-0.02045599930,1.26000,0.96000
,,,-0.02045400068,1.26000,0.94000
,,,-0.02045200020,1.24000,0.94000
,,,-0.02044999972,1.24000,0.94000
,,,-0.02044799924,1.24000,0.94000
,,,-0.02044600062,1.26000,0.94000
,,,-0.02044400014,1.24000,0.94000
,,,-0.02044199966,1.24000,0.94000
,,,-0.02043999918,1.24000,0.94000
,,,-0.02043800056,1.24000,0.92000
,,,-0.02043600008,1.24000,0.94000
,,,-0.02043399960,1.22000,0.94000
,,,-0.02043199912,1.24000,0.94000
,,,-0.02043000050,1.22000,0.94000
,,,-0.02042800002,1.22000,0.94000
,,,-0.02042599954,1.20000,0.92000
,,,-0.02042399906,1.22000,0.90000
,,,-0.02042200044,1.20000,0.90000
,,,-0.02041999996,1.22000,0.90000
,,,-0.02041799948,1.20000,0.90000
,,,-0.02041600086,1.20000,0.90000
,,,-0.02041400038,1.20000,0.92000
,,,-0.02041199990,1.18000,0.92000
,,,-0.02040999942,1.22000,0.90000
,,,-0.02040800080,1.18000,0.90000
,,,-0.02040600032,1.20000,0.90000
,,,-0.02040399984,1.18000,0.90000
,,,-0.02040199935,1.18000,0.90000
,,,-0.02040000074,1.18000,0.90000
,,,-0.02039800026,1.18000,0.90000
,,,-0.02039599977,1.18000,0.90000
,,,-0.02039399929,1.18000,0.90000
,,,-0.02039200068,1.18000,0.90000
,,,-0.02039000019,1.16000,0.90000
,,,-0.02038799971,1.16000,0.90000
,,,-0.02038599923,1.18000,0.90000
,,,-0.02038400061,1.16000,0.88000
,,,-0.02038200013,1.18000,0.90000
,,,-0.02037999965,1.16000,0.88000
,,,-0.02037799917,1.16000,0.90000
,,,-0.02037600055,1.14000,0.90000
,,,-0.02037400007,1.16000,0.88000
,,,-0.02037199959,1.16000,0.90000
,,,-0.02036999911,1.14000,0.90000
,,,-0.02036800049,1.14000,0.90000
,,,-0.02036600001,1.16000,0.88000
,,,-0.02036399953,1.14000,0.90000
,,,-0.02036199905,1.14000,0.88000
,,,-0.02036000043,1.14000,0.90000
,,,-0.02035799995,1.14000,0.88000
,,,-0.02035599947,1.14000,0.90000
,,,-0.02035400085,1.14000,0.90000
,,,-0.02035200037,1.12000,0.88000
,,,-0.02034999989,1.14000,0.88000
,,,-0.02034799941,1.12000,0.88000
,,,-0.02034600079,1.14000,0.88000
,,,-0.02034400031,1.10000,0.88000
,,,-0.02034199983,1.10000,0.88000
,,,-0.02033999935,1.12000,0.88000
,,,-0.02033800073,1.12000,0.88000
,,,-0.02033600025,1.10000,0.88000
,,,-0.02033399977,1.12000,0.88000
,,,-0.02033199929,1.10000,0.88000
,,,-0.02033000067,1.10000,0.88000
,,,-0.02032800019,1.10000,0.88000
,,,-0.02032599971,1.10000,0.88000
,,,-0.02032399923,1.10000,0.86000
,,,-0.02032200061,1.12000,0.88000
,,,-0.02032000013,1.10000,0.88000
,,,-0.02031799965,1.08000,0.88000
,,,-0.02031599917,1.08000,0.88000
,,,-0.02031400055,1.08000,0.86000
,,,-0.02031200007,1.08000,0.88000
,,,-0.02030999959,1.10000,0.88000
,,,-0.02030799910,1.08000,0.88000
,,,-0.02030600049,1.08000,0.86000
,,,-0.02030400001,1.08000,0.88000
,,,-0.02030199952,1.08000,0.86000
,,,-0.02029999904,1.08000,0.86000
,,,-0.02029800043,1.08000,0.88000
,,,-0.02029599994,1.08000,0.88000
,,,-0.02029399946,1.08000,0.88000
,,,-0.02029200085,1.08000,0.88000
,,,-0.02029000036,1.08000,0.88000
,,,-0.02028799988,1.08000,0.88000
,,,-0.02028599940,1.06000,0.88000
,,,-0.02028400078,1.08000,0.88000
,,,-0.02028200030,1.06000,0.88000
,,,-0.02027999982,1.08000,0.88000
,,,-0.02027799934,1.06000,0.86000
,,,-0.02027600072,1.06000,0.88000
,,,-0.02027400024,1.06000,0.88000
,,,-0.02027199976,1.04000,0.88000
,,,-0.02026999928,1.04000,0.88000
,,,-0.02026800066,1.06000,0.88000
,,,-0.02026600018,1.04000,0.88000
,,,-0.02026399970,1.04000,0.88000
,,,-0.02026199922,1.04000,0.88000
,,,-0.02026000060,1.06000,0.88000
,,,-0.02025800012,1.04000,0.88000
,,,-0.02025599964,1.06000,0.88000
,,,-0.02025399916,1.04000,0.90000
,,,-0.02025200054,1.06000,0.88000
,,,-0.02025000006,1.02000,0.88000
,,,-0.02024799958,1.04000,0.88000
,,,-0.02024599910,1.04000,0.88000
,,,-0.02024400048,1.04000,0.88000
,,,-0.02024200000,1.02000,0.88000
,,,-0.02023999952,1.02000,0.90000
,,,-0.02023799904,1.02000,0.90000
,,,-0.02023600042,1.02000,0.88000
,,,-0.02023399994,1.04000,0.88000
,,,-0.02023199946,1.02000,0.88000
,,,-0.02023000084,1.02000,0.90000
,,,-0.02022800036,1.02000,0.90000
,,,-0.02022599988,1.02000,0.90000
,,,-0.02022399940,1.02000,0.90000
,,,-0.02022200078,1.02000,0.90000
,,,-0.02022000030,1.02000,0.88000
,,,-0.02021799982,1.02000,0.90000
,,,-0.02021599934,1.00000,0.90000
,,,-0.02021400072,1.02000,0.90000
,,,-0.02021200024,1.00000,0.90000
,,,-0.02020999976,1.02000,0.90000
,,,-0.02020799927,1.00000,0.90000
,,,-0.02020600066,1.02000,0.92000
,,,-0.02020400017,1.00000,0.90000
,,,-0.02020199969,1.00000,0.92000
,,,-0.02019999921,1.02000,0.90000
,,,-0.02019800059,1.02000,0.90000
,,,-0.02019600011,1.00000,0.90000
,,,-0.02019399963,1.02000,0.90000
,,,-0.02019199915,0.98000,0.90000
,,,-0.02019000053,1.02000,0.90000
,,,-0.02018800005,1.00000,0.90000
,,,-0.02018599957,1.00000,0.92000
,,,-0.02018399909,1.00000,0.90000
,,,-0.02018200047,1.00000,0.94000
,,,-0.02017999999,1.00000,0.90000
,,,-0.02017799951,1.00000,0.94000
,,,-0.02017599903,1.02000,0.92000
,,,-0.02017400041,1.00000,0.94000
,,,-0.02017199993,1.00000,0.90000
,,,-0.02016999945,1.00000,0.94000
,,,-0.02016800083,1.00000,0.94000
,,,-0.02016600035,1.00000,0.94000
,,,-0.02016399987,1.00000,0.94000
,,,-0.02016199939,1.00000,0.96000
,,,-0.02016000077,0.98000,0.94000
,,,-0.02015800029,1.00000,0.94000
,,,-0.02015599981,1.00000,0.94000
,,,-0.02015399933,1.00000,0.94000
,,,-0.02015200071,1.00000,0.94000
,,,-0.02015000023,1.00000,0.96000
,,,-0.02014799975,1.00000,0.94000
,,,-0.02014599927,1.00000,0.96000
,,,-0.02014400065,1.00000,0.94000
,,,-0.02014200017,1.00000,0.96000
,,,-0.02013999969,0.98000,0.96000
,,,-0.02013799921,1.00000,0.96000
,,,-0.02013600059,1.00000,0.96000
,,,-0.02013400011,0.98000,0.98000
,,,-0.02013199963,0.98000,0.98000
,,,-0.02012999915,1.00000,0.98000
,,,-0.02012800053,1.02000,0.96000
,,,-0.02012600005,1.00000,0.98000
,,,-0.02012399957,1.00000,0.98000
,,,-0.02012199908,1.00000,0.98000
,,,-0.02012000047,1.00000,0.98000
,,,-0.02011799999,1.00000,0.98000
,,,-0.02011599950,1.00000,0.98000
,,,-0.02011399902,1.00000,0.98000
,,,-0.02011200041,1.00000,0.98000
,,,-0.02010999992,1.00000,1.02000
,,,-0.02010799944,0.98000,0.98000
,,,-0.02010600083,1.00000,1.02000
,,,-0.02010400034,0.98000,1.02000
,,,-0.02010199986,1.00000,1.00000
,,,-0.02009999938,1.00000,1.02000
,,,-0.02009800076,1.00000,0.98000
,,,-0.02009600028,1.02000,1.02000
,,,-0.02009399980,1.00000,1.02000
,,,-0.02009199932,1.00000,1.02000
,,,-0.02009000070,1.00000,1.02000
,,,-0.02008800022,1.00000,1.02000
,,,-0.02008599974,0.98000,1.02000
,,,-0.02008399926,1.00000,1.02000
,,,-0.02008200064,1.00000,1.02000
,,,-0.02008000016,1.00000,1.02000
,,,-0.02007799968,1.00000,1.02000
,,,-0.02007599920,1.02000,1.04000
,,,-0.02007400058,1.00000,1.04000
,,,-0.02007200010,1.00000,1.06000
,,,-0.02006999962,1.00000,1.04000
,,,-0.02006799914,1.00000,1.04000
,,,-0.02006600052,1.00000,1.06000
,,,-0.02006400004,1.00000,1.06000
,,,-0.02006199956,1.00000,1.06000
,,,-0.02005999908,1.00000,1.06000
,,,-0.02005800046,1.00000,1.06000
,,,-0.02005599998,1.02000,1.06000
,,,-0.02005399950,1.00000,1.06000
,,,-0.02005200088,1.02000,1.06000
,,,-0.02005000040,1.00000,1.06000
,,,-0.02004799992,1.00000,1.08000
,,,-0.02004599944,1.00000,1.06000
,,,-0.02004400082,1.00000,1.10000
,,,-0.02004200034,1.02000,1.10000
,,,-0.02003999986,1.02000,1.10000
,,,-0.02003799938,1.00000,1.08000
,,,-0.02003600076,1.00000,1.10000
,,,-0.02003400028,1.02000,1.10000
,,,-0.02003199980,1.02000,1.10000
,,,-0.02002999932,1.02000,1.10000
,,,-0.02002800070,1.02000,1.10000
,,,-0.02002600022,1.00000,1.10000
,,,-0.02002399974,1.02000,1.10000
,,,-0.02002199925,1.02000,1.10000
,,,-0.02002000064,1.02000,1.12000
,,,-0.02001800016,1.04000,1.12000
,,,-0.02001599967,1.02000,1.14000
,,,-0.02001399919,1.02000,1.12000
,,,-0.02001200058,1.02000,1.12000
,,,-0.02001000009,1.02000,1.12000
,,,-0.02000799961,1.02000,1.14000
,,,-0.02000599913,1.04000,1.14000
,,,-0.02000400051,1.02000,1.14000
,,,-0.02000200003,1.02000,1.14000
,,,-0.01999999955,1.02000,1.16000
,,,-0.01999799907,1.02000,1.14000
,,,-0.01999600045,1.04000,1.16000
,,,-0.01999399997,1.04000,1.16000
,,,-0.01999199949,1.04000,1.14000
,,,-0.01999000087,1.04000,1.16000
,,,-0.01998800039,1.02000,1.16000
,,,-0.01998599991,1.04000,1.16000
,,,-0.01998399943,1.02000,1.18000
,,,-0.01998200081,1.04000,1.14000
,,,-0.01998000033,1.06000,1.18000
,,,-0.01997799985,1.06000,1.18000
,,,-0.01997599937,1.04000,1.18000
,,,-0.01997400075,1.04000,1.18000
,,,-0.01997200027,1.04000,1.20000
,,,-0.01996999979,1.06000,1.18000
,,,-0.01996799931,1.06000,1.22000
,,,-0.01996600069,1.06000,1.20000
,,,-0.01996400021,1.06000,1.20000
,,,-0.01996199973,1.06000,1.22000
,,,-0.01995999925,1.06000,1.22000
,,,-0.01995800063,1.06000,1.22000
,,,-0.01995600015,1.08000,1.22000
,,,-0.01995399967,1.06000,1.22000
,,,-0.01995199919,1.06000,1.22000
,,,-0.01995000057,1.08000,1.22000
,,,-0.01994800009,1.08000,1.26000
,,,-0.01994599961,1.08000,1.22000
,,,-0.01994399913,1.06000,1.24000
,,,-0.01994200051,1.08000,1.26000
,,,-0.01994000003,1.08000,1.26000
,,,-0.01993799955,1.08000,1.26000
,,,-0.01993599907,1.08000,1.26000
,,,-0.01993400045,1.10000,1.26000
,,,-0.01993199997,1.08000,1.28000
,,,-0.01992999949,1.08000,1.26000
,,,-0.01992800087,1.08000,1.28000
,,,-0.01992600039,1.10000,1.28000
,,,-0.01992399991,1.08000,1.28000
,,,-0.01992199942,1.10000,1.28000
,,,-0.01992000081,1.10000,1.28000
,,,-0.01991800033,1.10000,1.30000
,,,-0.01991599984,1.10000,1.30000
,,,-0.01991399936,1.10000,1.30000
,,,-0.01991200075,1.10000,1.30000
,,,-0.01991000026,1.10000,1.30000
,,,-0.01990799978,1.10000,1.30000
,,,-0.01990599930,1.10000,1.32000
,,,-0.01990400068,1.12000,1.30000
,,,-0.01990200020,1.12000,1.34000
,,,-0.01989999972,1.12000,1.32000
,,,-0.01989799924,1.12000,1.34000
,,,-0.01989600062,1.12000,1.34000
,,,-0.01989400014,1.12000,1.34000
,,,-0.01989199966,1.14000,1.34000
,,,-0.01988999918,1.12000,1.34000
,,,-0.01988800056,1.14000,1.34000
,,,-0.01988600008,1.14000,1.34000
,,,-0.01988399960,1.12000,1.36000
,,,-0.01988199912,1.16000,1.34000
,,,-0.01988000050,1.14000,1.36000
,,,-0.01987800002,1.14000,1.36000
,,,-0.01987599954,1.14000,1.36000
,,,-0.01987399906,1.16000,1.38000
,,,-0.01987200044,1.14000,1.38000
,,,-0.01986999996,1.16000,1.38000
,,,-0.01986799948,1.14000,1.38000
,,,-0.01986600086,1.16000,1.38000
,,,-0.01986400038,1.16000,1.38000
,,,-0.01986199990,1.16000,1.38000
,,,-0.01985999942,1.16000,1.38000
,,,-0.01985800080,1.16000,1.42000
,,,-0.01985600032,1.18000,1.40000
,,,-0.01985399984,1.18000,1.42000
,,,-0.01985199936,1.18000,1.42000
,,,-0.01985000074,1.18000,1.44000
,,,-0.01984800026,1.16000,1.42000
,,,-0.01984599978,1.18000,1.44000
,,,-0.01984399930,1.20000,1.44000
,,,-0.01984200068,1.18000,1.46000
,,,-0.01984000020,1.18000,1.44000
,,,-0.01983799972,1.20000,1.46000
,,,-0.01983599924,1.20000,1.46000
,,,-0.01983400062,1.20000,1.46000
,,,-0.01983200014,1.18000,1.46000
,,,-0.01982999966,1.20000,1.46000
,,,-0.01982799917,1.20000,1.46000
,,,-0.01982600056,1.20000,1.46000
,,,-0.01982400008,1.20000,1.50000
,,,-0.01982199959,1.20000,1.50000
,,,-0.01981999911,1.22000,1.50000
,,,-0.01981800050,1.22000,1.48000
,,,-0.01981600001,1.22000,1.50000
,,,-0.01981399953,1.22000,1.50000
,,,-0.01981199905,1.22000,1.50000
,,,-0.01981000043,1.24000,1.50000
,,,-0.01980799995,1.24000,1.50000
,,,-0.01980599947,1.22000,1.52000
,,,-0.01980400085,1.24000,1.50000
,,,-0.01980200037,1.24000,1.52000
,,,-0.01979999989,1.26000,1.52000
,,,-0.01979799941,1.22000,1.54000
,,,-0.01979600079,1.24000,1.52000
,,,-0.01979400031,1.24000,1.54000
,,,-0.01979199983,1.26000,1.54000
,,,-0.01978999935,1.26000,1.54000
,,,-0.01978800073,1.26000,1.54000
,,,-0.01978600025,1.26000,1.54000
,,,-0.01978399977,1.26000,1.54000
,,,-0.01978199929,1.26000,1.54000
,,,-0.01978000067,1.26000,1.58000
,,,-0.01977800019,1.28000,1.56000
,,,-0.01977599971,1.26000,1.58000
,,,-0.01977399923,1.26000,1.58000
,,,-0.01977200061,1.26000,1.58000
,,,-0.01977000013,1.28000,1.60000
,,,-0.01976799965,1.28000,1.58000
,,,-0.01976599917,1.28000,1.60000
,,,-0.01976400055,1.28000,1.60000
,,,-0.01976200007,1.28000,1.60000
,,,-0.01975999959,1.32000,1.60000
,,,-0.01975799911,1.30000,1.60000
,,,-0.01975600049,1.32000,1.62000
,,,-0.01975400001,1.30000,1.62000
,,,-0.01975199953,1.32000,1.62000
,,,-0.01974999905,1.30000,1.62000
,,,-0.01974800043,1.32000,1.62000
,,,-0.01974599995,1.32000,1.62000
,,,-0.01974399947,1.30000,1.66000
,,,-0.01974200085,1.34000,1.62000
,,,-0.01974000037,1.34000,1.66000
,,,-0.01973799989,1.34000,1.64000
,,,-0.01973599941,1.34000,1.66000
,,,-0.01973400079,1.34000,1.66000
,,,-0.01973200031,1.34000,1.66000
,,,-0.01972999983,1.36000,1.66000
,,,-0.01972799934,1.34000,1.66000
,,,-0.01972600073,1.36000,1.68000
,,,-0.01972400025,1.36000,1.68000
,,,-0.01972199976,1.36000,1.68000
,,,-0.01971999928,1.38000,1.68000
,,,-0.01971800067,1.36000,1.68000
,,,-0.01971600018,1.38000,1.68000
,,,-0.01971399970,1.38000,1.70000
,,,-0.01971199922,1.38000,1.70000
,,,-0.01971000060,1.38000,1.70000
,,,-0.01970800012,1.40000,1.70000
,,,-0.01970599964,1.38000,1.70000
,,,-0.01970399916,1.40000,1.70000
,,,-0.01970200054,1.40000,1.70000
,,,-0.01970000006,1.38000,1.74000
,,,-0.01969799958,1.40000,1.72000
,,,-0.01969599910,1.40000,1.74000
,,,-0.01969400048,1.38000,1.74000
,,,-0.01969200000,1.40000,1.74000
,,,-0.01968999952,1.42000,1.74000
,,,-0.01968799904,1.40000,1.74000
,,,-0.01968600042,1.42000,1.74000
,,,-0.01968399994,1.42000,1.74000
,,,-0.01968199946,1.44000,1.78000
,,,-0.01968000084,1.42000,1.76000
,,,-0.01967800036,1.44000,1.76000
,,,-0.01967599988,1.44000,1.76000
,,,-0.01967399940,1.42000,1.76000
,,,-0.01967200078,1.44000,1.78000
,,,-0.01967000030,1.44000,1.78000
,,,-0.01966799982,1.46000,1.78000
,,,-0.01966599934,1.46000,1.80000
,,,-0.01966400072,1.46000,1.78000
,,,-0.01966200024,1.48000,1.82000
,,,-0.01965999976,1.46000,1.80000
,,,-0.01965799928,1.48000,1.80000
,,,-0.01965600066,1.46000,1.80000
,,,-0.01965400018,1.46000,1.82000
,,,-0.01965199970,1.48000,1.80000
,,,-0.01964999922,1.48000,1.82000
,,,-0.01964800060,1.48000,1.82000
,,,-0.01964600012,1.48000,1.84000
,,,-0.01964399964,1.48000,1.82000
,,,-0.01964199916,1.48000,1.82000
,,,-0.01964000054,1.50000,1.82000
,,,-0.01963800006,1.50000,1.82000
,,,-0.01963599958,1.50000,1.84000
,,,-0.01963399909,1.52000,1.84000
,,,-0.01963200048,1.50000,1.86000
,,,-0.01963000000,1.52000,1.84000
,,,-0.01962799951,1.50000,1.86000
,,,-0.01962599903,1.50000,1.86000
,,,-0.01962400042,1.50000,1.86000
,,,-0.01962199993,1.52000,1.86000
,,,-0.01961999945,1.50000,1.86000
,,,-0.01961800084,1.52000,1.88000
,,,-0.01961600035,1.54000,1.86000
,,,-0.01961399987,1.54000,1.88000
,,,-0.01961199939,1.54000,1.88000
,,,-0.01961000077,1.54000,1.90000
,,,-0.01960800029,1.56000,1.88000
,,,-0.01960599981,1.54000,1.90000
,,,-0.01960399933,1.54000,1.90000
,,,-0.01960200071,1.54000,1.90000
,,,-0.01960000023,1.56000,1.90000
,,,-0.01959799975,1.56000,1.90000
,,,-0.01959599927,1.56000,1.90000
,,,-0.01959400065,1.58000,1.90000
,,,-0.01959200017,1.56000,1.92000
,,,-0.01958999969,1.58000,1.92000
,,,-0.01958799921,1.58000,1.92000
,,,-0.01958600059,1.58000,1.92000
,,,-0.01958400011,1.58000,1.92000
,,,-0.01958199963,1.58000,1.94000
,,,-0.01957999915,1.58000,1.94000
,,,-0.01957800053,1.60000,1.94000
,,,-0.01957600005,1.60000,1.92000
,,,-0.01957399957,1.60000,1.94000
,,,-0.01957199909,1.60000,1.94000
,,,-0.01957000047,1.60000,1.94000
,,,-0.01956799999,1.60000,1.96000
,,,-0.01956599951,1.60000,1.94000
,,,-0.01956399903,1.60000,1.94000
,,,-0.01956200041,1.60000,1.98000
,,,-0.01955999993,1.62000,1.98000
,,,-0.01955799945,1.60000,1.98000
,,,-0.01955600083,1.62000,1.98000
,,,-0.01955400035,1.62000,1.98000
,,,-0.01955199987,1.62000,1.98000
,,,-0.01954999939,1.64000,1.98000
,,,-0.01954800077,1.62000,1.98000
,,,-0.01954600029,1.64000,1.98000
,,,-0.01954399981,1.64000,1.98000
,,,-0.01954199933,1.64000,1.98000
,,,-0.01954000071,1.66000,1.98000
,,,-0.01953800023,1.64000,2.00000
,,,-0.01953599975,1.64000,2.00000
,,,-0.01953399926,1.64000,2.00000
,,,-0.01953200065,1.66000,2.00000
,,,-0.01953000017,1.66000,2.00000
,,,-0.01952799968,1.68000,2.00000
,,,-0.01952599920,1.66000,2.02000
,,,-0.01952400059,1.66000,2.02000
,,,-0.01952200010,1.70000,2.00000
,,,-0.01951999962,1.68000,2.02000
,,,-0.01951799914,1.68000,2.02000
,,,-0.01951600052,1.70000,2.00000
,,,-0.01951400004,1.66000,2.02000
,,,-0.01951199956,1.70000,2.02000
,,,-0.01950999908,1.68000,2.02000
,,,-0.01950800046,1.70000,2.02000
,,,-0.01950599998,1.72000,2.02000
,,,-0.01950399950,1.68000,2.02000
,,,-0.01950199902,1.70000,2.02000
,,,-0.01950000040,1.72000,2.06000
,,,-0.01949799992,1.72000,2.02000
,,,-0.01949599944,1.72000,2.06000
,,,-0.01949400082,1.72000,2.06000
,,,-0.01949200034,1.72000,2.06000
,,,-0.01948999986,1.72000,2.06000
,,,-0.01948799938,1.72000,2.06000
,,,-0.01948600076,1.74000,2.06000
,,,-0.01948400028,1.74000,2.08000
,,,-0.01948199980,1.74000,2.06000
,,,-0.01947999932,1.72000,2.08000
,,,-0.01947800070,1.74000,2.06000
,,,-0.01947600022,1.74000,2.08000
,,,-0.01947399974,1.76000,2.08000
,,,-0.01947199926,1.76000,2.08000
,,,-0.01947000064,1.76000,2.08000
,,,-0.01946800016,1.76000,2.08000
,,,-0.01946599968,1.76000,2.10000
,,,-0.01946399920,1.76000,2.10000
,,,-0.01946200058,1.76000,2.10000
,,,-0.01946000010,1.76000,2.10000
,,,-0.01945799962,1.78000,2.08000
,,,-0.01945599914,1.76000,2.08000
,,,-0.01945400052,1.78000,2.10000
,,,-0.01945200004,1.78000,2.10000
,,,-0.01944999956,1.78000,2.10000
,,,-0.01944799908,1.80000,2.10000
,,,-0.01944600046,1.78000,2.10000
,,,-0.01944399998,1.80000,2.10000
,,,-0.01944199950,1.80000,2.10000
,,,-0.01944000088,1.80000,2.12000
,,,-0.01943800040,1.80000,2.10000
,,,-0.01943599992,1.80000,2.10000
,,,-0.01943399943,1.80000,2.10000
,,,-0.01943200082,1.82000,2.10000
,,,-0.01943000033,1.80000,2.10000
,,,-0.01942799985,1.80000,2.14000
,,,-0.01942599937,1.82000,2.10000
,,,-0.01942400075,1.80000,2.14000
,,,-0.01942200027,1.82000,2.14000
,,,-0.01941999979,1.82000,2.12000
,,,-0.01941799931,1.82000,2.14000
,,,-0.01941600069,1.84000,2.12000
,,,-0.01941400021,1.84000,2.14000
,,,-0.01941199973,1.84000,2.14000
,,,-0.01940999925,1.84000,2.14000
,,,-0.01940800063,1.84000,2.14000
,,,-0.01940600015,1.84000,2.14000
,,,-0.01940399967,1.86000,2.14000
,,,-0.01940199919,1.86000,2.14000
,,,-0.01940000057,1.84000,2.14000
,,,-0.01939800009,1.86000,2.14000
,,,-0.01939599961,1.86000,2.14000
,,,-0.01939399913,1.86000,2.14000
,,,-0.01939200051,1.84000,2.14000
,,,-0.01939000003,1.86000,2.14000
,,,-0.01938799955,1.88000,2.16000
,,,-0.01938599907,1.88000,2.14000
,,,-0.01938400045,1.88000,2.14000
,,,-0.01938199997,1.88000,2.14000
,,,-0.01937999949,1.88000,2.14000
,,,-0.01937800087,1.88000,2.14000
,,,-0.01937600039,1.88000,2.14000
,,,-0.01937399991,1.88000,2.14000
,,,-0.01937199943,1.90000,2.16000
,,,-0.01937000081,1.88000,2.16000
,,,-0.01936800033,1.90000,2.16000
,,,-0.01936599985,1.90000,2.14000
,,,-0.01936399937,1.90000,2.16000
,,,-0.01936200075,1.92000,2.16000
,,,-0.01936000027,1.90000,2.16000
,,,-0.01935799979,1.90000,2.18000
,,,-0.01935599931,1.92000,2.14000
,,,-0.01935400069,1.90000,2.14000
,,,-0.01935200021,1.92000,2.16000
,,,-0.01934999973,1.90000,2.16000
,,,-0.01934799924,1.94000,2.16000
,,,-0.01934600063,1.92000,2.16000
,,,-0.01934400015,1.92000,2.16000
,,,-0.01934199966,1.92000,2.16000
,,,-0.01933999918,1.94000,2.16000
,,,-0.01933800057,1.92000,2.16000
,,,-0.01933600008,1.92000,2.16000
,,,-0.01933399960,1.94000,2.16000
,,,-0.01933199912,1.94000,2.16000
,,,-0.01933000050,1.96000,2.16000
,,,-0.01932800002,1.92000,2.16000
,,,-0.01932599954,1.94000,2.18000
