Documentos/Otros_resultados/Pruebas A/SDS00016.CSV

Record Length,20480,,Source,CH1,CH2
Sample Interval,CH1:0.0000040000000 CH2:0.0000040000000,,Second,Volt,Volt
Vertical Units,CH1:V CH2:V,,-0.04095999897,0.56000,0.56000
Vertical Scale,CH1:0.50 CH2:0.50,,-0.04095600173,0.58000,0.56000
Vertical Offset,CH1:-1.50000 CH2:-1.50000,,-0.04095200077,0.58000,0.56000
Horizontal Units,s,,-0.04094799981,0.56000,0.56000
Horizontal Scale,0.0024999999,,-0.04094399884,0.58000,0.56000
Model Number,SDS1102CNL+,,-0.04094000161,0.56000,0.58000
Serial Number,SDS10BA3163724,,-0.04093600065,0.56000,0.56000
Software Version,6.01.01.17,,-0.04093199968,0.56000,0.58000
,,,-0.04092799872,0.58000,0.58000
,,,-0.04092400149,0.58000,0.58000
,,,-0.04092000052,0.58000,0.58000
,,,-0.04091599956,0.56000,0.58000
,,,-0.04091199860,0.58000,0.58000
,,,-0.04090800136,0.58000,0.56000
,,,-0.04090400040,0.58000,0.58000
,,,-0.04089999944,0.58000,0.58000
,,,-0.04089599848,0.58000,0.58000
,,,-0.04089200124,0.58000,0.58000
,,,-0.04088800028,0.56000,0.58000
,,,-0.04088399932,0.58000,0.58000
,,,-0.04087999836,0.58000,0.58000
,,,-0.04087600112,0.56000,0.58000
,,,-0.04087200016,0.58000,0.58000
,,,-0.04086799920,0.58000,0.58000
,,,-0.04086399823,0.58000,0.58000
,,,-0.04086000100,0.58000,0.60000
,,,-0.04085600004,0.58000,0.58000
,,,-0.04085199907,0.60000,0.60000
,,,-0.04084799811,0.60000,0.58000
,,,-0.04084400088,0.58000,0.62000
,,,-0.04083999991,0.56000,0.60000
,,,-0.04083599895,0.60000,0.60000
,,,-0.04083200172,0.58000,0.58000
,,,-0.04082800075,0.60000,0.60000
,,,-0.04082399979,0.60000,0.60000
,,,-0.04081999883,0.58000,0.62000
,,,-0.04081600159,0.58000,0.62000
,,,-0.04081200063,0.62000,0.60000
,,,-0.04080799967,0.60000,0.62000
,,,-0.04080399871,0.58000,0.62000
,,,-0.04080000147,0.58000,0.62000
,,,-0.04079600051,0.60000,0.62000
,,,-0.04079199955,0.58000,0.62000
,,,-0.04078799859,0.60000,0.62000
,,,-0.04078400135,0.60000,0.62000
,,,-0.04078000039,0.62000,0.62000
,,,-0.04077599943,0.60000,0.62000
,,,-0.04077199847,0.60000,0.62000
,,,-0.04076800123,0.60000,0.64000
,,,-0.04076400027,0.60000,0.62000
,,,-0.04075999931,0.60000,0.62000
,,,-0.04075599834,0.62000,0.64000
,,,-0.04075200111,0.62000,0.64000
,,,-0.04074800014,0.60000,0.62000
,,,-0.04074399918,0.60000,0.62000
,,,-0.04073999822,0.62000,0.64000
,,,-0.04073600098,0.58000,0.64000
,,,-0.04073200002,0.62000,0.64000
,,,-0.04072799906,0.60000,0.64000
,,,-0.04072399810,0.62000,0.64000
,,,-0.04072000086,0.62000,0.64000
,,,-0.04071599990,0.62000,0.66000
,,,-0.04071199894,0.62000,0.66000
,,,-0.04070800170,0.64000,0.64000
,,,-0.04070400074,0.60000,0.66000
,,,-0.04069999978,0.62000,0.64000
,,,-0.04069599882,0.64000,0.66000
,,,-0.04069200158,0.62000,0.66000
,,,-0.04068800062,0.62000,0.66000
,,,-0.04068399966,0.64000,0.66000
,,,-0.04067999870,0.60000,0.66000
,,,-0.04067600146,0.62000,0.66000
,,,-0.04067200050,0.64000,0.66000
,,,-0.04066799954,0.62000,0.66000
,,,-0.04066399857,0.64000,0.66000
,,,-0.04066000134,0.64000,0.66000
,,,-0.04065600038,0.64000,0.66000
,,,-0.04065199941,0.64000,0.70000
,,,-0.04064799845,0.64000,0.68000
,,,-0.04064400122,0.64000,0.66000
,,,-0.04064000025,0.64000,0.68000
,,,-0.04063599929,0.64000,0.70000
,,,-0.04063199833,0.62000,0.70000
,,,-0.04062800109,0.64000,0.70000
,,,-0.04062400013,0.64000,0.70000
,,,-0.04061999917,0.64000,0.70000
,,,-0.04061599821,0.64000,0.70000
,,,-0.04061200097,0.66000,0.70000
,,,-0.04060800001,0.64000,0.70000
,,,-0.04060399905,0.64000,0.70000
,,,-0.04059999809,0.66000,0.70000
,,,-0.04059600085,0.66000,0.72000
,,,-0.04059199989,0.64000,0.70000
,,,-0.04058799893,0.66000,0.70000
,,,-0.04058400169,0.66000,0.70000
,,,-0.04058000073,0.66000,0.70000
,,,-0.04057599977,0.66000,0.70000
,,,-0.04057199880,0.66000,0.70000
,,,-0.04056800157,0.66000,0.72000
,,,-0.04056400061,0.66000,0.74000
,,,-0.04055999964,0.66000,0.72000
,,,-0.04055599868,0.66000,0.72000
,,,-0.04055200145,0.66000,0.72000
,,,-0.04054800048,0.66000,0.74000
,,,-0.04054399952,0.66000,0.72000
,,,-0.04053999856,0.66000,0.74000
,,,-0.04053600132,0.66000,0.74000
,,,-0.04053200036,0.68000,0.74000
,,,-0.04052799940,0.66000,0.74000
,,,-0.04052399844,0.66000,0.74000
,,,-0.04052000120,0.68000,0.74000
,,,-0.04051600024,0.68000,0.76000
,,,-0.04051199928,0.66000,0.74000
,,,-0.04050799832,0.68000,0.74000
,,,-0.04050400108,0.68000,0.74000
,,,-0.04050000012,0.68000,0.76000
,,,-0.04049599916,0.68000,0.76000
,,,-0.04049199820,0.70000,0.74000
,,,-0.04048800096,0.68000,0.78000
,,,-0.04048400000,0.68000,0.78000
,,,-0.04047999904,0.68000,0.78000
,,,-0.04047599807,0.68000,0.76000
,,,-0.04047200084,0.68000,0.78000
,,,-0.04046799988,0.70000,0.78000
,,,-0.04046399891,0.68000,0.78000
,,,-0.04046000168,0.70000,0.78000
,,,-0.04045600072,0.70000,0.80000
,,,-0.04045199975,0.70000,0.80000
,,,-0.04044799879,0.70000,0.80000
,,,-0.04044400156,0.70000,0.80000
,,,-0.04044000059,0.70000,0.78000
,,,-0.04043599963,0.72000,0.80000
,,,-0.04043199867,0.70000,0.82000
,,,-0.04042800143,0.70000,0.82000
,,,-0.04042400047,0.70000,0.82000
,,,-0.04041999951,0.70000,0.82000
,,,-0.04041599855,0.72000,0.80000
,,,-0.04041200131,0.74000,0.82000
,,,-0.04040800035,0.70000,0.82000
,,,-0.04040399939,0.72000,0.82000
,,,-0.04039999843,0.72000,0.82000
,,,-0.04039600119,0.74000,0.82000
,,,-0.04039200023,0.72000,0.84000
,,,-0.04038799927,0.74000,0.82000
,,,-0.04038399830,0.74000,0.82000
,,,-0.04038000107,0.76000,0.86000
,,,-0.04037600011,0.74000,0.86000
,,,-0.04037199914,0.74000,0.86000
,,,-0.04036799818,0.74000,0.84000
,,,-0.04036400095,0.74000,0.84000
,,,-0.04035999998,0.76000,0.82000
,,,-0.04035599902,0.74000,0.86000
,,,-0.04035199806,0.74000,0.86000
,,,-0.04034800082,0.76000,0.86000
,,,-0.04034399986,0.76000,0.86000
,,,-0.04033999890,0.76000,0.86000
,,,-0.04033600166,0.76000,0.88000
,,,-0.04033200070,0.76000,0.88000
,,,-0.04032799974,0.76000,0.88000
,,,-0.04032399878,0.78000,0.86000
,,,-0.04032000154,0.76000,0.88000
,,,-0.04031600058,0.78000,0.86000
,,,-0.04031199962,0.78000,0.88000
,,,-0.04030799866,0.78000,0.90000
,,,-0.04030400142,0.78000,0.88000
,,,-0.04030000046,0.78000,0.90000
,,,-0.04029599950,0.76000,0.90000
,,,-0.04029199854,0.78000,0.90000
,,,-0.04028800130,0.80000,0.90000
,,,-0.04028400034,0.78000,0.90000
,,,-0.04027999938,0.78000,0.90000
,,,-0.04027599841,0.80000,0.90000
,,,-0.04027200118,0.80000,0.92000
,,,-0.04026800022,0.78000,0.94000
,,,-0.04026399925,0.80000,0.90000
,,,-0.04025999829,0.80000,0.90000
,,,-0.04025600106,0.80000,0.94000
,,,-0.04025200009,0.82000,0.94000
,,,-0.04024799913,0.82000,0.94000
,,,-0.04024399817,0.80000,0.94000
,,,-0.04024000093,0.80000,0.94000
,,,-0.04023599997,0.82000,0.94000
,,,-0.04023199901,0.82000,0.96000
,,,-0.04022799805,0.82000,0.96000
,,,-0.04022400081,0.82000,0.96000
,,,-0.04021999985,0.84000,0.96000
,,,-0.04021599889,0.84000,0.96000
,,,-0.04021200165,0.82000,0.98000
,,,-0.04020800069,0.84000,0.98000
,,,-0.04020399973,0.84000,0.98000
,,,-0.04019999877,0.84000,0.96000
,,,-0.04019600153,0.84000,0.98000
,,,-0.04019200057,0.84000,0.98000
,,,-0.04018799961,0.84000,0.98000
,,,-0.04018399864,0.84000,0.98000
,,,-0.04018000141,0.84000,0.98000
,,,-0.04017600045,0.86000,0.98000
,,,-0.04017199948,0.86000,1.02000
,,,-0.04016799852,0.86000,0.98000
,,,-0.04016400129,0.86000,1.02000
,,,-0.04016000032,0.86000,0.98000
,,,-0.04015599936,0.86000,1.02000
,,,-0.04015199840,0.86000,1.02000
,,,-0.04014800116,0.86000,1.02000
,,,-0.04014400020,0.86000,1.02000
,,,-0.04013999924,0.88000,1.02000
,,,-0.04013599828,0.88000,1.02000
,,,-0.04013200104,0.90000,1.04000
,,,-0.04012800008,0.86000,1.02000
,,,-0.04012399912,0.88000,1.04000
,,,-0.04011999816,0.90000,1.04000
,,,-0.04011600092,0.90000,1.06000
,,,-0.04011199996,0.90000,1.04000
,,,-0.04010799900,0.92000,1.04000
,,,-0.04010400176,0.90000,1.06000
,,,-0.04010000080,0.90000,1.06000
,,,-0.04009599984,0.90000,1.06000
,,,-0.04009199888,0.92000,1.06000
,,,-0.04008800164,0.92000,1.06000
,,,-0.04008400068,0.92000,1.06000
,,,-0.04007999972,0.94000,1.06000
,,,-0.04007599875,0.92000,1.08000
,,,-0.04007200152,0.92000,1.10000
,,,-0.04006800056,0.92000,1.06000
,,,-0.04006399959,0.94000,1.06000
,,,-0.04005999863,0.94000,1.08000
,,,-0.04005600139,0.94000,1.10000
,,,-0.04005200043,0.94000,1.10000
,,,-0.04004799947,0.94000,1.10000
,,,-0.04004399851,0.94000,1.10000
,,,-0.04004000127,0.94000,1.10000
,,,-0.04003600031,0.96000,1.10000
,,,-0.04003199935,0.94000,1.10000
,,,-0.04002799839,0.96000,1.12000
,,,-0.04002400115,0.94000,1.12000
,,,-0.04002000019,0.94000,1.10000
,,,-0.04001599923,0.98000,1.12000
,,,-0.04001199827,0.96000,1.12000
,,,-0.04000800103,0.96000,1.14000
,,,-0.04000400007,0.98000,1.14000
,,,-0.03999999911,0.98000,1.14000
,,,-0.03999599814,0.98000,1.14000
,,,-0.03999200091,0.98000,1.14000
,,,-0.03998799995,0.98000,1.14000
,,,-0.03998399898,1.00000,1.14000
,,,-0.03998000175,1.00000,1.16000
,,,-0.03997600079,1.00000,1.14000
,,,-0.03997199982,1.00000,1.16000
,,,-0.03996799886,1.00000,1.16000
,,,-0.03996400163,1.00000,1.18000
,,,-0.03996000066,1.02000,1.18000
,,,-0.03995599970,1.00000,1.18000
,,,-0.03995199874,1.00000,1.18000
,,,-0.03994800150,1.02000,1.18000
,,,-0.03994400054,1.02000,1.18000
,,,-0.03993999958,1.02000,1.18000
,,,-0.03993599862,1.04000,1.20000
,,,-0.03993200138,1.02000,1.18000
,,,-0.03992800042,1.02000,1.20000
,,,-0.03992399946,1.06000,1.20000
,,,-0.03991999850,1.04000,1.22000
,,,-0.03991600126,1.04000,1.20000
,,,-0.03991200030,1.04000,1.22000
,,,-0.03990799934,1.06000,1.22000
,,,-0.03990399837,1.06000,1.22000
,,,-0.03990000114,1.06000,1.22000
,,,-0.03989600018,1.08000,1.22000
,,,-0.03989199921,1.06000,1.24000
,,,-0.03988799825,1.08000,1.22000
,,,-0.03988400102,1.08000,1.22000
,,,-0.03988000005,1.08000,1.26000
,,,-0.03987599909,1.08000,1.26000
,,,-0.03987199813,1.08000,1.26000
,,,-0.03986800089,1.08000,1.26000
,,,-0.03986399993,1.08000,1.26000
,,,-0.03985999897,1.08000,1.26000
,,,-0.03985600173,1.08000,1.26000
,,,-0.03985200077,1.10000,1.26000
,,,-0.03984799981,1.10000,1.26000
,,,-0.03984399885,1.10000,1.28000
,,,-0.03984000161,1.10000,1.28000
,,,-0.03983600065,1.10000,1.30000
,,,-0.03983199969,1.10000,1.28000
,,,-0.03982799873,1.12000,1.30000
,,,-0.03982400149,1.12000,1.30000
,,,-0.03982000053,1.12000,1.30000
,,,-0.03981599957,1.14000,1.30000
,,,-0.03981199861,1.12000,1.30000
,,,-0.03980800137,1.12000,1.30000
,,,-0.03980400041,1.14000,1.30000
,,,-0.03979999945,1.14000,1.30000
,,,-0.03979599848,1.14000,1.34000
,,,-0.03979200125,1.16000,1.32000
,,,-0.03978800029,1.16000,1.34000
,,,-0.03978399932,1.16000,1.34000
,,,-0.03977999836,1.16000,1.34000
,,,-0.03977600113,1.16000,1.34000
,,,-0.03977200016,1.18000,1.34000
,,,-0.03976799920,1.16000,1.34000
,,,-0.03976399824,1.18000,1.34000
,,,-0.03976000100,1.18000,1.34000
,,,-0.03975600004,1.18000,1.36000
,,,-0.03975199908,1.18000,1.36000
,,,-0.03974799812,1.18000,1.36000
,,,-0.03974400088,1.18000,1.36000
,,,-0.03973999992,1.18000,1.36000
,,,-0.03973599896,1.22000,1.38000
,,,-0.03973200172,1.18000,1.38000
,,,-0.03972800076,1.20000,1.38000
,,,-0.03972399980,1.20000,1.38000
,,,-0.03971999884,1.20000,1.38000
,,,-0.03971600160,1.20000,1.42000
,,,-0.03971200064,1.22000,1.38000
,,,-0.03970799968,1.24000,1.42000
,,,-0.03970399871,1.22000,1.40000
,,,-0.03970000148,1.22000,1.42000
,,,-0.03969600052,1.22000,1.42000
,,,-0.03969199955,1.22000,1.42000
,,,-0.03968799859,1.22000,1.42000
,,,-0.03968400136,1.24000,1.42000
,,,-0.03968000039,1.24000,1.42000
,,,-0.03967599943,1.24000,1.42000
,,,-0.03967199847,1.24000,1.44000
,,,-0.03966800123,1.26000,1.44000
,,,-0.03966400027,1.26000,1.44000
,,,-0.03965999931,1.26000,1.44000
,,,-0.03965599835,1.26000,1.46000
,,,-0.03965200111,1.28000,1.46000
,,,-0.03964800015,1.26000,1.46000
,,,-0.03964399919,1.28000,1.46000
,,,-0.03963999823,1.28000,1.46000
,,,-0.03963600099,1.28000,1.46000
,,,-0.03963200003,1.28000,1.46000
,,,-0.03962799907,1.28000,1.46000
,,,-0.03962399811,1.30000,1.46000
,,,-0.03962000087,1.30000,1.48000
,,,-0.03961599991,1.30000,1.50000
,,,-0.03961199895,1.30000,1.50000
,,,-0.03960800171,1.30000,1.50000
,,,-0.03960400075,1.30000,1.50000
,,,-0.03959999979,1.30000,1.50000
,,,-0.03959599882,1.30000,1.50000
,,,-0.03959200159,1.32000,1.50000
,,,-0.03958800063,1.34000,1.50000
,,,-0.03958399966,1.34000,1.52000
,,,-0.03957999870,1.34000,1.52000
,,,-0.03957600147,1.36000,1.52000
,,,-0.03957200050,1.34000,1.52000
,,,-0.03956799954,1.34000,1.54000
,,,-0.03956399858,1.36000,1.54000
,,,-0.03956000134,1.34000,1.54000
,,,-0.03955600038,1.38000,1.54000
,,,-0.03955199942,1.36000,1.54000
,,,-0.03954799846,1.34000,1.54000
,,,-0.03954400122,1.36000,1.54000
,,,-0.03954000026,1.38000,1.58000
,,,-0.03953599930,1.38000,1.56000
,,,-0.03953199834,1.40000,1.56000
,,,-0.03952800110,1.40000,1.58000
,,,-0.03952400014,1.40000,1.58000
,,,-0.03951999918,1.38000,1.58000
,,,-0.03951599821,1.40000,1.58000
,,,-0.03951200098,1.40000,1.58000
,,,-0.03950800002,1.40000,1.60000
,,,-0.03950399905,1.40000,1.60000
,,,-0.03949999809,1.40000,1.60000
,,,-0.03949600086,1.40000,1.60000
,,,-0.03949199989,1.40000,1.60000
,,,-0.03948799893,1.42000,1.60000
,,,-0.03948400170,1.40000,1.60000
,,,-0.03948000073,1.42000,1.62000
,,,-0.03947599977,1.42000,1.62000
,,,-0.03947199881,1.42000,1.62000
,,,-0.03946800157,1.44000,1.62000
,,,-0.03946400061,1.44000,1.62000
,,,-0.03945999965,1.44000,1.66000
,,,-0.03945599869,1.44000,1.66000
,,,-0.03945200145,1.46000,1.66000
,,,-0.03944800049,1.46000,1.66000
,,,-0.03944399953,1.46000,1.62000
,,,-0.03943999857,1.48000,1.66000
,,,-0.03943600133,1.46000,1.66000
,,,-0.03943200037,1.48000,1.66000
,,,-0.03942799941,1.48000,1.68000
,,,-0.03942399845,1.48000,1.66000
,,,-0.03942000121,1.48000,1.68000
,,,-0.03941600025,1.48000,1.68000
,,,-0.03941199929,1.48000,1.68000
,,,-0.03940799832,1.48000,1.68000
,,,-0.03940400109,1.48000,1.70000
,,,-0.03940000013,1.50000,1.68000
,,,-0.03939599916,1.50000,1.70000
,,,-0.03939199820,1.50000,1.70000
,,,-0.03938800097,1.50000,1.70000
,,,-0.03938400000,1.50000,1.70000
,,,-0.03937999904,1.50000,1.70000
,,,-0.03937599808,1.50000,1.70000
,,,-0.03937200084,1.52000,1.70000
,,,-0.03936799988,1.52000,1.70000
,,,-0.03936399892,1.52000,1.70000
,,,-0.03936000168,1.54000,1.74000
,,,-0.03935600072,1.54000,1.74000
,,,-0.03935199976,1.54000,1.74000
,,,-0.03934799880,1.56000,1.74000
,,,-0.03934400156,1.54000,1.74000
,,,-0.03934000060,1.54000,1.74000
,,,-0.03933599964,1.56000,1.74000
,,,-0.03933199868,1.54000,1.76000
,,,-0.03932800144,1.56000,1.74000
,,,-0.03932400048,1.56000,1.76000
,,,-0.03931999952,1.56000,1.74000
,,,-0.03931599855,1.58000,1.76000
,,,-0.03931200132,1.58000,1.78000
,,,-0.03930800036,1.58000,1.78000
,,,-0.03930399939,1.60000,1.78000
,,,-0.03929999843,1.60000,1.78000
,,,-0.03929600120,1.60000,1.78000
,,,-0.03929200023,1.58000,1.78000
,,,-0.03928799927,1.58000,1.80000
,,,-0.03928399831,1.60000,1.80000
,,,-0.03928000107,1.60000,1.82000
,,,-0.03927600011,1.62000,1.78000
,,,-0.03927199915,1.60000,1.82000
,,,-0.03926799819,1.62000,1.82000
,,,-0.03926400095,1.62000,1.82000
,,,-0.03925999999,1.62000,1.82000
,,,-0.03925599903,1.62000,1.82000
,,,-0.03925199807,1.62000,1.82000
,,,-0.03924800083,1.62000,1.82000
,,,-0.03924399987,1.64000,1.84000
,,,-0.03923999891,1.64000,1.84000
,,,-0.03923600167,1.64000,1.84000
,,,-0.03923200071,1.64000,1.84000
,,,-0.03922799975,1.66000,1.84000
,,,-0.03922399879,1.66000,1.84000
,,,-0.03922000155,1.64000,1.86000
,,,-0.03921600059,1.66000,1.84000
,,,-0.03921199962,1.66000,1.86000
,,,-0.03920799866,1.66000,1.86000
,,,-0.03920400143,1.66000,1.86000
,,,-0.03920000046,1.66000,1.86000
,,,-0.03919599950,1.68000,1.88000
,,,-0.03919199854,1.70000,1.86000
,,,-0.03918800130,1.70000,1.86000
,,,-0.03918400034,1.68000,1.86000
,,,-0.03917999938,1.70000,1.88000
,,,-0.03917599842,1.70000,1.90000
,,,-0.03917200118,1.68000,1.90000
,,,-0.03916800022,1.72000,1.90000
,,,-0.03916399926,1.70000,1.90000
,,,-0.03915999830,1.72000,1.90000
,,,-0.03915600106,1.72000,1.92000
,,,-0.03915200010,1.72000,1.90000
,,,-0.03914799914,1.72000,1.92000
,,,-0.03914399818,1.72000,1.92000
,,,-0.03914000094,1.74000,1.92000
,,,-0.03913599998,1.74000,1.92000
,,,-0.03913199902,1.72000,1.92000
,,,-0.03912799805,1.74000,1.94000
,,,-0.03912400082,1.74000,1.94000
,,,-0.03911999986,1.76000,1.94000
,,,-0.03911599889,1.74000,1.94000
,,,-0.03911200166,1.74000,1.94000
,,,-0.03910800070,1.76000,1.94000
,,,-0.03910399973,1.76000,1.94000
,,,-0.03909999877,1.76000,1.94000
,,,-0.03909600154,1.80000,1.94000
,,,-0.03909200057,1.78000,1.96000
,,,-0.03908799961,1.78000,1.96000
,,,-0.03908399865,1.76000,1.98000
,,,-0.03908000141,1.78000,1.98000
,,,-0.03907600045,1.78000,1.98000
,,,-0.03907199949,1.80000,1.98000
,,,-0.03906799853,1.80000,1.98000
,,,-0.03906400129,1.80000,1.98000
,,,-0.03906000033,1.78000,2.02000
,,,-0.03905599937,1.80000,2.00000
,,,-0.03905199841,1.80000,2.00000
,,,-0.03904800117,1.82000,1.98000
,,,-0.03904400021,1.82000,2.00000
,,,-0.03903999925,1.82000,2.00000
,,,-0.03903599828,1.82000,2.00000
,,,-0.03903200105,1.82000,2.00000
,,,-0.03902800009,1.82000,2.02000
,,,-0.03902399912,1.84000,2.00000
,,,-0.03901999816,1.84000,2.02000
,,,-0.03901600093,1.82000,2.02000
,,,-0.03901199996,1.84000,2.02000
,,,-0.03900799900,1.84000,2.02000
,,,-0.03900399804,1.86000,2.02000
,,,-0.03900000080,1.86000,2.02000
,,,-0.03899599984,1.86000,2.06000
,,,-0.03899199888,1.84000,2.02000
,,,-0.03898800164,1.86000,2.06000
,,,-0.03898400068,1.86000,2.06000
,,,-0.03897999972,1.88000,2.06000
,,,-0.03897599876,1.88000,2.06000
,,,-0.03897200152,1.88000,2.06000
,,,-0.03896800056,1.88000,2.06000
,,,-0.03896399960,1.88000,2.06000
,,,-0.03895999864,1.88000,2.10000
,,,-0.03895600140,1.88000,2.08000
,,,-0.03895200044,1.90000,2.08000
,,,-0.03894799948,1.90000,2.08000
,,,-0.03894399852,1.90000,2.10000
,,,-0.03894000128,1.90000,2.10000
,,,-0.03893600032,1.90000,2.10000
,,,-0.03893199936,1.90000,2.10000
,,,-0.03892799839,1.92000,2.10000
,,,-0.03892400116,1.90000,2.10000
,,,-0.03892000020,1.92000,2.10000
,,,-0.03891599923,1.92000,2.10000
,,,-0.03891199827,1.94000,2.12000
,,,-0.03890800104,1.94000,2.10000
,,,-0.03890400007,1.96000,2.14000
,,,-0.03889999911,1.94000,2.14000
,,,-0.03889599815,1.96000,2.14000
,,,-0.03889200091,1.96000,2.12000
,,,-0.03888799995,1.96000,2.14000
,,,-0.03888399899,1.96000,2.14000
,,,-0.03888000175,1.96000,2.12000
,,,-0.03887600079,1.96000,2.14000
,,,-0.03887199983,1.96000,2.14000
,,,-0.03886799887,1.96000,2.14000
,,,-0.03886400163,1.98000,2.14000
,,,-0.03886000067,1.98000,2.14000
,,,-0.03885599971,1.98000,2.16000
,,,-0.03885199875,1.98000,2.16000
,,,-0.03884800151,2.00000,2.16000
,,,-0.03884400055,1.98000,2.16000
,,,-0.03883999959,1.98000,2.16000
,,,-0.03883599862,1.98000,2.16000
,,,-0.03883200139,2.00000,2.16000
,,,-0.03882800043,2.00000,2.18000
,,,-0.03882399946,2.00000,2.18000
,,,-0.03881999850,2.02000,2.18000
,,,-0.03881600127,2.02000,2.18000
,,,-0.03881200030,2.02000,2.18000
,,,-0.03880799934,2.00000,2.18000
,,,-0.03880399838,2.02000,2.18000
,,,-0.03880000114,2.00000,2.18000
,,,-0.03879600018,2.02000,2.18000
,,,-0.03879199922,2.04000,2.18000
,,,-0.03878799826,2.04000,2.22000
,,,-0.03878400102,2.04000,2.20000
,,,-0.03878000006,2.04000,2.20000
,,,-0.03877599910,2.04000,2.22000
,,,-0.03877199814,2.04000,2.22000
,,,-0.03876800090,2.04000,2.22000
,,,-0.03876399994,2.04000,2.22000
,,,-0.03875999898,2.04000,2.22000
,,,-0.03875600174,2.04000,2.22000
,,,-0.03875200078,2.04000,2.22000
,,,-0.03874799982,2.06000,2.22000
,,,-0.03874399886,2.08000,2.22000
,,,-0.03874000162,2.06000,2.24000
,,,-0.03873600066,2.06000,2.22000
,,,-0.03873199970,2.08000,2.24000
,,,-0.03872799873,2.08000,2.24000
,,,-0.03872400150,2.08000,2.24000
,,,-0.03872000054,2.08000,2.26000
,,,-0.03871599957,2.12000,2.24000
,,,-0.03871199861,2.10000,2.24000
,,,-0.03870800138,2.10000,2.26000
,,,-0.03870400041,2.08000,2.24000
,,,-0.03869999945,2.10000,2.26000
,,,-0.03869599849,2.10000,2.26000
,,,-0.03869200125,2.10000,2.26000
,,,-0.03868800029,2.10000,2.26000
,,,-0.03868399933,2.10000,2.26000
,,,-0.03867999837,2.10000,2.26000
,,,-0.03867600113,2.10000,2.26000
,,,-0.03867200017,2.12000,2.26000
,,,-0.03866799921,2.12000,2.30000
,,,-0.03866399825,2.12000,2.26000
,,,-0.03866000101,2.10000,2.30000
,,,-0.03865600005,2.12000,2.30000
,,,-0.03865199909,2.12000,2.30000
