Documentos/Otros_resultados/Pruebas A/SDS00006.CSV

Record Length,20480,,Source,CH1,CH2
Sample Interval,CH1:0.0000080000000 CH2:0.0000080000000,,Second,Volt,Volt
Vertical Units,CH1:V CH2:V,,-0.08191999793,0.58000,0.60000
Vertical Scale,CH1:0.50 CH2:0.50,,-0.08191200346,0.58000,0.60000
Vertical Offset,CH1:-1.50000 CH2:-1.50000,,-0.08190400153,0.58000,0.58000
Horizontal Units,s,,-0.08189599961,0.60000,0.60000
Horizontal Scale,0.0049999999,,-0.08188799769,0.60000,0.60000
Model Number,SDS1102CNL+,,-0.08188000321,0.58000,0.60000
Serial Number,SDS10BA3163724,,-0.08187200129,0.60000,0.62000
Software Version,6.01.01.17,,-0.08186399937,0.60000,0.62000
,,,-0.08185599744,0.58000,0.62000
,,,-0.08184800297,0.60000,0.62000
,,,-0.08184000105,0.58000,0.62000
,,,-0.08183199912,0.60000,0.62000
,,,-0.08182399720,0.60000,0.62000
,,,-0.08181600273,0.60000,0.62000
,,,-0.08180800080,0.60000,0.62000
,,,-0.08179999888,0.60000,0.62000
,,,-0.08179199696,0.60000,0.64000
,,,-0.08178400248,0.60000,0.62000
,,,-0.08177600056,0.60000,0.64000
,,,-0.08176799864,0.60000,0.64000
,,,-0.08175999671,0.60000,0.62000
,,,-0.08175200224,0.62000,0.64000
,,,-0.08174400032,0.64000,0.64000
,,,-0.08173599839,0.62000,0.64000
,,,-0.08172799647,0.62000,0.64000
,,,-0.08172000200,0.62000,0.64000
,,,-0.08171200007,0.62000,0.64000
,,,-0.08170399815,0.62000,0.66000
,,,-0.08169599622,0.64000,0.64000
,,,-0.08168800175,0.62000,0.64000
,,,-0.08167999983,0.62000,0.66000
,,,-0.08167199790,0.64000,0.66000
,,,-0.08166400343,0.64000,0.66000
,,,-0.08165600151,0.62000,0.66000
,,,-0.08164799958,0.62000,0.66000
,,,-0.08163999766,0.64000,0.66000
,,,-0.08163200319,0.64000,0.66000
,,,-0.08162400126,0.64000,0.66000
,,,-0.08161599934,0.64000,0.66000
,,,-0.08160799742,0.64000,0.68000
,,,-0.08160000294,0.66000,0.66000
,,,-0.08159200102,0.66000,0.66000
,,,-0.08158399910,0.66000,0.66000
,,,-0.08157599717,0.66000,0.66000
,,,-0.08156800270,0.66000,0.66000
,,,-0.08156000078,0.66000,0.68000
,,,-0.08155199885,0.66000,0.70000
,,,-0.08154399693,0.66000,0.68000
,,,-0.08153600246,0.64000,0.70000
,,,-0.08152800053,0.66000,0.66000
,,,-0.08151999861,0.66000,0.70000
,,,-0.08151199669,0.66000,0.70000
,,,-0.08150400221,0.66000,0.70000
,,,-0.08149600029,0.66000,0.70000
,,,-0.08148799837,0.66000,0.70000
,,,-0.08147999644,0.66000,0.70000
,,,-0.08147200197,0.68000,0.70000
,,,-0.08146400005,0.68000,0.72000
,,,-0.08145599812,0.68000,0.72000
,,,-0.08144799620,0.66000,0.70000
,,,-0.08144000173,0.66000,0.72000
,,,-0.08143199980,0.66000,0.72000
,,,-0.08142399788,0.68000,0.70000
,,,-0.08141600341,0.68000,0.72000
,,,-0.08140800148,0.68000,0.72000
,,,-0.08139999956,0.68000,0.72000
,,,-0.08139199764,0.68000,0.74000
,,,-0.08138400316,0.68000,0.72000
,,,-0.08137600124,0.68000,0.72000
,,,-0.08136799932,0.68000,0.72000
,,,-0.08135999739,0.68000,0.72000
,,,-0.08135200292,0.70000,0.72000
,,,-0.08134400100,0.70000,0.74000
,,,-0.08133599907,0.68000,0.74000
,,,-0.08132799715,0.70000,0.74000
,,,-0.08132000268,0.70000,0.74000
,,,-0.08131200075,0.70000,0.74000
,,,-0.08130399883,0.70000,0.74000
,,,-0.08129599690,0.70000,0.74000
,,,-0.08128800243,0.70000,0.74000
,,,-0.08128000051,0.70000,0.74000
,,,-0.08127199858,0.72000,0.74000
,,,-0.08126399666,0.70000,0.74000
,,,-0.08125600219,0.72000,0.76000
,,,-0.08124800026,0.72000,0.74000
,,,-0.08123999834,0.72000,0.74000
,,,-0.08123199642,0.74000,0.78000
,,,-0.08122400194,0.70000,0.76000
,,,-0.08121600002,0.72000,0.74000
,,,-0.08120799810,0.72000,0.78000
,,,-0.08119999617,0.70000,0.78000
,,,-0.08119200170,0.72000,0.78000
,,,-0.08118399978,0.72000,0.80000
,,,-0.08117599785,0.74000,0.78000
,,,-0.08116800338,0.74000,0.78000
,,,-0.08116000146,0.74000,0.80000
,,,-0.08115199953,0.74000,0.80000
,,,-0.08114399761,0.74000,0.78000
,,,-0.08113600314,0.74000,0.82000
,,,-0.08112800121,0.76000,0.80000
,,,-0.08111999929,0.76000,0.78000
,,,-0.08111199737,0.74000,0.80000
,,,-0.08110400289,0.76000,0.80000
,,,-0.08109600097,0.76000,0.80000
,,,-0.08108799905,0.76000,0.80000
,,,-0.08107999712,0.76000,0.80000
,,,-0.08107200265,0.78000,0.82000
,,,-0.08106400073,0.76000,0.82000
,,,-0.08105599880,0.76000,0.82000
,,,-0.08104799688,0.76000,0.82000
,,,-0.08104000241,0.76000,0.82000
,,,-0.08103200048,0.76000,0.82000
,,,-0.08102399856,0.78000,0.82000
,,,-0.08101599663,0.78000,0.84000
,,,-0.08100800216,0.78000,0.84000
,,,-0.08100000024,0.78000,0.82000
,,,-0.08099199831,0.76000,0.82000
,,,-0.08098399639,0.80000,0.82000
,,,-0.08097600192,0.78000,0.84000
,,,-0.08096799999,0.78000,0.84000
,,,-0.08095999807,0.78000,0.86000
,,,-0.08095199615,0.80000,0.82000
,,,-0.08094400167,0.78000,0.86000
,,,-0.08093599975,0.80000,0.86000
,,,-0.08092799783,0.80000,0.86000
,,,-0.08092000335,0.80000,0.86000
,,,-0.08091200143,0.80000,0.86000
,,,-0.08090399951,0.80000,0.86000
,,,-0.08089599758,0.80000,0.86000
,,,-0.08088800311,0.80000,0.86000
,,,-0.08088000119,0.80000,0.86000
,,,-0.08087199926,0.80000,0.86000
,,,-0.08086399734,0.82000,0.86000
,,,-0.08085600287,0.82000,0.88000
,,,-0.08084800094,0.82000,0.88000
,,,-0.08083999902,0.84000,0.86000
,,,-0.08083199710,0.82000,0.88000
,,,-0.08082400262,0.84000,0.86000
,,,-0.08081600070,0.82000,0.88000
,,,-0.08080799878,0.84000,0.88000
,,,-0.08079999685,0.84000,0.88000
,,,-0.08079200238,0.82000,0.88000
,,,-0.08078400046,0.86000,0.88000
,,,-0.08077599853,0.84000,0.88000
,,,-0.08076799661,0.84000,0.90000
,,,-0.08076000214,0.84000,0.90000
,,,-0.08075200021,0.84000,0.90000
,,,-0.08074399829,0.86000,0.90000
,,,-0.08073599637,0.86000,0.90000
,,,-0.08072800189,0.84000,0.90000
,,,-0.08071999997,0.86000,0.90000
,,,-0.08071199805,0.86000,0.92000
,,,-0.08070399612,0.86000,0.94000
,,,-0.08069600165,0.86000,0.90000
,,,-0.08068799973,0.86000,0.94000
,,,-0.08067999780,0.88000,0.92000
,,,-0.08067200333,0.86000,0.94000
,,,-0.08066400141,0.88000,0.94000
,,,-0.08065599948,0.88000,0.94000
,,,-0.08064799756,0.88000,0.94000
,,,-0.08064000309,0.86000,0.96000
,,,-0.08063200116,0.86000,0.94000
,,,-0.08062399924,0.90000,0.96000
,,,-0.08061599731,0.90000,0.96000
,,,-0.08060800284,0.88000,0.96000
,,,-0.08060000092,0.90000,0.96000
,,,-0.08059199899,0.90000,0.94000
,,,-0.08058399707,0.88000,0.96000
,,,-0.08057600260,0.90000,0.96000
,,,-0.08056800067,0.92000,0.96000
,,,-0.08055999875,0.92000,0.98000
,,,-0.08055199683,0.90000,0.96000
,,,-0.08054400235,0.92000,0.96000
,,,-0.08053600043,0.92000,0.98000
,,,-0.08052799851,0.90000,0.98000
,,,-0.08051999658,0.92000,0.98000
,,,-0.08051200211,0.90000,0.98000
,,,-0.08050400019,0.92000,0.98000
,,,-0.08049599826,0.92000,0.98000
,,,-0.08048799634,0.92000,0.98000
,,,-0.08048000187,0.92000,0.98000
,,,-0.08047199994,0.94000,0.98000
,,,-0.08046399802,0.94000,0.98000
,,,-0.08045599610,0.94000,0.98000
,,,-0.08044800162,0.94000,1.02000
,,,-0.08043999970,0.94000,1.02000
,,,-0.08043199778,0.94000,1.02000
,,,-0.08042400330,0.94000,1.02000
,,,-0.08041600138,0.96000,1.02000
,,,-0.08040799946,0.94000,1.02000
,,,-0.08039999753,0.94000,1.04000
,,,-0.08039200306,0.94000,1.02000
,,,-0.08038400114,0.96000,1.04000
,,,-0.08037599921,0.98000,1.02000
,,,-0.08036799729,0.96000,1.02000
,,,-0.08036000282,0.96000,1.04000
,,,-0.08035200089,0.96000,1.04000
,,,-0.08034399897,0.96000,1.04000
,,,-0.08033599705,0.96000,1.04000
,,,-0.08032800257,0.98000,1.04000
,,,-0.08032000065,0.98000,1.06000
,,,-0.08031199872,0.98000,1.06000
,,,-0.08030399680,0.98000,1.04000
,,,-0.08029600233,0.98000,1.06000
,,,-0.08028800040,0.98000,1.06000
,,,-0.08027999848,1.00000,1.06000
,,,-0.08027199656,0.98000,1.06000
,,,-0.08026400208,1.00000,1.06000
,,,-0.08025600016,1.00000,1.06000
,,,-0.08024799824,1.00000,1.06000
,,,-0.08023999631,1.02000,1.06000
,,,-0.08023200184,1.02000,1.06000
,,,-0.08022399992,1.02000,1.06000
,,,-0.08021599799,1.02000,1.08000
,,,-0.08020800352,1.02000,1.06000
,,,-0.08020000160,1.02000,1.08000
,,,-0.08019199967,1.02000,1.10000
,,,-0.08018399775,1.02000,1.08000
,,,-0.08017600328,1.02000,1.10000
,,,-0.08016800135,1.02000,1.10000
,,,-0.08015999943,1.02000,1.08000
,,,-0.08015199751,1.04000,1.10000
,,,-0.08014400303,1.02000,1.10000
,,,-0.08013600111,1.02000,1.10000
,,,-0.08012799919,1.04000,1.10000
,,,-0.08011999726,1.02000,1.12000
,,,-0.08011200279,1.06000,1.10000
,,,-0.08010400087,1.04000,1.12000
,,,-0.08009599894,1.06000,1.12000
,,,-0.08008799702,1.06000,1.14000
,,,-0.08008000255,1.04000,1.14000
,,,-0.08007200062,1.04000,1.14000
,,,-0.08006399870,1.06000,1.12000
,,,-0.08005599678,1.06000,1.14000
,,,-0.08004800230,1.06000,1.14000
,,,-0.08004000038,1.06000,1.14000
,,,-0.08003199846,1.08000,1.14000
,,,-0.08002399653,1.08000,1.14000
,,,-0.08001600206,1.08000,1.14000
,,,-0.08000800014,1.08000,1.14000
,,,-0.07999999821,1.08000,1.14000
,,,-0.07999199629,1.10000,1.14000
,,,-0.07998400182,1.08000,1.18000
,,,-0.07997599989,1.10000,1.16000
,,,-0.07996799797,1.10000,1.16000
,,,-0.07996000350,1.08000,1.18000
,,,-0.07995200157,1.10000,1.18000
,,,-0.07994399965,1.08000,1.18000
,,,-0.07993599772,1.10000,1.18000
,,,-0.07992800325,1.12000,1.18000
,,,-0.07992000133,1.10000,1.18000
,,,-0.07991199940,1.10000,1.18000
,,,-0.07990399748,1.12000,1.18000
,,,-0.07989600301,1.12000,1.18000
,,,-0.07988800108,1.12000,1.18000
,,,-0.07987999916,1.12000,1.18000
,,,-0.07987199724,1.12000,1.20000
,,,-0.07986400276,1.14000,1.20000
,,,-0.07985600084,1.14000,1.22000
,,,-0.07984799892,1.14000,1.20000
,,,-0.07983999699,1.14000,1.22000
,,,-0.07983200252,1.16000,1.22000
,,,-0.07982400060,1.14000,1.22000
,,,-0.07981599867,1.16000,1.20000
,,,-0.07980799675,1.16000,1.22000
,,,-0.07980000228,1.16000,1.22000
,,,-0.07979200035,1.14000,1.22000
,,,-0.07978399843,1.14000,1.22000
,,,-0.07977599651,1.14000,1.22000
,,,-0.07976800203,1.16000,1.22000
,,,-0.07976000011,1.16000,1.22000
,,,-0.07975199819,1.18000,1.22000
,,,-0.07974399626,1.16000,1.24000
,,,-0.07973600179,1.18000,1.24000
,,,-0.07972799987,1.18000,1.26000
,,,-0.07971999794,1.18000,1.26000
,,,-0.07971200347,1.16000,1.26000
,,,-0.07970400155,1.16000,1.26000
,,,-0.07969599962,1.18000,1.26000
,,,-0.07968799770,1.20000,1.26000
,,,-0.07968000323,1.18000,1.28000
,,,-0.07967200130,1.18000,1.26000
,,,-0.07966399938,1.18000,1.26000
,,,-0.07965599746,1.18000,1.26000
,,,-0.07964800298,1.20000,1.26000
,,,-0.07964000106,1.20000,1.28000
,,,-0.07963199914,1.20000,1.28000
,,,-0.07962399721,1.20000,1.28000
,,,-0.07961600274,1.20000,1.28000
,,,-0.07960800081,1.22000,1.30000
,,,-0.07959999889,1.20000,1.30000
,,,-0.07959199697,1.22000,1.30000
,,,-0.07958400249,1.22000,1.30000
,,,-0.07957600057,1.22000,1.30000
,,,-0.07956799865,1.24000,1.30000
,,,-0.07955999672,1.22000,1.30000
,,,-0.07955200225,1.22000,1.32000
,,,-0.07954400033,1.24000,1.30000
,,,-0.07953599840,1.24000,1.32000
,,,-0.07952799648,1.26000,1.32000
,,,-0.07952000201,1.24000,1.32000
,,,-0.07951200008,1.26000,1.34000
,,,-0.07950399816,1.26000,1.32000
,,,-0.07949599624,1.24000,1.34000
,,,-0.07948800176,1.26000,1.32000
,,,-0.07947999984,1.24000,1.34000
,,,-0.07947199792,1.26000,1.34000
,,,-0.07946400344,1.26000,1.34000
,,,-0.07945600152,1.24000,1.36000
,,,-0.07944799960,1.26000,1.34000
,,,-0.07943999767,1.26000,1.34000
,,,-0.07943200320,1.26000,1.34000
,,,-0.07942400128,1.26000,1.36000
,,,-0.07941599935,1.28000,1.36000
,,,-0.07940799743,1.26000,1.36000
,,,-0.07940000296,1.28000,1.36000
,,,-0.07939200103,1.28000,1.36000
,,,-0.07938399911,1.28000,1.36000
,,,-0.07937599719,1.28000,1.38000
,,,-0.07936800271,1.30000,1.38000
,,,-0.07936000079,1.30000,1.38000
,,,-0.07935199887,1.30000,1.38000
,,,-0.07934399694,1.28000,1.38000
,,,-0.07933600247,1.30000,1.38000
,,,-0.07932800055,1.32000,1.38000
,,,-0.07931999862,1.32000,1.36000
,,,-0.07931199670,1.32000,1.38000
,,,-0.07930400223,1.32000,1.38000
,,,-0.07929600030,1.34000,1.42000
,,,-0.07928799838,1.34000,1.42000
,,,-0.07927999645,1.32000,1.38000
,,,-0.07927200198,1.32000,1.42000
,,,-0.07926400006,1.34000,1.42000
,,,-0.07925599813,1.34000,1.42000
,,,-0.07924799621,1.34000,1.42000
,,,-0.07924000174,1.34000,1.42000
,,,-0.07923199981,1.34000,1.42000
,,,-0.07922399789,1.34000,1.42000
,,,-0.07921600342,1.34000,1.42000
,,,-0.07920800149,1.36000,1.42000
,,,-0.07919999957,1.36000,1.44000
,,,-0.07919199765,1.36000,1.44000
,,,-0.07918400317,1.36000,1.44000
,,,-0.07917600125,1.36000,1.46000
,,,-0.07916799933,1.38000,1.46000
,,,-0.07915999740,1.38000,1.46000
,,,-0.07915200293,1.38000,1.44000
,,,-0.07914400101,1.38000,1.46000
,,,-0.07913599908,1.38000,1.46000
,,,-0.07912799716,1.38000,1.46000
,,,-0.07912000269,1.38000,1.46000
,,,-0.07911200076,1.38000,1.46000
,,,-0.07910399884,1.38000,1.46000
,,,-0.07909599692,1.40000,1.46000
,,,-0.07908800244,1.38000,1.46000
,,,-0.07908000052,1.40000,1.48000
,,,-0.07907199860,1.40000,1.50000
,,,-0.07906399667,1.42000,1.50000
,,,-0.07905600220,1.40000,1.50000
,,,-0.07904800028,1.40000,1.46000
,,,-0.07903999835,1.42000,1.50000
,,,-0.07903199643,1.42000,1.50000
,,,-0.07902400196,1.42000,1.50000
,,,-0.07901600003,1.42000,1.50000
,,,-0.07900799811,1.42000,1.50000
,,,-0.07899999619,1.42000,1.50000
,,,-0.07899200171,1.42000,1.50000
,,,-0.07898399979,1.44000,1.50000
,,,-0.07897599787,1.42000,1.52000
,,,-0.07896800339,1.44000,1.52000
,,,-0.07896000147,1.46000,1.50000
,,,-0.07895199955,1.46000,1.52000
,,,-0.07894399762,1.44000,1.54000
,,,-0.07893600315,1.46000,1.52000
,,,-0.07892800122,1.46000,1.52000
,,,-0.07891999930,1.48000,1.52000
,,,-0.07891199738,1.48000,1.52000
,,,-0.07890400290,1.46000,1.54000
,,,-0.07889600098,1.46000,1.54000
,,,-0.07888799906,1.46000,1.54000
,,,-0.07887999713,1.48000,1.54000
,,,-0.07887200266,1.48000,1.54000
,,,-0.07886400074,1.48000,1.54000
,,,-0.07885599881,1.48000,1.54000
,,,-0.07884799689,1.48000,1.54000
,,,-0.07884000242,1.48000,1.54000
,,,-0.07883200049,1.48000,1.58000
,,,-0.07882399857,1.50000,1.58000
,,,-0.07881599665,1.50000,1.58000
,,,-0.07880800217,1.50000,1.58000
,,,-0.07880000025,1.50000,1.58000
,,,-0.07879199833,1.50000,1.58000
,,,-0.07878399640,1.50000,1.58000
,,,-0.07877600193,1.50000,1.58000
,,,-0.07876800001,1.52000,1.60000
,,,-0.07875999808,1.54000,1.60000
,,,-0.07875199616,1.52000,1.58000
,,,-0.07874400169,1.52000,1.60000
,,,-0.07873599976,1.54000,1.58000
,,,-0.07872799784,1.54000,1.60000
,,,-0.07872000337,1.52000,1.60000
,,,-0.07871200144,1.54000,1.62000
,,,-0.07870399952,1.54000,1.62000
,,,-0.07869599760,1.54000,1.60000
,,,-0.07868800312,1.54000,1.62000
,,,-0.07868000120,1.54000,1.62000
,,,-0.07867199928,1.54000,1.62000
,,,-0.07866399735,1.56000,1.62000
,,,-0.07865600288,1.54000,1.62000
,,,-0.07864800096,1.54000,1.62000
,,,-0.07863999903,1.56000,1.62000
,,,-0.07863199711,1.56000,1.62000
,,,-0.07862400264,1.56000,1.62000
,,,-0.07861600071,1.58000,1.66000
,,,-0.07860799879,1.58000,1.62000
,,,-0.07859999686,1.58000,1.66000
,,,-0.07859200239,1.58000,1.66000
,,,-0.07858400047,1.58000,1.66000
,,,-0.07857599854,1.58000,1.68000
,,,-0.07856799662,1.58000,1.66000
,,,-0.07856000215,1.58000,1.66000
,,,-0.07855200022,1.58000,1.66000
,,,-0.07854399830,1.58000,1.68000
,,,-0.07853599638,1.60000,1.66000
,,,-0.07852800190,1.58000,1.68000
,,,-0.07851999998,1.60000,1.68000
,,,-0.07851199806,1.60000,1.70000
,,,-0.07850399613,1.62000,1.68000
,,,-0.07849600166,1.60000,1.68000
,,,-0.07848799974,1.62000,1.70000
,,,-0.07847999781,1.62000,1.70000
,,,-0.07847200334,1.62000,1.68000
,,,-0.07846400142,1.62000,1.70000
,,,-0.07845599949,1.62000,1.68000
,,,-0.07844799757,1.62000,1.70000
,,,-0.07844000310,1.62000,1.70000
,,,-0.07843200117,1.62000,1.70000
,,,-0.07842399925,1.62000,1.70000
,,,-0.07841599733,1.64000,1.70000
,,,-0.07840800285,1.64000,1.72000
,,,-0.07840000093,1.64000,1.74000
,,,-0.07839199901,1.64000,1.74000
,,,-0.07838399708,1.64000,1.70000
,,,-0.07837600261,1.64000,1.70000
,,,-0.07836800069,1.64000,1.74000
,,,-0.07835999876,1.66000,1.74000
,,,-0.07835199684,1.66000,1.74000
,,,-0.07834400237,1.64000,1.74000
,,,-0.07833600044,1.68000,1.74000
,,,-0.07832799852,1.66000,1.74000
,,,-0.07831999660,1.66000,1.74000
,,,-0.07831200212,1.66000,1.76000
,,,-0.07830400020,1.66000,1.74000
,,,-0.07829599828,1.68000,1.76000
,,,-0.07828799635,1.66000,1.78000
,,,-0.07828000188,1.68000,1.74000
,,,-0.07827199996,1.70000,1.78000
,,,-0.07826399803,1.68000,1.78000
,,,-0.07825599611,1.68000,1.78000
,,,-0.07824800164,1.70000,1.78000
,,,-0.07823999971,1.70000,1.76000
,,,-0.07823199779,1.70000,1.78000
,,,-0.07822400331,1.70000,1.78000
,,,-0.07821600139,1.70000,1.78000
,,,-0.07820799947,1.70000,1.78000
,,,-0.07819999754,1.72000,1.80000
,,,-0.07819200307,1.72000,1.78000
,,,-0.07818400115,1.70000,1.80000
,,,-0.07817599922,1.72000,1.78000
,,,-0.07816799730,1.72000,1.80000
,,,-0.07816000283,1.74000,1.82000
,,,-0.07815200090,1.74000,1.82000
,,,-0.07814399898,1.72000,1.82000
,,,-0.07813599706,1.72000,1.82000
,,,-0.07812800258,1.74000,1.80000
,,,-0.07812000066,1.76000,1.82000
,,,-0.07811199874,1.76000,1.82000
,,,-0.07810399681,1.74000,1.82000
,,,-0.07809600234,1.74000,1.82000
,,,-0.07808800042,1.76000,1.84000
,,,-0.07807999849,1.76000,1.82000
,,,-0.07807199657,1.76000,1.82000
,,,-0.07806400210,1.76000,1.84000
,,,-0.07805600017,1.76000,1.86000
,,,-0.07804799825,1.76000,1.86000
,,,-0.07803999633,1.78000,1.84000
,,,-0.07803200185,1.76000,1.86000
,,,-0.07802399993,1.78000,1.86000
,,,-0.07801599801,1.78000,1.86000
,,,-0.07800799608,1.78000,1.86000
,,,-0.07800000161,1.78000,1.86000
,,,-0.07799199969,1.78000,1.86000
,,,-0.07798399776,1.78000,1.86000
,,,-0.07797600329,1.80000,1.88000
,,,-0.07796800137,1.78000,1.88000
,,,-0.07795999944,1.80000,1.86000
,,,-0.07795199752,1.80000,1.86000
,,,-0.07794400305,1.78000,1.90000
,,,-0.07793600112,1.80000,1.90000
,,,-0.07792799920,1.80000,1.90000
,,,-0.07791999727,1.80000,1.90000
,,,-0.07791200280,1.82000,1.88000
,,,-0.07790400088,1.82000,1.90000
,,,-0.07789599895,1.82000,1.90000
,,,-0.07788799703,1.82000,1.90000
,,,-0.07788000256,1.82000,1.92000
,,,-0.07787200063,1.82000,1.90000
,,,-0.07786399871,1.82000,1.92000
,,,-0.07785599679,1.82000,1.90000
,,,-0.07784800231,1.84000,1.90000
,,,-0.07784000039,1.84000,1.90000
,,,-0.07783199847,1.84000,1.92000
,,,-0.07782399654,1.84000,1.92000
,,,-0.07781600207,1.84000,1.92000
,,,-0.07780800015,1.86000,1.92000
,,,-0.07779999822,1.84000,1.92000
,,,-0.07779199630,1.84000,1.94000
,,,-0.07778400183,1.84000,1.92000
,,,-0.07777599990,1.86000,1.92000
,,,-0.07776799798,1.88000,1.92000
,,,-0.07776000351,1.86000,1.94000
,,,-0.07775200158,1.88000,1.94000
,,,-0.07774399966,1.88000,1.94000
,,,-0.07773599774,1.86000,1.94000
,,,-0.07772800326,1.88000,1.94000
,,,-0.07772000134,1.88000,1.96000
,,,-0.07771199942,1.88000,1.96000
,,,-0.07770399749,1.88000,1.96000
,,,-0.07769600302,1.88000,1.96000
,,,-0.07768800110,1.90000,1.98000
,,,-0.07767999917,1.90000,1.98000
,,,-0.07767199725,1.90000,1.94000
,,,-0.07766400278,1.92000,1.98000
,,,-0.07765600085,1.90000,1.98000
,,,-0.07764799893,1.90000,1.98000
,,,-0.07763999701,1.90000,1.98000
,,,-0.07763200253,1.90000,1.98000
,,,-0.07762400061,1.92000,1.98000
,,,-0.07761599869,1.92000,1.98000
,,,-0.07760799676,1.92000,1.98000
,,,-0.07760000229,1.92000,1.98000
,,,-0.07759200037,1.92000,2.02000
,,,-0.07758399844,1.92000,2.00000
,,,-0.07757599652,1.94000,1.98000
,,,-0.07756800205,1.92000,2.00000
,,,-0.07756000012,1.94000,2.00000
,,,-0.07755199820,1.92000,2.02000
,,,-0.07754399627,1.92000,2.00000
,,,-0.07753600180,1.94000,2.02000
,,,-0.07752799988,1.96000,2.02000
,,,-0.07751999795,1.94000,2.02000
,,,-0.07751200348,1.96000,2.02000
,,,-0.07750400156,1.96000,2.06000
,,,-0.07749599963,1.96000,2.02000
,,,-0.07748799771,1.96000,2.02000
,,,-0.07748000324,1.96000,2.04000
,,,-0.07747200131,1.96000,2.02000
,,,-0.07746399939,1.96000,2.02000
,,,-0.07745599747,1.96000,2.06000
,,,-0.07744800299,1.98000,2.02000
,,,-0.07744000107,1.98000,2.06000
,,,-0.07743199915,1.98000,2.06000
,,,-0.07742399722,1.98000,2.06000
,,,-0.07741600275,1.96000,2.06000
,,,-0.07740800083,1.98000,2.06000
,,,-0.07739999890,1.98000,2.06000
,,,-0.07739199698,1.98000,2.06000
,,,-0.07738400251,1.98000,2.06000
,,,-0.07737600058,1.98000,2.08000
,,,-0.07736799866,2.00000,2.08000
,,,-0.07735999674,2.00000,2.06000
,,,-0.07735200226,2.00000,2.08000
,,,-0.07734400034,2.00000,2.08000
,,,-0.07733599842,2.02000,2.08000
,,,-0.07732799649,2.02000,2.10000
,,,-0.07732000202,2.02000,2.08000
,,,-0.07731200010,2.02000,2.10000
,,,-0.07730399817,2.02000,2.10000
