Documentos/Otros_resultados/Pruebas A/SDS00009.CSV

Record Length,20480,,Source,CH1,CH2
Sample Interval,CH1:0.0000040000000 CH2:0.0000040000000,,Second,Volt,Volt
Vertical Units,CH1:V CH2:V,,-0.04095999897,0.66000,0.58000
Vertical Scale,CH1:0.50 CH2:0.50,,-0.04095600173,0.66000,0.58000
Vertical Offset,CH1:-1.50000 CH2:-1.50000,,-0.04095200077,0.66000,0.58000
Horizontal Units,s,,-0.04094799981,0.66000,0.56000
Horizontal Scale,0.0024999999,,-0.04094399884,0.66000,0.56000
Model Number,SDS1102CNL+,,-0.04094000161,0.66000,0.58000
Serial Number,SDS10BA3163724,,-0.04093600065,0.66000,0.56000
Software Version,6.01.01.17,,-0.04093199968,0.66000,0.58000
,,,-0.04092799872,0.66000,0.58000
,,,-0.04092400149,0.66000,0.56000
,,,-0.04092000052,0.64000,0.56000
,,,-0.04091599956,0.64000,0.56000
,,,-0.04091199860,0.66000,0.58000
,,,-0.04090800136,0.64000,0.56000
,,,-0.04090400040,0.66000,0.56000
,,,-0.04089999944,0.64000,0.56000
,,,-0.04089599848,0.64000,0.56000
,,,-0.04089200124,0.64000,0.56000
,,,-0.04088800028,0.64000,0.56000
,,,-0.04088399932,0.64000,0.56000
,,,-0.04087999836,0.64000,0.54000
,,,-0.04087600112,0.64000,0.56000
,,,-0.04087200016,0.64000,0.54000
,,,-0.04086799920,0.64000,0.56000
,,,-0.04086399823,0.64000,0.56000
,,,-0.04086000100,0.64000,0.54000
,,,-0.04085600004,0.64000,0.54000
,,,-0.04085199907,0.64000,0.54000
,,,-0.04084799811,0.64000,0.54000
,,,-0.04084400088,0.62000,0.56000
,,,-0.04083999991,0.64000,0.56000
,,,-0.04083599895,0.62000,0.54000
,,,-0.04083200172,0.62000,0.56000
,,,-0.04082800075,0.62000,0.54000
,,,-0.04082399979,0.64000,0.54000
,,,-0.04081999883,0.64000,0.54000
,,,-0.04081600159,0.62000,0.54000
,,,-0.04081200063,0.62000,0.54000
,,,-0.04080799967,0.60000,0.54000
,,,-0.04080399871,0.60000,0.54000
,,,-0.04080000147,0.62000,0.54000
,,,-0.04079600051,0.60000,0.54000
,,,-0.04079199955,0.62000,0.54000
,,,-0.04078799859,0.60000,0.54000
,,,-0.04078400135,0.62000,0.54000
,,,-0.04078000039,0.62000,0.54000
,,,-0.04077599943,0.60000,0.54000
,,,-0.04077199847,0.60000,0.54000
,,,-0.04076800123,0.60000,0.54000
,,,-0.04076400027,0.60000,0.54000
,,,-0.04075999931,0.60000,0.50000
,,,-0.04075599834,0.60000,0.54000
,,,-0.04075200111,0.64000,0.54000
,,,-0.04074800014,0.60000,0.54000
,,,-0.04074399918,0.60000,0.54000
,,,-0.04073999822,0.60000,0.54000
,,,-0.04073600098,0.60000,0.52000
,,,-0.04073200002,0.58000,0.54000
,,,-0.04072799906,0.60000,0.50000
,,,-0.04072399810,0.60000,0.52000
,,,-0.04072000086,0.62000,0.54000
,,,-0.04071599990,0.62000,0.54000
,,,-0.04071199894,0.60000,0.54000
,,,-0.04070800170,0.60000,0.50000
,,,-0.04070400074,0.60000,0.50000
,,,-0.04069999978,0.58000,0.52000
,,,-0.04069599882,0.60000,0.52000
,,,-0.04069200158,0.58000,0.54000
,,,-0.04068800062,0.56000,0.52000
,,,-0.04068399966,0.58000,0.50000
,,,-0.04067999870,0.60000,0.50000
,,,-0.04067600146,0.58000,0.52000
,,,-0.04067200050,0.58000,0.50000
,,,-0.04066799954,0.58000,0.50000
,,,-0.04066399857,0.58000,0.52000
,,,-0.04066000134,0.58000,0.54000
,,,-0.04065600038,0.58000,0.50000
,,,-0.04065199941,0.58000,0.50000
,,,-0.04064799845,0.58000,0.50000
,,,-0.04064400122,0.58000,0.50000
,,,-0.04064000025,0.56000,0.50000
,,,-0.04063599929,0.56000,0.50000
,,,-0.04063199833,0.56000,0.52000
,,,-0.04062800109,0.58000,0.50000
,,,-0.04062400013,0.56000,0.50000
,,,-0.04061999917,0.56000,0.50000
,,,-0.04061599821,0.56000,0.50000
,,,-0.04061200097,0.56000,0.48000
,,,-0.04060800001,0.56000,0.48000
,,,-0.04060399905,0.56000,0.50000
,,,-0.04059999809,0.56000,0.50000
,,,-0.04059600085,0.56000,0.50000
,,,-0.04059199989,0.58000,0.50000
,,,-0.04058799893,0.56000,0.50000
,,,-0.04058400169,0.56000,0.50000
,,,-0.04058000073,0.56000,0.50000
,,,-0.04057599977,0.56000,0.48000
,,,-0.04057199880,0.58000,0.48000
,,,-0.04056800157,0.56000,0.50000
,,,-0.04056400061,0.56000,0.50000
,,,-0.04055999964,0.56000,0.50000
,,,-0.04055599868,0.56000,0.48000
,,,-0.04055200145,0.56000,0.48000
,,,-0.04054800048,0.56000,0.48000
,,,-0.04054399952,0.56000,0.50000
,,,-0.04053999856,0.54000,0.48000
,,,-0.04053600132,0.54000,0.48000
,,,-0.04053200036,0.56000,0.48000
,,,-0.04052799940,0.54000,0.48000
,,,-0.04052399844,0.56000,0.48000
,,,-0.04052000120,0.56000,0.48000
,,,-0.04051600024,0.54000,0.50000
,,,-0.04051199928,0.56000,0.48000
,,,-0.04050799832,0.54000,0.48000
,,,-0.04050400108,0.54000,0.48000
,,,-0.04050000012,0.54000,0.48000
,,,-0.04049599916,0.56000,0.48000
,,,-0.04049199820,0.54000,0.48000
,,,-0.04048800096,0.56000,0.48000
,,,-0.04048400000,0.54000,0.48000
,,,-0.04047999904,0.54000,0.48000
,,,-0.04047599807,0.54000,0.48000
,,,-0.04047200084,0.54000,0.46000
,,,-0.04046799988,0.56000,0.46000
,,,-0.04046399891,0.54000,0.46000
,,,-0.04046000168,0.54000,0.46000
,,,-0.04045600072,0.52000,0.48000
,,,-0.04045199975,0.54000,0.48000
,,,-0.04044799879,0.54000,0.46000
,,,-0.04044400156,0.54000,0.48000
,,,-0.04044000059,0.54000,0.48000
,,,-0.04043599963,0.52000,0.48000
,,,-0.04043199867,0.52000,0.48000
,,,-0.04042800143,0.54000,0.48000
,,,-0.04042400047,0.52000,0.46000
,,,-0.04041999951,0.54000,0.46000
,,,-0.04041599855,0.52000,0.46000
,,,-0.04041200131,0.54000,0.46000
,,,-0.04040800035,0.52000,0.48000
,,,-0.04040399939,0.52000,0.46000
,,,-0.04039999843,0.52000,0.46000
,,,-0.04039600119,0.52000,0.46000
,,,-0.04039200023,0.52000,0.46000
,,,-0.04038799927,0.52000,0.46000
,,,-0.04038399830,0.52000,0.46000
,,,-0.04038000107,0.52000,0.46000
,,,-0.04037600011,0.52000,0.48000
,,,-0.04037199914,0.52000,0.46000
,,,-0.04036799818,0.52000,0.46000
,,,-0.04036400095,0.52000,0.48000
,,,-0.04035999998,0.52000,0.46000
,,,-0.04035599902,0.50000,0.46000
,,,-0.04035199806,0.52000,0.46000
,,,-0.04034800082,0.52000,0.46000
,,,-0.04034399986,0.54000,0.46000
,,,-0.04033999890,0.50000,0.46000
,,,-0.04033600166,0.52000,0.46000
,,,-0.04033200070,0.52000,0.46000
,,,-0.04032799974,0.52000,0.46000
,,,-0.04032399878,0.52000,0.46000
,,,-0.04032000154,0.52000,0.46000
,,,-0.04031600058,0.52000,0.46000
,,,-0.04031199962,0.52000,0.46000
,,,-0.04030799866,0.52000,0.46000
,,,-0.04030400142,0.50000,0.46000
,,,-0.04030000046,0.50000,0.46000
,,,-0.04029599950,0.52000,0.46000
,,,-0.04029199854,0.50000,0.46000
,,,-0.04028800130,0.50000,0.46000
,,,-0.04028400034,0.50000,0.46000
,,,-0.04027999938,0.50000,0.46000
,,,-0.04027599841,0.50000,0.46000
,,,-0.04027200118,0.50000,0.46000
,,,-0.04026800022,0.52000,0.46000
,,,-0.04026399925,0.50000,0.46000
,,,-0.04025999829,0.48000,0.46000
,,,-0.04025600106,0.50000,0.46000
,,,-0.04025200009,0.50000,0.46000
,,,-0.04024799913,0.50000,0.46000
,,,-0.04024399817,0.48000,0.46000
,,,-0.04024000093,0.50000,0.46000
,,,-0.04023599997,0.50000,0.46000
,,,-0.04023199901,0.50000,0.46000
,,,-0.04022799805,0.52000,0.46000
,,,-0.04022400081,0.52000,0.46000
,,,-0.04021999985,0.50000,0.46000
,,,-0.04021599889,0.50000,0.46000
,,,-0.04021200165,0.50000,0.46000
,,,-0.04020800069,0.50000,0.46000
,,,-0.04020399973,0.50000,0.44000
,,,-0.04019999877,0.50000,0.46000
,,,-0.04019600153,0.48000,0.46000
,,,-0.04019200057,0.50000,0.46000
,,,-0.04018799961,0.50000,0.46000
,,,-0.04018399864,0.48000,0.46000
,,,-0.04018000141,0.50000,0.46000
,,,-0.04017600045,0.50000,0.46000
,,,-0.04017199948,0.50000,0.46000
,,,-0.04016799852,0.48000,0.44000
,,,-0.04016400129,0.50000,0.46000
,,,-0.04016000032,0.50000,0.46000
,,,-0.04015599936,0.48000,0.46000
,,,-0.04015199840,0.50000,0.44000
,,,-0.04014800116,0.50000,0.46000
,,,-0.04014400020,0.48000,0.46000
,,,-0.04013999924,0.50000,0.46000
,,,-0.04013599828,0.48000,0.46000
,,,-0.04013200104,0.48000,0.46000
,,,-0.04012800008,0.50000,0.42000
,,,-0.04012399912,0.50000,0.46000
,,,-0.04011999816,0.48000,0.46000
,,,-0.04011600092,0.48000,0.46000
,,,-0.04011199996,0.46000,0.44000
,,,-0.04010799900,0.50000,0.46000
,,,-0.04010400176,0.50000,0.46000
,,,-0.04010000080,0.48000,0.46000
,,,-0.04009599984,0.48000,0.46000
,,,-0.04009199888,0.48000,0.42000
,,,-0.04008800164,0.48000,0.46000
,,,-0.04008400068,0.48000,0.46000
,,,-0.04007999972,0.48000,0.42000
,,,-0.04007599875,0.48000,0.44000
,,,-0.04007200152,0.48000,0.42000
,,,-0.04006800056,0.48000,0.44000
,,,-0.04006399959,0.48000,0.46000
,,,-0.04005999863,0.48000,0.46000
,,,-0.04005600139,0.48000,0.46000
,,,-0.04005200043,0.48000,0.44000
,,,-0.04004799947,0.48000,0.46000
,,,-0.04004399851,0.50000,0.44000
,,,-0.04004000127,0.48000,0.46000
,,,-0.04003600031,0.48000,0.46000
,,,-0.04003199935,0.50000,0.46000
,,,-0.04002799839,0.48000,0.44000
,,,-0.04002400115,0.50000,0.44000
,,,-0.04002000019,0.48000,0.42000
,,,-0.04001599923,0.48000,0.46000
,,,-0.04001199827,0.48000,0.44000
,,,-0.04000800103,0.48000,0.44000
,,,-0.04000400007,0.50000,0.42000
,,,-0.03999999911,0.48000,0.46000
,,,-0.03999599814,0.50000,0.46000
,,,-0.03999200091,0.48000,0.46000
,,,-0.03998799995,0.48000,0.44000
,,,-0.03998399898,0.48000,0.42000
,,,-0.03998000175,0.48000,0.42000
,,,-0.03997600079,0.48000,0.46000
,,,-0.03997199982,0.48000,0.46000
,,,-0.03996799886,0.48000,0.44000
,,,-0.03996400163,0.48000,0.44000
,,,-0.03996000066,0.46000,0.46000
,,,-0.03995599970,0.46000,0.44000
,,,-0.03995199874,0.48000,0.46000
,,,-0.03994800150,0.48000,0.42000
,,,-0.03994400054,0.46000,0.46000
,,,-0.03993999958,0.48000,0.46000
,,,-0.03993599862,0.48000,0.46000
,,,-0.03993200138,0.46000,0.46000
,,,-0.03992800042,0.48000,0.46000
,,,-0.03992399946,0.48000,0.42000
,,,-0.03991999850,0.46000,0.44000
,,,-0.03991600126,0.48000,0.46000
,,,-0.03991200030,0.48000,0.44000
,,,-0.03990799934,0.48000,0.46000
,,,-0.03990399837,0.46000,0.46000
,,,-0.03990000114,0.48000,0.46000
,,,-0.03989600018,0.48000,0.46000
,,,-0.03989199921,0.48000,0.46000
,,,-0.03988799825,0.48000,0.44000
,,,-0.03988400102,0.48000,0.46000
,,,-0.03988000005,0.48000,0.46000
,,,-0.03987599909,0.48000,0.46000
,,,-0.03987199813,0.46000,0.44000
,,,-0.03986800089,0.46000,0.46000
,,,-0.03986399993,0.48000,0.46000
,,,-0.03985999897,0.48000,0.46000
,,,-0.03985600173,0.48000,0.44000
,,,-0.03985200077,0.48000,0.42000
,,,-0.03984799981,0.48000,0.46000
,,,-0.03984399885,0.46000,0.46000
,,,-0.03984000161,0.48000,0.46000
,,,-0.03983600065,0.48000,0.46000
,,,-0.03983199969,0.46000,0.46000
,,,-0.03982799873,0.48000,0.46000
,,,-0.03982400149,0.48000,0.44000
,,,-0.03982000053,0.48000,0.46000
,,,-0.03981599957,0.46000,0.46000
,,,-0.03981199861,0.50000,0.46000
,,,-0.03980800137,0.48000,0.44000
,,,-0.03980400041,0.48000,0.46000
,,,-0.03979999945,0.48000,0.46000
,,,-0.03979599848,0.46000,0.44000
,,,-0.03979200125,0.48000,0.44000
,,,-0.03978800029,0.48000,0.46000
,,,-0.03978399932,0.48000,0.46000
,,,-0.03977999836,0.48000,0.44000
,,,-0.03977600113,0.46000,0.46000
,,,-0.03977200016,0.48000,0.46000
,,,-0.03976799920,0.48000,0.46000
,,,-0.03976399824,0.46000,0.46000
,,,-0.03976000100,0.48000,0.44000
,,,-0.03975600004,0.48000,0.46000
,,,-0.03975199908,0.48000,0.46000
,,,-0.03974799812,0.46000,0.46000
,,,-0.03974400088,0.48000,0.44000
,,,-0.03973999992,0.48000,0.44000
,,,-0.03973599896,0.48000,0.46000
,,,-0.03973200172,0.48000,0.46000
,,,-0.03972800076,0.48000,0.46000
,,,-0.03972399980,0.46000,0.46000
,,,-0.03971999884,0.48000,0.46000
,,,-0.03971600160,0.46000,0.46000
,,,-0.03971200064,0.46000,0.46000
,,,-0.03970799968,0.48000,0.46000
,,,-0.03970399871,0.46000,0.46000
,,,-0.03970000148,0.48000,0.46000
,,,-0.03969600052,0.46000,0.46000
,,,-0.03969199955,0.48000,0.46000
,,,-0.03968799859,0.46000,0.46000
,,,-0.03968400136,0.46000,0.46000
,,,-0.03968000039,0.48000,0.46000
,,,-0.03967599943,0.48000,0.46000
,,,-0.03967199847,0.46000,0.46000
,,,-0.03966800123,0.46000,0.46000
,,,-0.03966400027,0.48000,0.46000
,,,-0.03965999931,0.48000,0.46000
,,,-0.03965599835,0.46000,0.44000
,,,-0.03965200111,0.48000,0.46000
,,,-0.03964800015,0.48000,0.46000
,,,-0.03964399919,0.46000,0.46000
,,,-0.03963999823,0.46000,0.46000
,,,-0.03963600099,0.46000,0.46000
,,,-0.03963200003,0.48000,0.46000
,,,-0.03962799907,0.50000,0.46000
,,,-0.03962399811,0.46000,0.46000
,,,-0.03962000087,0.48000,0.46000
,,,-0.03961599991,0.48000,0.46000
,,,-0.03961199895,0.48000,0.46000
,,,-0.03960800171,0.48000,0.46000
,,,-0.03960400075,0.46000,0.46000
,,,-0.03959999979,0.46000,0.46000
,,,-0.03959599882,0.48000,0.46000
,,,-0.03959200159,0.46000,0.46000
,,,-0.03958800063,0.48000,0.46000
,,,-0.03958399966,0.48000,0.46000
,,,-0.03957999870,0.48000,0.46000
,,,-0.03957600147,0.48000,0.46000
,,,-0.03957200050,0.48000,0.46000
,,,-0.03956799954,0.48000,0.48000
,,,-0.03956399858,0.48000,0.46000
,,,-0.03956000134,0.48000,0.48000
,,,-0.03955600038,0.46000,0.46000
,,,-0.03955199942,0.46000,0.46000
,,,-0.03954799846,0.48000,0.46000
,,,-0.03954400122,0.46000,0.46000
,,,-0.03954000026,0.48000,0.46000
,,,-0.03953599930,0.48000,0.46000
,,,-0.03953199834,0.48000,0.46000
,,,-0.03952800110,0.46000,0.46000
,,,-0.03952400014,0.48000,0.46000
,,,-0.03951999918,0.48000,0.46000
,,,-0.03951599821,0.48000,0.48000
,,,-0.03951200098,0.48000,0.46000
,,,-0.03950800002,0.48000,0.48000
,,,-0.03950399905,0.48000,0.48000
,,,-0.03949999809,0.50000,0.46000
,,,-0.03949600086,0.48000,0.46000
,,,-0.03949199989,0.50000,0.48000
,,,-0.03948799893,0.48000,0.46000
,,,-0.03948400170,0.48000,0.48000
,,,-0.03948000073,0.50000,0.48000
,,,-0.03947599977,0.48000,0.48000
,,,-0.03947199881,0.50000,0.48000
,,,-0.03946800157,0.48000,0.48000
,,,-0.03946400061,0.50000,0.46000
,,,-0.03945999965,0.48000,0.46000
,,,-0.03945599869,0.48000,0.48000
,,,-0.03945200145,0.50000,0.48000
,,,-0.03944800049,0.48000,0.50000
,,,-0.03944399953,0.50000,0.48000
,,,-0.03943999857,0.48000,0.48000
,,,-0.03943600133,0.50000,0.48000
,,,-0.03943200037,0.50000,0.48000
,,,-0.03942799941,0.50000,0.48000
,,,-0.03942399845,0.50000,0.48000
,,,-0.03942000121,0.50000,0.48000
,,,-0.03941600025,0.48000,0.48000
,,,-0.03941199929,0.50000,0.48000
,,,-0.03940799832,0.50000,0.48000
,,,-0.03940400109,0.48000,0.50000
,,,-0.03940000013,0.48000,0.50000
,,,-0.03939599916,0.50000,0.50000
,,,-0.03939199820,0.48000,0.48000
,,,-0.03938800097,0.50000,0.50000
,,,-0.03938400000,0.48000,0.50000
,,,-0.03937999904,0.48000,0.48000
,,,-0.03937599808,0.50000,0.50000
,,,-0.03937200084,0.50000,0.48000
,,,-0.03936799988,0.50000,0.50000
,,,-0.03936399892,0.50000,0.50000
,,,-0.03936000168,0.48000,0.50000
,,,-0.03935600072,0.50000,0.50000
,,,-0.03935199976,0.50000,0.50000
,,,-0.03934799880,0.50000,0.50000
,,,-0.03934400156,0.48000,0.50000
,,,-0.03934000060,0.50000,0.50000
,,,-0.03933599964,0.50000,0.50000
,,,-0.03933199868,0.50000,0.50000
,,,-0.03932800144,0.50000,0.50000
,,,-0.03932400048,0.48000,0.50000
,,,-0.03931999952,0.50000,0.50000
,,,-0.03931599855,0.50000,0.52000
,,,-0.03931200132,0.50000,0.50000
,,,-0.03930800036,0.52000,0.50000
,,,-0.03930399939,0.50000,0.52000
,,,-0.03929999843,0.50000,0.50000
,,,-0.03929600120,0.52000,0.50000
,,,-0.03929200023,0.50000,0.50000
,,,-0.03928799927,0.50000,0.52000
,,,-0.03928399831,0.52000,0.50000
,,,-0.03928000107,0.52000,0.50000
,,,-0.03927600011,0.52000,0.50000
,,,-0.03927199915,0.52000,0.50000
,,,-0.03926799819,0.52000,0.52000
,,,-0.03926400095,0.54000,0.50000
,,,-0.03925999999,0.50000,0.50000
,,,-0.03925599903,0.52000,0.52000
,,,-0.03925199807,0.50000,0.52000
,,,-0.03924800083,0.52000,0.50000
,,,-0.03924399987,0.52000,0.52000
,,,-0.03923999891,0.52000,0.50000
,,,-0.03923600167,0.50000,0.50000
,,,-0.03923200071,0.54000,0.50000
,,,-0.03922799975,0.52000,0.54000
,,,-0.03922399879,0.52000,0.50000
,,,-0.03922000155,0.52000,0.52000
,,,-0.03921600059,0.54000,0.54000
,,,-0.03921199962,0.52000,0.52000
,,,-0.03920799866,0.52000,0.50000
,,,-0.03920400143,0.54000,0.52000
,,,-0.03920000046,0.52000,0.54000
,,,-0.03919599950,0.50000,0.54000
,,,-0.03919199854,0.50000,0.54000
,,,-0.03918800130,0.52000,0.54000
,,,-0.03918400034,0.50000,0.54000
,,,-0.03917999938,0.52000,0.54000
,,,-0.03917599842,0.52000,0.54000
,,,-0.03917200118,0.52000,0.54000
,,,-0.03916800022,0.50000,0.54000
,,,-0.03916399926,0.52000,0.54000
,,,-0.03915999830,0.54000,0.54000
,,,-0.03915600106,0.52000,0.54000
,,,-0.03915200010,0.54000,0.54000
,,,-0.03914799914,0.52000,0.54000
,,,-0.03914399818,0.52000,0.56000
,,,-0.03914000094,0.52000,0.54000
,,,-0.03913599998,0.54000,0.54000
,,,-0.03913199902,0.52000,0.54000
,,,-0.03912799805,0.54000,0.54000
,,,-0.03912400082,0.52000,0.54000
,,,-0.03911999986,0.52000,0.54000
,,,-0.03911599889,0.52000,0.54000
,,,-0.03911200166,0.54000,0.54000
,,,-0.03910800070,0.54000,0.54000
,,,-0.03910399973,0.54000,0.56000
,,,-0.03909999877,0.54000,0.54000
,,,-0.03909600154,0.52000,0.54000
,,,-0.03909200057,0.54000,0.56000
,,,-0.03908799961,0.54000,0.54000
,,,-0.03908399865,0.54000,0.56000
,,,-0.03908000141,0.54000,0.54000
,,,-0.03907600045,0.54000,0.54000
,,,-0.03907199949,0.54000,0.56000
,,,-0.03906799853,0.54000,0.56000
,,,-0.03906400129,0.54000,0.56000
,,,-0.03906000033,0.54000,0.56000
,,,-0.03905599937,0.54000,0.56000
,,,-0.03905199841,0.56000,0.56000
,,,-0.03904800117,0.54000,0.56000
,,,-0.03904400021,0.54000,0.56000
,,,-0.03903999925,0.56000,0.56000
,,,-0.03903599828,0.56000,0.56000
,,,-0.03903200105,0.54000,0.56000
,,,-0.03902800009,0.56000,0.56000
,,,-0.03902399912,0.54000,0.58000
,,,-0.03901999816,0.54000,0.56000
,,,-0.03901600093,0.54000,0.58000
,,,-0.03901199996,0.54000,0.56000
,,,-0.03900799900,0.56000,0.58000
,,,-0.03900399804,0.56000,0.56000
,,,-0.03900000080,0.54000,0.56000
,,,-0.03899599984,0.56000,0.56000
,,,-0.03899199888,0.54000,0.56000
,,,-0.03898800164,0.56000,0.58000
,,,-0.03898400068,0.56000,0.56000
,,,-0.03897999972,0.54000,0.58000
,,,-0.03897599876,0.56000,0.58000
,,,-0.03897200152,0.56000,0.58000
,,,-0.03896800056,0.56000,0.58000
,,,-0.03896399960,0.56000,0.58000
,,,-0.03895999864,0.56000,0.58000
,,,-0.03895600140,0.56000,0.58000
,,,-0.03895200044,0.56000,0.58000
,,,-0.03894799948,0.54000,0.58000
,,,-0.03894399852,0.56000,0.58000
,,,-0.03894000128,0.56000,0.58000
,,,-0.03893600032,0.56000,0.58000
,,,-0.03893199936,0.56000,0.58000
,,,-0.03892799839,0.56000,0.58000
,,,-0.03892400116,0.58000,0.58000
,,,-0.03892000020,0.58000,0.58000
,,,-0.03891599923,0.56000,0.58000
,,,-0.03891199827,0.58000,0.62000
,,,-0.03890800104,0.58000,0.60000
,,,-0.03890400007,0.58000,0.60000
,,,-0.03889999911,0.58000,0.60000
,,,-0.03889599815,0.56000,0.60000
,,,-0.03889200091,0.58000,0.58000
,,,-0.03888799995,0.58000,0.58000
,,,-0.03888399899,0.58000,0.58000
,,,-0.03888000175,0.58000,0.58000
,,,-0.03887600079,0.60000,0.58000
,,,-0.03887199983,0.56000,0.58000
,,,-0.03886799887,0.56000,0.58000
,,,-0.03886400163,0.58000,0.62000
,,,-0.03886000067,0.58000,0.62000
,,,-0.03885599971,0.58000,0.62000
,,,-0.03885199875,0.58000,0.60000
,,,-0.03884800151,0.58000,0.62000
,,,-0.03884400055,0.58000,0.62000
,,,-0.03883999959,0.58000,0.62000
,,,-0.03883599862,0.56000,0.62000
,,,-0.03883200139,0.60000,0.62000
,,,-0.03882800043,0.58000,0.62000
,,,-0.03882399946,0.56000,0.62000
,,,-0.03881999850,0.60000,0.62000
,,,-0.03881600127,0.60000,0.62000
,,,-0.03881200030,0.60000,0.62000
,,,-0.03880799934,0.60000,0.64000
,,,-0.03880399838,0.60000,0.62000
,,,-0.03880000114,0.60000,0.62000
,,,-0.03879600018,0.60000,0.62000
,,,-0.03879199922,0.58000,0.62000
,,,-0.03878799826,0.60000,0.62000
,,,-0.03878400102,0.62000,0.64000
,,,-0.03878000006,0.60000,0.64000
,,,-0.03877599910,0.60000,0.64000
,,,-0.03877199814,0.60000,0.62000
,,,-0.03876800090,0.62000,0.62000
,,,-0.03876399994,0.60000,0.64000
,,,-0.03875999898,0.60000,0.64000
,,,-0.03875600174,0.62000,0.64000
,,,-0.03875200078,0.62000,0.64000
,,,-0.03874799982,0.60000,0.64000
,,,-0.03874399886,0.60000,0.64000
,,,-0.03874000162,0.62000,0.64000
,,,-0.03873600066,0.60000,0.64000
,,,-0.03873199970,0.62000,0.64000
,,,-0.03872799873,0.62000,0.64000
,,,-0.03872400150,0.62000,0.64000
,,,-0.03872000054,0.62000,0.64000
,,,-0.03871599957,0.62000,0.66000
,,,-0.03871199861,0.62000,0.66000
,,,-0.03870800138,0.62000,0.66000
,,,-0.03870400041,0.62000,0.66000
,,,-0.03869999945,0.62000,0.66000
,,,-0.03869599849,0.62000,0.66000
,,,-0.03869200125,0.62000,0.66000
,,,-0.03868800029,0.62000,0.66000
,,,-0.03868399933,0.64000,0.66000
,,,-0.03867999837,0.64000,0.66000
,,,-0.03867600113,0.62000,0.66000
,,,-0.03867200017,0.64000,0.66000
,,,-0.03866799921,0.64000,0.66000
,,,-0.03866399825,0.64000,0.66000
,,,-0.03866000101,0.64000,0.66000
,,,-0.03865600005,0.64000,0.66000
,,,-0.03865199909,0.62000,0.66000
