Documentos/Otros_resultados/Pruebas A/SDS00001.CSV

Record Length,40000,,Source,CH1,CH2
Sample Interval,CH1:0.0000999999975 CH2:0.0000999999975,,Second,Volt,Volt
Vertical Units,CH1:V CH2:V,,-2.00000000000,2.10000,2.10000
Vertical Scale,CH1:0.50 CH2:0.50,,-1.99989998341,2.08000,2.10000
Vertical Offset,CH1:-1.50000 CH2:-1.50000,,-1.99979996681,2.10000,2.10000
Horizontal Units,s,,-1.99969995022,2.10000,2.10000
Horizontal Scale,0.2500000000,,-1.99959993362,2.10000,2.12000
Model Number,SDS1102CNL+,,-1.99949991703,2.10000,2.12000
Serial Number,SDS10BA3163724,,-1.99939990044,2.10000,2.10000
Software Version,6.01.01.17,,-1.99930000305,2.10000,2.10000
,,,-1.99919998646,2.10000,2.10000
,,,-1.99909996986,2.08000,2.10000
,,,-1.99899995327,2.10000,2.10000
,,,-1.99889993668,2.10000,2.12000
,,,-1.99879992008,2.10000,2.14000
,,,-1.99869990349,2.12000,2.10000
,,,-1.99860000610,2.10000,2.12000
,,,-1.99849998951,2.10000,2.10000
,,,-1.99839997292,2.10000,2.14000
,,,-1.99829995632,2.12000,2.14000
,,,-1.99819993973,2.10000,2.10000
,,,-1.99809992313,2.10000,2.14000
,,,-1.99799990654,2.10000,2.14000
,,,-1.99789988995,2.12000,2.14000
,,,-1.99779999256,2.12000,2.10000
,,,-1.99769997597,2.10000,2.14000
,,,-1.99759995937,2.12000,2.14000
,,,-1.99749994278,2.12000,2.12000
,,,-1.99739992619,2.10000,2.12000
,,,-1.99729990959,2.10000,2.14000
,,,-1.99719989300,2.10000,2.12000
,,,-1.99709999561,2.10000,2.14000
,,,-1.99699997902,2.10000,2.14000
,,,-1.99689996243,2.12000,2.10000
,,,-1.99679994583,2.12000,2.14000
,,,-1.99669992924,2.10000,2.12000
,,,-1.99659991264,2.12000,2.14000
,,,-1.99649989605,2.12000,2.14000
,,,-1.99639999866,2.12000,2.14000
,,,-1.99629998207,2.12000,2.10000
,,,-1.99619996548,2.12000,2.14000
,,,-1.99609994888,2.12000,2.14000
,,,-1.99599993229,2.12000,2.14000
,,,-1.99589991570,2.12000,2.14000
,,,-1.99579989910,2.12000,2.14000
,,,-1.99570000172,2.12000,2.14000
,,,-1.99559998512,2.12000,2.14000
,,,-1.99549996853,2.10000,2.14000
,,,-1.99539995193,2.12000,2.14000
,,,-1.99529993534,2.12000,2.14000
,,,-1.99519991875,2.12000,2.14000
,,,-1.99509990215,2.14000,2.14000
,,,-1.99500000477,2.08000,2.06000
,,,-1.99489998817,2.08000,2.06000
,,,-1.99479997158,2.06000,2.10000
,,,-1.99469995499,2.06000,2.10000
,,,-1.99459993839,2.06000,2.10000
,,,-1.99449992180,2.08000,2.08000
,,,-1.99439990520,2.08000,2.08000
,,,-1.99430000782,2.08000,2.08000
,,,-1.99419999123,2.08000,2.08000
,,,-1.99409997463,2.08000,2.08000
,,,-1.99399995804,2.08000,2.10000
,,,-1.99389994144,2.08000,2.10000
,,,-1.99379992485,2.10000,2.08000
,,,-1.99369990826,2.08000,2.08000
,,,-1.99359989166,2.08000,2.10000
,,,-1.99349999428,2.08000,2.08000
,,,-1.99339997768,2.08000,2.08000
,,,-1.99329996109,2.08000,2.10000
,,,-1.99319994450,2.08000,2.10000
,,,-1.99309992790,2.08000,2.10000
,,,-1.99299991131,2.08000,2.10000
,,,-1.99289989471,2.08000,2.10000
,,,-1.99279999733,2.10000,2.08000
,,,-1.99269998074,2.08000,2.10000
,,,-1.99259996414,2.08000,2.10000
,,,-1.99249994755,2.08000,2.10000
,,,-1.99239993095,2.10000,2.10000
,,,-1.99229991436,2.08000,2.10000
,,,-1.99219989777,2.10000,2.10000
,,,-1.99210000038,2.10000,2.10000
,,,-1.99199998379,2.10000,2.10000
,,,-1.99189996719,2.08000,2.10000
,,,-1.99179995060,2.08000,2.10000
,,,-1.99169993401,2.10000,2.10000
,,,-1.99159991741,2.08000,2.10000
,,,-1.99149990082,2.10000,2.10000
,,,-1.99140000343,2.08000,2.10000
,,,-1.99129998684,2.12000,2.10000
,,,-1.99119997025,2.12000,2.12000
,,,-1.99109995365,2.10000,2.10000
,,,-1.99099993706,2.08000,2.10000
,,,-1.99089992046,2.10000,2.10000
,,,-1.99079990387,2.10000,2.10000
,,,-1.99070000648,2.08000,2.10000
,,,-1.99059998989,2.10000,2.10000
,,,-1.99049997330,2.08000,2.10000
,,,-1.99039995670,2.10000,2.14000
,,,-1.99029994011,2.12000,2.12000
,,,-1.99019992352,2.10000,2.10000
,,,-1.99009990692,2.10000,2.10000
,,,-1.98999989033,2.10000,2.12000
,,,-1.98989999294,2.10000,2.10000
,,,-1.98979997635,2.10000,2.12000
,,,-1.98969995975,2.10000,2.10000
,,,-1.98959994316,2.12000,2.12000
,,,-1.98949992657,2.12000,2.10000
,,,-1.98939990997,2.12000,2.12000
,,,-1.98929989338,2.12000,2.10000
,,,-1.98919999599,2.12000,2.10000
,,,-1.98909997940,2.10000,2.14000
,,,-1.98899996281,2.10000,2.14000
,,,-1.98889994621,2.12000,2.12000
,,,-1.98879992962,2.12000,2.10000
,,,-1.98869991302,2.12000,2.14000
,,,-1.98859989643,2.12000,2.14000
,,,-1.98849999905,2.12000,2.14000
,,,-1.98839998245,2.12000,2.10000
,,,-1.98829996586,2.12000,2.14000
,,,-1.98819994926,2.12000,2.14000
,,,-1.98809993267,2.12000,2.14000
,,,-1.98799991608,2.10000,2.14000
,,,-1.98789989948,2.12000,2.14000
,,,-1.98780000210,2.12000,2.14000
,,,-1.98769998550,2.12000,2.14000
,,,-1.98759996891,2.12000,2.14000
,,,-1.98749995232,2.12000,2.14000
,,,-1.98739993572,2.12000,2.14000
,,,-1.98729991913,2.12000,2.14000
,,,-1.98719990253,2.12000,2.14000
,,,-1.98710000515,2.12000,2.14000
,,,-1.98699998856,2.12000,2.14000
,,,-1.98689997196,2.12000,2.14000
,,,-1.98679995537,2.12000,2.14000
,,,-1.98669993877,2.12000,2.14000
,,,-1.98659992218,2.12000,2.14000
,,,-1.98649990559,2.12000,2.14000
,,,-1.98640000820,2.12000,2.14000
,,,-1.98629999161,2.12000,2.14000
,,,-1.98619997501,2.12000,2.14000
,,,-1.98609995842,2.12000,2.14000
,,,-1.98599994183,2.12000,2.14000
,,,-1.98589992523,2.14000,2.14000
,,,-1.98579990864,2.14000,2.14000
,,,-1.98569989204,2.12000,2.16000
,,,-1.98559999466,2.14000,2.14000
,,,-1.98549997807,2.12000,2.16000
,,,-1.98539996147,2.14000,2.14000
,,,-1.98529994488,2.14000,2.14000
,,,-1.98519992828,2.12000,2.14000
,,,-1.98509991169,2.14000,2.14000
,,,-1.98499989510,2.14000,2.14000
,,,-1.98489999771,2.12000,2.16000
,,,-1.98479998112,2.14000,2.16000
,,,-1.98469996452,2.14000,2.14000
,,,-1.98459994793,2.16000,2.14000
,,,-1.98449993134,2.12000,2.16000
,,,-1.98439991474,2.14000,2.16000
,,,-1.98429989815,2.14000,2.16000
,,,-1.98420000076,2.14000,2.14000
,,,-1.98409998417,2.14000,2.14000
,,,-1.98399996758,2.14000,2.14000
,,,-1.98389995098,2.14000,2.14000
,,,-1.98379993439,2.14000,2.16000
,,,-1.98369991779,2.14000,2.16000
,,,-1.98359990120,2.14000,2.14000
,,,-1.98350000381,2.14000,2.16000
,,,-1.98339998722,2.14000,2.16000
,,,-1.98329997063,2.14000,2.16000
,,,-1.98319995403,2.14000,2.16000
,,,-1.98309993744,2.14000,2.16000
,,,-1.98299992085,2.12000,2.18000
,,,-1.98289990425,2.14000,2.14000
,,,-1.98280000687,2.14000,2.16000
,,,-1.98269999027,2.14000,2.16000
,,,-1.98259997368,2.16000,2.16000
,,,-1.98249995708,2.16000,2.16000
,,,-1.98239994049,2.16000,2.16000
,,,-1.98229992390,2.16000,2.18000
,,,-1.98219990730,2.14000,2.16000
,,,-1.98209989071,2.16000,2.16000
,,,-1.98199999332,2.16000,2.16000
,,,-1.98189997673,2.16000,2.18000
,,,-1.98179996014,2.16000,2.16000
,,,-1.98169994354,2.16000,2.16000
,,,-1.98159992695,2.14000,2.16000
,,,-1.98149991035,2.14000,2.18000
,,,-1.98139989376,2.14000,2.16000
,,,-1.98129999638,2.14000,2.16000
,,,-1.98119997978,2.16000,2.16000
,,,-1.98109996319,2.14000,2.18000
,,,-1.98099994659,2.14000,2.18000
,,,-1.98089993000,2.16000,2.18000
,,,-1.98079991341,2.18000,2.16000
,,,-1.98069989681,2.16000,2.16000
,,,-1.98059999943,2.14000,2.18000
,,,-1.98049998283,2.16000,2.18000
,,,-1.98039996624,2.16000,2.18000
,,,-1.98029994965,2.16000,2.18000
,,,-1.98019993305,2.16000,2.18000
,,,-1.98009991646,2.16000,2.18000
,,,-1.97999989986,2.16000,2.18000
,,,-1.97990000248,2.16000,2.18000
,,,-1.97979998589,2.18000,2.18000
,,,-1.97969996929,2.18000,2.18000
,,,-1.97959995270,2.16000,2.18000
,,,-1.97949993610,2.18000,2.18000
,,,-1.97939991951,2.18000,2.18000
,,,-1.97929990292,2.16000,2.18000
,,,-1.97920000553,2.16000,2.18000
,,,-1.97909998894,2.16000,2.16000
,,,-1.97899997234,2.18000,2.18000
,,,-1.97889995575,2.18000,2.18000
,,,-1.97879993916,2.18000,2.18000
,,,-1.97869992256,2.18000,2.18000
,,,-1.97859990597,2.18000,2.18000
,,,-1.97850000858,2.16000,2.18000
,,,-1.97839999199,2.18000,2.18000
,,,-1.97829997540,2.18000,2.18000
,,,-1.97819995880,2.18000,2.18000
,,,-1.97809994221,2.16000,2.18000
,,,-1.97799992561,2.18000,2.18000
,,,-1.97789990902,2.18000,2.18000
,,,-1.97779989243,2.18000,2.18000
,,,-1.97769999504,2.18000,2.18000
,,,-1.97759997845,2.18000,2.18000
,,,-1.97749996185,2.18000,2.18000
,,,-1.97739994526,2.18000,2.20000
,,,-1.97729992867,2.18000,2.18000
,,,-1.97719991207,2.18000,2.20000
,,,-1.97709989548,2.18000,2.18000
,,,-1.97699999809,2.20000,2.18000
,,,-1.97689998150,2.18000,2.18000
,,,-1.97679996490,2.18000,2.18000
,,,-1.97669994831,2.20000,2.20000
,,,-1.97659993172,2.20000,2.22000
,,,-1.97649991512,2.20000,2.18000
,,,-1.97639989853,2.20000,2.18000
,,,-1.97630000114,2.18000,2.20000
,,,-1.97619998455,2.18000,2.18000
,,,-1.97609996796,2.20000,2.20000
,,,-1.97599995136,2.18000,2.18000
,,,-1.97589993477,2.20000,2.20000
,,,-1.97579991817,2.20000,2.20000
,,,-1.97569990158,2.20000,2.18000
,,,-1.97560000420,2.20000,2.22000
,,,-1.97549998760,2.20000,2.22000
,,,-1.97539997101,2.20000,2.18000
,,,-1.97529995441,2.20000,2.18000
,,,-1.97519993782,2.20000,2.20000
,,,-1.97509992123,2.20000,2.22000
,,,-1.97499990463,2.20000,2.22000
,,,-1.97490000725,2.20000,2.22000
,,,-1.97479999065,2.20000,2.22000
,,,-1.97469997406,2.20000,2.22000
,,,-1.97459995747,2.18000,2.20000
,,,-1.97449994087,2.20000,2.20000
,,,-1.97439992428,2.18000,2.22000
,,,-1.97429990768,2.20000,2.22000
,,,-1.97419989109,2.20000,2.22000
,,,-1.97409999371,2.20000,2.18000
,,,-1.97399997711,2.20000,2.22000
,,,-1.97389996052,2.20000,2.22000
,,,-1.97379994392,2.20000,2.22000
,,,-1.97369992733,2.22000,2.22000
,,,-1.97359991074,2.22000,2.22000
,,,-1.97349989414,2.20000,2.22000
,,,-1.97339999676,2.20000,2.22000
,,,-1.97329998016,2.20000,2.22000
,,,-1.97319996357,2.20000,2.22000
,,,-1.97309994698,2.20000,2.22000
,,,-1.97299993038,2.20000,2.22000
,,,-1.97289991379,2.20000,2.22000
,,,-1.97279989719,2.22000,2.22000
,,,-1.97269999981,2.20000,2.22000
,,,-1.97259998322,2.20000,2.22000
,,,-1.97249996662,2.20000,2.22000
,,,-1.97239995003,2.22000,2.24000
,,,-1.97229993343,2.20000,2.22000
,,,-1.97219991684,2.20000,2.22000
,,,-1.97209990025,2.20000,2.22000
,,,-1.97200000286,2.20000,2.22000
,,,-1.97189998627,2.22000,2.22000
,,,-1.97179996967,2.20000,2.22000
,,,-1.97169995308,2.22000,2.22000
,,,-1.97159993649,2.22000,2.22000
,,,-1.97149991989,2.22000,2.22000
,,,-1.97139990330,2.22000,2.24000
,,,-1.97130000591,2.20000,2.22000
,,,-1.97119998932,2.22000,2.24000
,,,-1.97109997272,2.24000,2.22000
,,,-1.97099995613,2.20000,2.24000
,,,-1.97089993954,2.22000,2.22000
,,,-1.97079992294,2.20000,2.24000
,,,-1.97069990635,2.22000,2.24000
,,,-1.97060000896,2.22000,2.24000
,,,-1.97049999237,2.22000,2.22000
,,,-1.97039997578,2.22000,2.24000
,,,-1.97029995918,2.20000,2.24000
,,,-1.97019994259,2.20000,2.22000
,,,-1.97009992599,2.22000,2.24000
,,,-1.96999990940,2.12000,2.14000
,,,-1.96989989281,2.14000,2.16000
,,,-1.96979999542,2.12000,2.16000
,,,-1.96969997883,2.14000,2.14000
,,,-1.96959996223,2.12000,2.14000
,,,-1.96949994564,2.12000,2.14000
,,,-1.96939992905,2.14000,2.14000
,,,-1.96929991245,2.14000,2.16000
,,,-1.96919989586,2.14000,2.16000
,,,-1.96909999847,2.14000,2.14000
,,,-1.96899998188,2.14000,2.18000
,,,-1.96889996529,2.14000,2.16000
,,,-1.96879994869,2.14000,2.16000
,,,-1.96869993210,2.14000,2.14000
,,,-1.96859991550,2.14000,2.16000
,,,-1.96849989891,2.14000,2.14000
,,,-1.96840000153,2.16000,2.16000
,,,-1.96829998493,2.14000,2.16000
,,,-1.96819996834,2.14000,2.16000
,,,-1.96809995174,2.14000,2.16000
,,,-1.96799993515,2.16000,2.16000
,,,-1.96789991856,2.14000,2.14000
,,,-1.96779990196,2.14000,2.16000
,,,-1.96770000458,2.14000,2.16000
,,,-1.96759998798,2.14000,2.16000
,,,-1.96749997139,2.14000,2.16000
,,,-1.96739995480,2.14000,2.14000
,,,-1.96729993820,2.16000,2.16000
,,,-1.96719992161,2.16000,2.16000
,,,-1.96709990501,2.14000,2.16000
,,,-1.96700000763,2.16000,2.16000
,,,-1.96689999104,2.14000,2.16000
,,,-1.96679997444,2.14000,2.16000
,,,-1.96669995785,2.16000,2.16000
,,,-1.96659994125,2.14000,2.16000
,,,-1.96649992466,2.14000,2.18000
,,,-1.96639990807,2.18000,2.16000
,,,-1.96629989147,2.16000,2.16000
,,,-1.96619999409,2.18000,2.16000
,,,-1.96609997749,2.16000,2.18000
,,,-1.96599996090,2.18000,2.16000
,,,-1.96589994431,2.18000,2.18000
,,,-1.96579992771,2.16000,2.16000
,,,-1.96569991112,2.16000,2.16000
,,,-1.96559989452,2.16000,2.18000
,,,-1.96549999714,2.16000,2.16000
,,,-1.96539998055,2.16000,2.18000
,,,-1.96529996395,2.16000,2.18000
,,,-1.96519994736,2.18000,2.18000
,,,-1.96509993076,2.16000,2.18000
,,,-1.96499991417,1.74000,1.74000
,,,-1.96489989758,1.74000,1.74000
,,,-1.96480000019,1.72000,1.74000
,,,-1.96469998360,1.72000,1.74000
,,,-1.96459996700,1.74000,1.74000
,,,-1.96449995041,1.74000,1.74000
,,,-1.96439993382,1.72000,1.76000
,,,-1.96429991722,1.74000,1.74000
,,,-1.96419990063,1.74000,1.74000
,,,-1.96410000324,1.74000,1.74000
,,,-1.96399998665,1.74000,1.74000
,,,-1.96389997005,1.74000,1.74000
,,,-1.96379995346,1.74000,1.74000
,,,-1.96369993687,1.74000,1.74000
,,,-1.96359992027,1.76000,1.76000
,,,-1.96349990368,1.72000,1.76000
,,,-1.96340000629,1.74000,1.74000
,,,-1.96329998970,1.74000,1.74000
,,,-1.96319997311,1.76000,1.74000
,,,-1.96309995651,1.74000,1.74000
,,,-1.96299993992,1.76000,1.74000
,,,-1.96289992332,1.76000,1.74000
,,,-1.96279990673,1.74000,1.74000
,,,-1.96270000935,1.74000,1.74000
,,,-1.96259999275,1.74000,1.76000
,,,-1.96249997616,1.76000,1.78000
,,,-1.96239995956,1.74000,1.76000
,,,-1.96229994297,1.76000,1.78000
,,,-1.96219992638,1.76000,1.76000
,,,-1.96209990978,1.74000,1.76000
,,,-1.96199989319,1.74000,1.76000
,,,-1.96189999580,1.76000,1.76000
,,,-1.96179997921,1.76000,1.76000
,,,-1.96169996262,1.76000,1.76000
,,,-1.96159994602,1.76000,1.76000
,,,-1.96149992943,1.76000,1.76000
,,,-1.96139991283,1.74000,1.78000
,,,-1.96129989624,1.76000,1.76000
,,,-1.96119999886,1.74000,1.76000
,,,-1.96109998226,1.76000,1.76000
,,,-1.96099996567,1.76000,1.78000
,,,-1.96089994907,1.78000,1.76000
,,,-1.96079993248,1.76000,1.78000
,,,-1.96069991589,1.78000,1.78000
,,,-1.96059989929,1.76000,1.76000
,,,-1.96050000191,1.76000,1.78000
,,,-1.96039998531,1.76000,1.78000
,,,-1.96029996872,1.78000,1.78000
,,,-1.96019995213,1.76000,1.76000
,,,-1.96009993553,1.78000,1.76000
,,,-1.95999991894,1.76000,1.76000
,,,-1.95989990234,1.76000,1.76000
,,,-1.95980000496,1.76000,1.78000
,,,-1.95969998837,1.78000,1.78000
,,,-1.95959997177,1.76000,1.78000
,,,-1.95949995518,1.78000,1.78000
,,,-1.95939993858,1.76000,1.78000
,,,-1.95929992199,1.78000,1.78000
,,,-1.95919990540,1.76000,1.78000
,,,-1.95910000801,1.78000,1.78000
,,,-1.95899999142,1.78000,1.78000
,,,-1.95889997482,1.78000,1.78000
,,,-1.95879995823,1.76000,1.78000
,,,-1.95869994164,1.80000,1.78000
,,,-1.95859992504,1.78000,1.82000
,,,-1.95849990845,1.78000,1.80000
,,,-1.95839989185,1.78000,1.82000
,,,-1.95829999447,1.78000,1.80000
,,,-1.95819997787,1.78000,1.78000
,,,-1.95809996128,1.78000,1.78000
,,,-1.95799994469,1.78000,1.78000
,,,-1.95789992809,1.78000,1.78000
,,,-1.95779991150,1.80000,1.78000
,,,-1.95769989491,1.80000,1.80000
,,,-1.95759999752,1.80000,1.82000
,,,-1.95749998093,1.80000,1.80000
,,,-1.95739996433,1.78000,1.78000
,,,-1.95729994774,1.80000,1.78000
,,,-1.95719993114,1.80000,1.82000
,,,-1.95709991455,1.80000,1.80000
,,,-1.95699989796,1.80000,1.82000
,,,-1.95690000057,1.80000,1.78000
,,,-1.95679998398,1.78000,1.80000
,,,-1.95669996738,1.80000,1.82000
,,,-1.95659995079,1.80000,1.80000
,,,-1.95649993420,1.80000,1.82000
,,,-1.95639991760,1.80000,1.82000
,,,-1.95629990101,1.80000,1.82000
,,,-1.95620000362,1.80000,1.80000
,,,-1.95609998703,1.82000,1.82000
,,,-1.95599997044,1.80000,1.82000
,,,-1.95589995384,1.80000,1.82000
,,,-1.95579993725,1.80000,1.82000
,,,-1.95569992065,1.80000,1.82000
,,,-1.95559990406,1.80000,1.82000
,,,-1.95550000668,1.80000,1.82000
,,,-1.95539999008,1.80000,1.82000
,,,-1.95529997349,1.80000,1.82000
,,,-1.95519995689,1.80000,1.82000
,,,-1.95509994030,1.82000,1.82000
,,,-1.95499992371,1.82000,1.82000
,,,-1.95489990711,1.82000,1.82000
,,,-1.95480000973,1.80000,1.82000
,,,-1.95469999313,1.80000,1.82000
,,,-1.95459997654,1.80000,1.82000
,,,-1.95449995995,1.80000,1.82000
,,,-1.95439994335,1.80000,1.82000
,,,-1.95429992676,1.82000,1.82000
,,,-1.95419991016,1.82000,1.82000
,,,-1.95409989357,1.82000,1.82000
,,,-1.95399999619,1.80000,1.82000
,,,-1.95389997959,1.82000,1.82000
,,,-1.95379996300,1.82000,1.82000
,,,-1.95369994640,1.80000,1.82000
,,,-1.95359992981,1.82000,1.82000
,,,-1.95349991322,1.80000,1.82000
,,,-1.95339989662,1.82000,1.84000
,,,-1.95329999924,1.82000,1.82000
,,,-1.95319998264,1.82000,1.84000
,,,-1.95309996605,1.82000,1.82000
,,,-1.95299994946,1.80000,1.84000
,,,-1.95289993286,1.82000,1.82000
,,,-1.95279991627,1.82000,1.84000
,,,-1.95269989967,1.82000,1.82000
,,,-1.95260000229,1.82000,1.84000
,,,-1.95249998569,1.82000,1.82000
,,,-1.95239996910,1.82000,1.82000
,,,-1.95229995251,1.82000,1.84000
,,,-1.95219993591,1.84000,1.82000
,,,-1.95209991932,1.82000,1.82000
,,,-1.95199990273,1.82000,1.84000
,,,-1.95190000534,1.84000,1.84000
,,,-1.95179998875,1.82000,1.84000
,,,-1.95169997215,1.82000,1.84000
,,,-1.95159995556,1.82000,1.84000
,,,-1.95149993896,1.82000,1.84000
,,,-1.95139992237,1.84000,1.82000
,,,-1.95129990578,1.84000,1.84000
,,,-1.95120000839,1.84000,1.84000
,,,-1.95109999180,1.82000,1.82000
,,,-1.95099997520,1.82000,1.84000
,,,-1.95089995861,1.82000,1.84000
,,,-1.95079994202,1.86000,1.86000
,,,-1.95069992542,1.82000,1.84000
,,,-1.95059990883,1.82000,1.86000
,,,-1.95049989223,1.82000,1.84000
,,,-1.95039999485,1.86000,1.84000
,,,-1.95029997826,1.84000,1.84000
,,,-1.95019996166,1.84000,1.86000
,,,-1.95009994507,1.84000,1.86000
,,,-1.94999992847,1.86000,1.84000
,,,-1.94989991188,1.84000,1.84000
,,,-1.94979989529,1.84000,1.84000
,,,-1.94969999790,1.84000,1.84000
,,,-1.94959998131,1.84000,1.84000
,,,-1.94949996471,1.84000,1.86000
,,,-1.94939994812,1.84000,1.84000
,,,-1.94929993153,1.86000,1.84000
,,,-1.94919991493,1.84000,1.84000
,,,-1.94909989834,1.84000,1.86000
,,,-1.94900000095,1.84000,1.84000
,,,-1.94889998436,1.86000,1.86000
,,,-1.94879996777,1.84000,1.86000
,,,-1.94869995117,1.86000,1.86000
,,,-1.94859993458,1.84000,1.84000
,,,-1.94849991798,1.86000,1.86000
,,,-1.94839990139,1.84000,1.86000
,,,-1.94830000401,1.86000,1.86000
,,,-1.94819998741,1.86000,1.84000
,,,-1.94809997082,1.88000,1.86000
,,,-1.94799995422,1.86000,1.84000
,,,-1.94789993763,1.86000,1.86000
,,,-1.94779992104,1.86000,1.86000
,,,-1.94769990444,1.84000,1.86000
,,,-1.94760000706,1.86000,1.86000
,,,-1.94749999046,1.86000,1.86000
,,,-1.94739997387,1.84000,1.86000
,,,-1.94729995728,1.86000,1.86000
,,,-1.94719994068,1.88000,1.86000
,,,-1.94709992409,1.86000,1.86000
,,,-1.94699990749,1.86000,1.86000
,,,-1.94690001011,1.86000,1.86000
,,,-1.94679999352,1.86000,1.86000
,,,-1.94669997692,1.86000,1.86000
,,,-1.94659996033,1.88000,1.86000
,,,-1.94649994373,1.88000,1.86000
,,,-1.94639992714,1.86000,1.86000
,,,-1.94629991055,1.86000,1.86000
,,,-1.94619989395,1.86000,1.86000
,,,-1.94609999657,1.86000,1.86000
,,,-1.94599997997,1.86000,1.88000
,,,-1.94589996338,1.86000,1.86000
,,,-1.94579994678,1.86000,1.88000
,,,-1.94569993019,1.86000,1.88000
,,,-1.94559991360,1.88000,1.88000
,,,-1.94549989700,1.86000,1.86000
,,,-1.94539999962,1.86000,1.86000
,,,-1.94529998302,1.88000,1.90000
,,,-1.94519996643,1.88000,1.90000
,,,-1.94509994984,1.88000,1.86000
,,,-1.94499993324,1.88000,1.86000
,,,-1.94489991665,1.86000,1.90000
,,,-1.94479990005,1.86000,1.86000
,,,-1.94470000267,1.86000,1.90000
,,,-1.94459998608,1.88000,1.88000
,,,-1.94449996948,1.90000,1.86000
,,,-1.94439995289,1.86000,1.90000
,,,-1.94429993629,1.88000,1.88000
,,,-1.94419991970,1.88000,1.90000
,,,-1.94409990311,1.88000,1.90000
,,,-1.94400000572,1.88000,1.90000
,,,-1.94389998913,1.90000,1.90000
,,,-1.94379997253,1.88000,1.90000
,,,-1.94369995594,1.90000,1.90000
,,,-1.94359993935,1.88000,1.90000
,,,-1.94349992275,1.88000,1.90000
,,,-1.94339990616,1.88000,1.90000
,,,-1.94330000877,1.86000,1.90000
,,,-1.94319999218,1.88000,1.90000
,,,-1.94309997559,1.90000,1.90000
,,,-1.94299995899,1.90000,1.90000
,,,-1.94289994240,1.90000,1.90000
,,,-1.94279992580,1.88000,1.90000
,,,-1.94269990921,1.90000,1.90000
,,,-1.94259989262,1.90000,1.90000
,,,-1.94249999523,1.90000,1.90000
,,,-1.94239997864,1.90000,1.90000
,,,-1.94229996204,1.90000,1.90000
