Documentos/Otros_resultados/Pruebas A/SDS00004.CSV

Record Length,20480,,Source,CH1,CH2
Sample Interval,CH1:0.0000199999995 CH2:0.0000199999995,,Second,Volt,Volt
Vertical Units,CH1:V CH2:V,,-0.20479999483,0.42000,0.42000
Vertical Scale,CH1:0.50 CH2:0.50,,-0.20477999747,0.42000,0.42000
Vertical Offset,CH1:-1.50000 CH2:-1.50000,,-0.20476000011,0.42000,0.42000
Horizontal Units,s,,-0.20473998785,0.44000,0.42000
Horizontal Scale,0.0099999998,,-0.20471999049,0.42000,0.42000
Model Number,SDS1102CNL+,,-0.20469999313,0.42000,0.42000
Serial Number,SDS10BA3163724,,-0.20467999578,0.42000,0.42000
Software Version,6.01.01.17,,-0.20465999842,0.42000,0.42000
,,,-0.20464000106,0.42000,0.42000
,,,-0.20461998880,0.42000,0.42000
,,,-0.20459999144,0.44000,0.42000
,,,-0.20457999408,0.44000,0.42000
,,,-0.20455999672,0.44000,0.42000
,,,-0.20453999937,0.44000,0.44000
,,,-0.20452000201,0.42000,0.44000
,,,-0.20449998975,0.46000,0.42000
,,,-0.20447999239,0.44000,0.42000
,,,-0.20445999503,0.46000,0.42000
,,,-0.20443999767,0.46000,0.42000
,,,-0.20442000031,0.46000,0.44000
,,,-0.20439998806,0.46000,0.44000
,,,-0.20437999070,0.46000,0.42000
,,,-0.20435999334,0.46000,0.42000
,,,-0.20433999598,0.46000,0.46000
,,,-0.20431999862,0.44000,0.46000
,,,-0.20430000126,0.46000,0.46000
,,,-0.20427998900,0.46000,0.46000
,,,-0.20425999165,0.46000,0.44000
,,,-0.20423999429,0.46000,0.46000
,,,-0.20421999693,0.48000,0.46000
,,,-0.20419999957,0.46000,0.46000
,,,-0.20418000221,0.46000,0.46000
,,,-0.20415998995,0.46000,0.46000
,,,-0.20413999259,0.46000,0.46000
,,,-0.20411999524,0.46000,0.46000
,,,-0.20409999788,0.48000,0.46000
,,,-0.20408000052,0.46000,0.46000
,,,-0.20405998826,0.48000,0.48000
,,,-0.20403999090,0.48000,0.46000
,,,-0.20401999354,0.50000,0.48000
,,,-0.20399999619,0.48000,0.48000
,,,-0.20397999883,0.48000,0.48000
,,,-0.20396000147,0.48000,0.48000
,,,-0.20393998921,0.50000,0.48000
,,,-0.20391999185,0.48000,0.48000
,,,-0.20389999449,0.50000,0.50000
,,,-0.20387999713,0.50000,0.50000
,,,-0.20385999978,0.50000,0.50000
,,,-0.20383998752,0.50000,0.50000
,,,-0.20381999016,0.50000,0.50000
,,,-0.20379999280,0.50000,0.50000
,,,-0.20377999544,0.50000,0.50000
,,,-0.20375999808,0.48000,0.50000
,,,-0.20374000072,0.50000,0.50000
,,,-0.20371998847,0.52000,0.52000
,,,-0.20369999111,0.52000,0.52000
,,,-0.20367999375,0.50000,0.50000
,,,-0.20365999639,0.50000,0.52000
,,,-0.20363999903,0.52000,0.52000
,,,-0.20362000167,0.52000,0.54000
,,,-0.20359998941,0.52000,0.52000
,,,-0.20357999206,0.52000,0.54000
,,,-0.20355999470,0.52000,0.54000
,,,-0.20353999734,0.54000,0.54000
,,,-0.20351999998,0.54000,0.54000
,,,-0.20349998772,0.54000,0.54000
,,,-0.20347999036,0.54000,0.54000
,,,-0.20345999300,0.52000,0.54000
,,,-0.20343999565,0.54000,0.54000
,,,-0.20341999829,0.54000,0.56000
,,,-0.20340000093,0.56000,0.54000
,,,-0.20337998867,0.54000,0.54000
,,,-0.20335999131,0.54000,0.54000
,,,-0.20333999395,0.54000,0.54000
,,,-0.20331999660,0.54000,0.56000
,,,-0.20329999924,0.54000,0.56000
,,,-0.20328000188,0.54000,0.54000
,,,-0.20325998962,0.56000,0.56000
,,,-0.20323999226,0.56000,0.56000
,,,-0.20321999490,0.56000,0.56000
,,,-0.20319999754,0.56000,0.58000
,,,-0.20318000019,0.56000,0.58000
,,,-0.20315998793,0.56000,0.58000
,,,-0.20313999057,0.56000,0.58000
,,,-0.20311999321,0.56000,0.58000
,,,-0.20309999585,0.56000,0.58000
,,,-0.20307999849,0.56000,0.58000
,,,-0.20306000113,0.56000,0.58000
,,,-0.20303998888,0.58000,0.58000
,,,-0.20301999152,0.58000,0.58000
,,,-0.20299999416,0.58000,0.58000
,,,-0.20297999680,0.60000,0.58000
,,,-0.20295999944,0.58000,0.60000
,,,-0.20294000208,0.58000,0.60000
,,,-0.20291998982,0.60000,0.62000
,,,-0.20289999247,0.60000,0.62000
,,,-0.20287999511,0.60000,0.62000
,,,-0.20285999775,0.60000,0.62000
,,,-0.20284000039,0.62000,0.60000
,,,-0.20281998813,0.62000,0.62000
,,,-0.20279999077,0.62000,0.62000
,,,-0.20277999341,0.64000,0.62000
,,,-0.20275999606,0.62000,0.62000
,,,-0.20273999870,0.62000,0.64000
,,,-0.20272000134,0.62000,0.64000
,,,-0.20269998908,0.62000,0.64000
,,,-0.20267999172,0.62000,0.64000
,,,-0.20265999436,0.62000,0.64000
,,,-0.20263999701,0.62000,0.64000
,,,-0.20261999965,0.64000,0.64000
,,,-0.20260000229,0.66000,0.66000
,,,-0.20257999003,0.64000,0.66000
,,,-0.20255999267,0.64000,0.66000
,,,-0.20253999531,0.64000,0.66000
,,,-0.20251999795,0.66000,0.66000
,,,-0.20250000060,0.64000,0.66000
,,,-0.20247998834,0.66000,0.66000
,,,-0.20245999098,0.66000,0.66000
,,,-0.20243999362,0.66000,0.66000
,,,-0.20241999626,0.66000,0.66000
,,,-0.20239999890,0.66000,0.68000
,,,-0.20238000154,0.68000,0.66000
,,,-0.20235998929,0.68000,0.70000
,,,-0.20233999193,0.66000,0.70000
,,,-0.20231999457,0.66000,0.70000
,,,-0.20229999721,0.68000,0.68000
,,,-0.20227999985,0.68000,0.70000
,,,-0.20225998759,0.68000,0.70000
,,,-0.20223999023,0.66000,0.70000
,,,-0.20221999288,0.68000,0.70000
,,,-0.20219999552,0.68000,0.72000
,,,-0.20217999816,0.70000,0.70000
,,,-0.20216000080,0.68000,0.70000
,,,-0.20213998854,0.70000,0.70000
,,,-0.20211999118,0.70000,0.70000
,,,-0.20209999382,0.68000,0.72000
,,,-0.20207999647,0.70000,0.74000
,,,-0.20205999911,0.70000,0.74000
,,,-0.20204000175,0.70000,0.74000
,,,-0.20201998949,0.70000,0.74000
,,,-0.20199999213,0.72000,0.74000
,,,-0.20197999477,0.70000,0.74000
,,,-0.20195999742,0.72000,0.74000
,,,-0.20194000006,0.72000,0.74000
,,,-0.20191998780,0.72000,0.74000
,,,-0.20189999044,0.72000,0.74000
,,,-0.20187999308,0.74000,0.74000
,,,-0.20185999572,0.74000,0.78000
,,,-0.20183999836,0.74000,0.78000
,,,-0.20182000101,0.76000,0.78000
,,,-0.20179998875,0.74000,0.78000
,,,-0.20177999139,0.74000,0.78000
,,,-0.20175999403,0.76000,0.78000
,,,-0.20173999667,0.74000,0.78000
,,,-0.20171999931,0.76000,0.78000
,,,-0.20170000196,0.76000,0.80000
,,,-0.20167998970,0.76000,0.80000
,,,-0.20165999234,0.76000,0.80000
,,,-0.20163999498,0.78000,0.82000
,,,-0.20161999762,0.78000,0.80000
,,,-0.20160000026,0.78000,0.80000
,,,-0.20157998800,0.78000,0.80000
,,,-0.20155999064,0.78000,0.82000
,,,-0.20153999329,0.76000,0.82000
,,,-0.20151999593,0.78000,0.82000
,,,-0.20149999857,0.78000,0.82000
,,,-0.20148000121,0.80000,0.82000
,,,-0.20145998895,0.80000,0.82000
,,,-0.20143999159,0.80000,0.84000
,,,-0.20141999424,0.82000,0.82000
,,,-0.20139999688,0.80000,0.86000
,,,-0.20137999952,0.82000,0.86000
,,,-0.20136000216,0.82000,0.86000
,,,-0.20133998990,0.82000,0.86000
,,,-0.20131999254,0.82000,0.86000
,,,-0.20129999518,0.82000,0.86000
,,,-0.20127999783,0.82000,0.86000
,,,-0.20126000047,0.84000,0.86000
,,,-0.20123998821,0.84000,0.88000
,,,-0.20121999085,0.86000,0.86000
,,,-0.20119999349,0.84000,0.88000
,,,-0.20117999613,0.86000,0.88000
,,,-0.20115999877,0.86000,0.90000
,,,-0.20114000142,0.86000,0.88000
,,,-0.20111998916,0.86000,0.90000
,,,-0.20109999180,0.86000,0.90000
,,,-0.20107999444,0.84000,0.90000
,,,-0.20105999708,0.86000,0.90000
,,,-0.20103999972,0.88000,0.90000
,,,-0.20102000237,0.86000,0.92000
,,,-0.20099999011,0.90000,0.90000
,,,-0.20097999275,0.90000,0.94000
,,,-0.20095999539,0.90000,0.92000
,,,-0.20093999803,0.88000,0.92000
,,,-0.20092000067,0.88000,0.94000
,,,-0.20089998841,0.90000,0.94000
,,,-0.20087999105,0.90000,0.94000
,,,-0.20085999370,0.92000,0.94000
,,,-0.20083999634,0.92000,0.96000
,,,-0.20081999898,0.92000,0.96000
,,,-0.20080000162,0.92000,0.96000
,,,-0.20077998936,0.92000,0.98000
,,,-0.20075999200,0.92000,0.96000
,,,-0.20073999465,0.94000,0.96000
,,,-0.20071999729,0.92000,0.98000
,,,-0.20069999993,0.94000,1.00000
,,,-0.20067998767,0.94000,0.98000
,,,-0.20065999031,0.94000,0.98000
,,,-0.20063999295,0.96000,0.98000
,,,-0.20061999559,0.96000,1.02000
,,,-0.20059999824,0.96000,0.98000
,,,-0.20058000088,0.96000,1.02000
,,,-0.20055998862,0.96000,0.98000
,,,-0.20053999126,0.96000,1.02000
,,,-0.20051999390,0.98000,1.02000
,,,-0.20049999654,0.98000,1.04000
,,,-0.20047999918,0.98000,1.04000
,,,-0.20046000183,0.96000,1.04000
,,,-0.20043998957,0.96000,1.04000
,,,-0.20041999221,0.98000,1.04000
,,,-0.20039999485,0.96000,1.04000
,,,-0.20037999749,1.00000,1.06000
,,,-0.20036000013,1.00000,1.04000
,,,-0.20033998787,1.00000,1.06000
,,,-0.20031999052,1.00000,1.06000
,,,-0.20029999316,1.00000,1.06000
,,,-0.20027999580,1.00000,1.06000
,,,-0.20025999844,1.02000,1.06000
,,,-0.20024000108,1.02000,1.06000
,,,-0.20021998882,1.04000,1.10000
,,,-0.20019999146,1.02000,1.10000
,,,-0.20017999411,1.06000,1.10000
,,,-0.20015999675,1.04000,1.10000
,,,-0.20013999939,1.04000,1.10000
,,,-0.20012000203,1.06000,1.10000
,,,-0.20009998977,1.06000,1.10000
,,,-0.20007999241,1.06000,1.10000
,,,-0.20005999506,1.06000,1.12000
,,,-0.20003999770,1.06000,1.10000
,,,-0.20002000034,1.08000,1.10000
,,,-0.19999998808,1.08000,1.12000
,,,-0.19997999072,1.08000,1.12000
,,,-0.19995999336,1.08000,1.14000
,,,-0.19993999600,1.08000,1.14000
,,,-0.19991999865,1.08000,1.14000
,,,-0.19990000129,1.08000,1.14000
,,,-0.19987998903,1.10000,1.14000
,,,-0.19985999167,1.10000,1.14000
,,,-0.19983999431,1.08000,1.18000
,,,-0.19981999695,1.10000,1.16000
,,,-0.19979999959,1.10000,1.14000
,,,-0.19978000224,1.12000,1.14000
,,,-0.19975998998,1.12000,1.18000
,,,-0.19973999262,1.14000,1.20000
,,,-0.19971999526,1.14000,1.18000
,,,-0.19969999790,1.14000,1.18000
,,,-0.19968000054,1.14000,1.18000
,,,-0.19965998828,1.14000,1.18000
,,,-0.19963999093,1.14000,1.20000
,,,-0.19961999357,1.16000,1.20000
,,,-0.19959999621,1.16000,1.22000
,,,-0.19957999885,1.16000,1.22000
,,,-0.19956000149,1.16000,1.22000
,,,-0.19953998923,1.16000,1.22000
,,,-0.19951999187,1.16000,1.22000
,,,-0.19949999452,1.18000,1.22000
,,,-0.19947999716,1.18000,1.22000
,,,-0.19945999980,1.18000,1.22000
,,,-0.19943998754,1.18000,1.22000
,,,-0.19941999018,1.18000,1.26000
,,,-0.19939999282,1.20000,1.26000
,,,-0.19937999547,1.18000,1.26000
,,,-0.19935999811,1.20000,1.26000
,,,-0.19934000075,1.20000,1.26000
,,,-0.19931998849,1.22000,1.26000
,,,-0.19929999113,1.20000,1.28000
,,,-0.19927999377,1.22000,1.26000
,,,-0.19925999641,1.24000,1.28000
,,,-0.19923999906,1.22000,1.28000
,,,-0.19922000170,1.24000,1.28000
,,,-0.19919998944,1.24000,1.30000
,,,-0.19917999208,1.24000,1.30000
,,,-0.19915999472,1.26000,1.30000
,,,-0.19913999736,1.24000,1.30000
,,,-0.19912000000,1.24000,1.30000
,,,-0.19909998775,1.28000,1.30000
,,,-0.19907999039,1.26000,1.30000
,,,-0.19905999303,1.28000,1.32000
,,,-0.19903999567,1.28000,1.32000
,,,-0.19901999831,1.28000,1.34000
,,,-0.19900000095,1.28000,1.34000
,,,-0.19897998869,1.28000,1.34000
,,,-0.19895999134,1.28000,1.34000
,,,-0.19893999398,1.30000,1.34000
,,,-0.19891999662,1.30000,1.34000
,,,-0.19889999926,1.32000,1.34000
,,,-0.19888000190,1.30000,1.36000
,,,-0.19885998964,1.30000,1.36000
,,,-0.19883999228,1.32000,1.38000
,,,-0.19881999493,1.34000,1.38000
,,,-0.19879999757,1.34000,1.38000
,,,-0.19878000021,1.34000,1.38000
,,,-0.19875998795,1.34000,1.38000
,,,-0.19873999059,1.36000,1.38000
,,,-0.19871999323,1.34000,1.38000
,,,-0.19869999588,1.34000,1.42000
,,,-0.19867999852,1.36000,1.42000
,,,-0.19866000116,1.36000,1.42000
,,,-0.19863998890,1.38000,1.42000
,,,-0.19861999154,1.38000,1.42000
,,,-0.19859999418,1.36000,1.42000
,,,-0.19857999682,1.38000,1.42000
,,,-0.19855999947,1.38000,1.44000
,,,-0.19854000211,1.40000,1.44000
,,,-0.19851998985,1.38000,1.44000
,,,-0.19849999249,1.40000,1.42000
,,,-0.19847999513,1.40000,1.44000
,,,-0.19845999777,1.40000,1.46000
,,,-0.19844000041,1.42000,1.44000
,,,-0.19841998816,1.40000,1.46000
,,,-0.19839999080,1.42000,1.46000
,,,-0.19837999344,1.42000,1.46000
,,,-0.19835999608,1.42000,1.48000
,,,-0.19833999872,1.42000,1.48000
,,,-0.19832000136,1.42000,1.50000
,,,-0.19829998910,1.44000,1.50000
,,,-0.19827999175,1.46000,1.50000
,,,-0.19825999439,1.46000,1.50000
,,,-0.19823999703,1.46000,1.50000
,,,-0.19821999967,1.46000,1.50000
,,,-0.19820000231,1.46000,1.50000
,,,-0.19817999005,1.46000,1.50000
,,,-0.19815999269,1.46000,1.52000
,,,-0.19813999534,1.48000,1.52000
,,,-0.19811999798,1.48000,1.52000
,,,-0.19810000062,1.48000,1.52000
,,,-0.19807998836,1.48000,1.54000
,,,-0.19805999100,1.50000,1.54000
,,,-0.19803999364,1.50000,1.54000
,,,-0.19801999629,1.50000,1.54000
,,,-0.19799999893,1.50000,1.54000
,,,-0.19798000157,1.48000,1.54000
,,,-0.19795998931,1.52000,1.58000
,,,-0.19793999195,1.52000,1.54000
,,,-0.19791999459,1.50000,1.56000
,,,-0.19789999723,1.52000,1.58000
,,,-0.19787999988,1.54000,1.58000
,,,-0.19785998762,1.52000,1.60000
,,,-0.19783999026,1.54000,1.60000
,,,-0.19781999290,1.54000,1.60000
,,,-0.19779999554,1.56000,1.60000
,,,-0.19777999818,1.56000,1.60000
,,,-0.19776000082,1.56000,1.60000
,,,-0.19773998857,1.56000,1.60000
,,,-0.19771999121,1.56000,1.62000
,,,-0.19769999385,1.56000,1.62000
,,,-0.19767999649,1.58000,1.62000
,,,-0.19765999913,1.56000,1.62000
,,,-0.19764000177,1.60000,1.62000
,,,-0.19761998951,1.56000,1.66000
,,,-0.19759999216,1.58000,1.62000
,,,-0.19757999480,1.60000,1.66000
,,,-0.19755999744,1.60000,1.62000
,,,-0.19754000008,1.58000,1.66000
,,,-0.19751998782,1.60000,1.66000
,,,-0.19749999046,1.62000,1.66000
,,,-0.19747999310,1.62000,1.66000
,,,-0.19745999575,1.62000,1.68000
,,,-0.19743999839,1.62000,1.68000
,,,-0.19742000103,1.62000,1.68000
,,,-0.19739998877,1.64000,1.68000
,,,-0.19737999141,1.64000,1.70000
,,,-0.19735999405,1.64000,1.70000
,,,-0.19733999670,1.64000,1.70000
,,,-0.19731999934,1.64000,1.70000
,,,-0.19730000198,1.66000,1.70000
,,,-0.19727998972,1.64000,1.70000
,,,-0.19725999236,1.66000,1.70000
,,,-0.19723999500,1.66000,1.70000
,,,-0.19721999764,1.66000,1.74000
,,,-0.19720000029,1.66000,1.74000
,,,-0.19717998803,1.68000,1.74000
,,,-0.19715999067,1.68000,1.74000
,,,-0.19713999331,1.68000,1.74000
,,,-0.19711999595,1.70000,1.74000
,,,-0.19709999859,1.70000,1.74000
,,,-0.19708000124,1.70000,1.74000
,,,-0.19705998898,1.72000,1.74000
,,,-0.19703999162,1.72000,1.76000
,,,-0.19701999426,1.70000,1.76000
,,,-0.19699999690,1.70000,1.76000
,,,-0.19697999954,1.74000,1.78000
,,,-0.19696000218,1.72000,1.78000
,,,-0.19693998992,1.74000,1.78000
,,,-0.19691999257,1.72000,1.78000
,,,-0.19689999521,1.72000,1.78000
,,,-0.19687999785,1.76000,1.82000
,,,-0.19686000049,1.74000,1.82000
,,,-0.19683998823,1.76000,1.82000
,,,-0.19681999087,1.74000,1.82000
,,,-0.19679999352,1.74000,1.82000
,,,-0.19677999616,1.76000,1.82000
,,,-0.19675999880,1.76000,1.82000
,,,-0.19674000144,1.78000,1.84000
,,,-0.19671998918,1.78000,1.84000
,,,-0.19669999182,1.76000,1.84000
,,,-0.19667999446,1.80000,1.84000
,,,-0.19665999711,1.80000,1.84000
,,,-0.19663999975,1.80000,1.86000
,,,-0.19662000239,1.80000,1.86000
,,,-0.19659999013,1.80000,1.86000
,,,-0.19657999277,1.80000,1.86000
,,,-0.19655999541,1.82000,1.86000
,,,-0.19653999805,1.82000,1.86000
,,,-0.19652000070,1.82000,1.86000
,,,-0.19649998844,1.84000,1.86000
,,,-0.19647999108,1.82000,1.88000
,,,-0.19645999372,1.82000,1.90000
,,,-0.19643999636,1.82000,1.90000
,,,-0.19641999900,1.84000,1.90000
,,,-0.19640000165,1.84000,1.88000
,,,-0.19637998939,1.86000,1.90000
,,,-0.19635999203,1.86000,1.90000
,,,-0.19633999467,1.88000,1.90000
,,,-0.19631999731,1.86000,1.90000
,,,-0.19629999995,1.86000,1.92000
,,,-0.19627998769,1.86000,1.92000
,,,-0.19625999033,1.88000,1.92000
,,,-0.19623999298,1.88000,1.92000
,,,-0.19621999562,1.88000,1.94000
,,,-0.19619999826,1.88000,1.94000
,,,-0.19618000090,1.88000,1.94000
,,,-0.19615998864,1.88000,1.94000
,,,-0.19613999128,1.92000,1.94000
,,,-0.19611999393,1.90000,1.94000
,,,-0.19609999657,1.90000,1.98000
,,,-0.19607999921,1.90000,1.98000
,,,-0.19606000185,1.90000,1.96000
,,,-0.19603998959,1.94000,1.98000
,,,-0.19601999223,1.94000,1.98000
,,,-0.19599999487,1.92000,1.98000
,,,-0.19597999752,1.94000,2.00000
,,,-0.19596000016,1.96000,2.00000
,,,-0.19593998790,1.96000,1.98000
,,,-0.19591999054,1.94000,1.98000
,,,-0.19589999318,1.94000,1.98000
,,,-0.19587999582,1.96000,2.00000
,,,-0.19585999846,1.96000,2.00000
,,,-0.19584000111,1.96000,2.02000
,,,-0.19581998885,1.96000,2.00000
,,,-0.19579999149,1.98000,2.02000
,,,-0.19577999413,1.98000,2.00000
,,,-0.19575999677,1.98000,2.02000
,,,-0.19573999941,1.98000,2.02000
,,,-0.19572000206,1.98000,2.04000
,,,-0.19569998980,2.00000,2.02000
,,,-0.19567999244,2.00000,2.02000
,,,-0.19565999508,2.00000,2.06000
,,,-0.19563999772,2.00000,2.06000
,,,-0.19562000036,2.00000,2.06000
,,,-0.19559998810,2.00000,2.08000
,,,-0.19557999074,2.02000,2.08000
,,,-0.19555999339,2.02000,2.08000
,,,-0.19553999603,2.00000,2.08000
,,,-0.19551999867,2.02000,2.08000
,,,-0.19550000131,2.04000,2.06000
,,,-0.19547998905,2.04000,2.08000
,,,-0.19545999169,2.04000,2.10000
,,,-0.19543999434,2.04000,2.10000
,,,-0.19541999698,2.04000,2.10000
,,,-0.19539999962,2.04000,2.10000
,,,-0.19538000226,2.04000,2.10000
,,,-0.19535999000,2.06000,2.10000
,,,-0.19533999264,2.06000,2.10000
,,,-0.19531999528,2.06000,2.10000
,,,-0.19529999793,2.06000,2.14000
,,,-0.19528000057,2.08000,2.14000
,,,-0.19525998831,2.08000,2.12000
,,,-0.19523999095,2.08000,2.14000
,,,-0.19521999359,2.08000,2.14000
,,,-0.19519999623,2.12000,2.14000
,,,-0.19517999887,2.08000,2.14000
,,,-0.19516000152,2.10000,2.14000
,,,-0.19513998926,2.08000,2.14000
,,,-0.19511999190,2.10000,2.14000
,,,-0.19509999454,2.12000,2.16000
,,,-0.19507999718,2.10000,2.16000
,,,-0.19505999982,2.12000,2.16000
,,,-0.19504000247,2.12000,2.16000
,,,-0.19501999021,2.12000,2.16000
,,,-0.19499999285,2.12000,2.18000
,,,-0.19497999549,2.14000,2.18000
,,,-0.19495999813,2.14000,2.20000
,,,-0.19494000077,2.14000,2.20000
,,,-0.19491998851,2.14000,2.20000
,,,-0.19489999115,2.14000,2.18000
,,,-0.19487999380,2.16000,2.18000
,,,-0.19485999644,2.14000,2.22000
,,,-0.19483999908,2.16000,2.22000
,,,-0.19482000172,2.16000,2.22000
,,,-0.19479998946,2.18000,2.22000
,,,-0.19477999210,2.16000,2.22000
,,,-0.19475999475,2.18000,2.22000
,,,-0.19473999739,2.16000,2.22000
,,,-0.19472000003,2.18000,2.24000
,,,-0.19469998777,2.18000,2.22000
,,,-0.19467999041,2.20000,2.24000
,,,-0.19465999305,2.18000,2.22000
,,,-0.19463999569,2.18000,2.22000
,,,-0.19461999834,2.20000,2.24000
,,,-0.19460000098,2.20000,2.24000
,,,-0.19457998872,2.20000,2.24000
,,,-0.19455999136,2.20000,2.24000
,,,-0.19453999400,2.20000,2.26000
,,,-0.19451999664,2.20000,2.26000
,,,-0.19449999928,2.20000,2.26000
,,,-0.19448000193,2.22000,2.26000
,,,-0.19445998967,2.22000,2.26000
,,,-0.19443999231,2.22000,2.26000
,,,-0.19441999495,2.22000,2.26000
,,,-0.19439999759,2.24000,2.30000
,,,-0.19438000023,2.24000,2.30000
,,,-0.19435998797,2.24000,2.30000
,,,-0.19433999062,2.26000,2.26000
,,,-0.19431999326,2.24000,2.30000
,,,-0.19429999590,2.24000,2.30000
,,,-0.19427999854,2.24000,2.30000
,,,-0.19426000118,2.24000,2.30000
,,,-0.19423998892,2.26000,2.30000
,,,-0.19421999156,2.26000,2.30000
,,,-0.19419999421,2.28000,2.32000
,,,-0.19417999685,2.26000,2.32000
,,,-0.19415999949,2.26000,2.32000
,,,-0.19414000213,2.28000,2.32000
,,,-0.19411998987,2.28000,2.34000
,,,-0.19409999251,2.28000,2.34000
,,,-0.19407999516,2.28000,2.34000
,,,-0.19405999780,2.28000,2.34000
,,,-0.19404000044,2.28000,2.34000
,,,-0.19401998818,2.30000,2.34000
,,,-0.19399999082,2.30000,2.34000
,,,-0.19397999346,2.28000,2.34000
,,,-0.19395999610,2.28000,2.38000
,,,-0.19393999875,2.30000,2.34000
,,,-0.19392000139,2.30000,2.38000
,,,-0.19389998913,2.32000,2.34000
,,,-0.19387999177,2.30000,2.38000
,,,-0.19385999441,2.32000,2.36000
,,,-0.19383999705,2.32000,2.36000
,,,-0.19381999969,2.34000,2.38000
,,,-0.19380000234,2.30000,2.38000
,,,-0.19377999008,2.32000,2.38000
,,,-0.19375999272,2.34000,2.38000
,,,-0.19373999536,2.34000,2.38000
,,,-0.19371999800,2.34000,2.38000
,,,-0.19370000064,2.34000,2.38000
,,,-0.19367998838,2.34000,2.40000
,,,-0.19365999103,2.34000,2.38000
,,,-0.19363999367,2.34000,2.38000
,,,-0.19361999631,2.34000,2.40000
,,,-0.19359999895,2.34000,2.40000
,,,-0.19358000159,2.34000,2.40000
,,,-0.19355998933,2.34000,2.40000
,,,-0.19353999197,2.34000,2.40000
,,,-0.19351999462,2.36000,2.42000
,,,-0.19349999726,2.34000,2.40000
,,,-0.19347999990,2.34000,2.42000
,,,-0.19346000254,2.36000,2.42000
,,,-0.19343999028,2.36000,2.42000
,,,-0.19341999292,2.36000,2.42000
,,,-0.19339999557,2.36000,2.42000
,,,-0.19337999821,2.36000,2.42000
,,,-0.19336000085,2.36000,2.44000
,,,-0.19333998859,2.36000,2.42000
,,,-0.19331999123,2.38000,2.46000
,,,-0.19329999387,2.38000,2.44000
,,,-0.19327999651,2.38000,2.44000
,,,-0.19325999916,2.40000,2.46000
