Documentos/Otros_resultados/Pruebas A/SDS00026.CSV

Record Length,20480,,Source,CH1,CH2
Sample Interval,CH1:0.0000002000000 CH2:0.0000002000000,,Second,Volt,Volt
Vertical Units,CH1:V CH2:V,,-0.00204799999,1.32000,1.34000
Vertical Scale,CH1:0.50 CH2:0.50,,-0.00204779999,1.32000,1.36000
Vertical Offset,CH1:-1.50000 CH2:-1.50000,,-0.00204759999,1.32000,1.34000
Horizontal Units,s,,-0.00204739999,1.34000,1.34000
Horizontal Scale,0.0001000000,,-0.00204719999,1.32000,1.34000
Model Number,SDS1102CNL+,,-0.00204699999,1.32000,1.36000
Serial Number,SDS10BA3163724,,-0.00204679999,1.30000,1.36000
Software Version,6.01.01.17,,-0.00204659998,1.32000,1.36000
,,,-0.00204639998,1.32000,1.36000
,,,-0.00204619998,1.34000,1.36000
,,,-0.00204599998,1.32000,1.34000
,,,-0.00204579998,1.32000,1.34000
,,,-0.00204559998,1.30000,1.36000
,,,-0.00204539998,1.32000,1.36000
,,,-0.00204519997,1.30000,1.36000
,,,-0.00204499997,1.30000,1.36000
,,,-0.00204479997,1.32000,1.36000
,,,-0.00204459997,1.30000,1.36000
,,,-0.00204439997,1.30000,1.36000
,,,-0.00204419997,1.32000,1.36000
,,,-0.00204399996,1.32000,1.36000
,,,-0.00204379996,1.30000,1.36000
,,,-0.00204359996,1.32000,1.38000
,,,-0.00204339996,1.32000,1.38000
,,,-0.00204319996,1.32000,1.38000
,,,-0.00204299996,1.32000,1.38000
,,,-0.00204279996,1.30000,1.38000
,,,-0.00204259995,1.32000,1.38000
,,,-0.00204239995,1.30000,1.38000
,,,-0.00204219995,1.32000,1.38000
,,,-0.00204199995,1.34000,1.38000
,,,-0.00204179995,1.30000,1.38000
,,,-0.00204159995,1.30000,1.38000
,,,-0.00204139994,1.32000,1.38000
,,,-0.00204119994,1.32000,1.38000
,,,-0.00204099994,1.30000,1.38000
,,,-0.00204079994,1.30000,1.38000
,,,-0.00204059994,1.34000,1.38000
,,,-0.00204039994,1.32000,1.38000
,,,-0.00204019994,1.30000,1.38000
,,,-0.00203999993,1.30000,1.38000
,,,-0.00203979993,1.32000,1.38000
,,,-0.00203959993,1.34000,1.38000
,,,-0.00203939993,1.30000,1.38000
,,,-0.00203919993,1.30000,1.38000
,,,-0.00203899993,1.34000,1.38000
,,,-0.00203879992,1.34000,1.38000
,,,-0.00203859992,1.32000,1.38000
,,,-0.00203839992,1.32000,1.38000
,,,-0.00203819992,1.32000,1.38000
,,,-0.00203799992,1.32000,1.38000
,,,-0.00203779992,1.30000,1.40000
,,,-0.00203759992,1.32000,1.38000
,,,-0.00203739991,1.34000,1.38000
,,,-0.00203719991,1.34000,1.38000
,,,-0.00203699991,1.34000,1.38000
,,,-0.00203679991,1.30000,1.38000
,,,-0.00203659991,1.32000,1.38000
,,,-0.00203640014,1.34000,1.38000
,,,-0.00203620014,1.32000,1.42000
,,,-0.00203600014,1.30000,1.38000
,,,-0.00203580013,1.34000,1.42000
,,,-0.00203560013,1.34000,1.42000
,,,-0.00203540013,1.30000,1.40000
,,,-0.00203520013,1.30000,1.38000
,,,-0.00203500013,1.32000,1.38000
,,,-0.00203480013,1.32000,1.42000
,,,-0.00203460013,1.34000,1.42000
,,,-0.00203440012,1.32000,1.42000
,,,-0.00203420012,1.32000,1.42000
,,,-0.00203400012,1.34000,1.42000
,,,-0.00203380012,1.30000,1.42000
,,,-0.00203360012,1.32000,1.38000
,,,-0.00203340012,1.32000,1.42000
,,,-0.00203320011,1.34000,1.42000
,,,-0.00203300011,1.32000,1.42000
,,,-0.00203280011,1.32000,1.42000
,,,-0.00203260011,1.32000,1.42000
,,,-0.00203240011,1.32000,1.42000
,,,-0.00203220011,1.32000,1.42000
,,,-0.00203200011,1.32000,1.42000
,,,-0.00203180010,1.30000,1.42000
,,,-0.00203160010,1.32000,1.44000
,,,-0.00203140010,1.32000,1.42000
,,,-0.00203120010,1.34000,1.42000
,,,-0.00203100010,1.32000,1.42000
,,,-0.00203080010,1.32000,1.42000
,,,-0.00203060010,1.32000,1.42000
,,,-0.00203040009,1.34000,1.42000
,,,-0.00203020009,1.32000,1.42000
,,,-0.00203000009,1.34000,1.42000
,,,-0.00202980009,1.32000,1.42000
,,,-0.00202960009,1.34000,1.42000
,,,-0.00202940009,1.32000,1.44000
,,,-0.00202920008,1.32000,1.42000
,,,-0.00202900008,1.34000,1.42000
,,,-0.00202880008,1.32000,1.42000
,,,-0.00202860008,1.34000,1.42000
,,,-0.00202840008,1.34000,1.44000
,,,-0.00202820008,1.34000,1.44000
,,,-0.00202800008,1.34000,1.46000
,,,-0.00202780007,1.30000,1.44000
,,,-0.00202760007,1.34000,1.42000
,,,-0.00202740007,1.32000,1.44000
,,,-0.00202720007,1.34000,1.46000
,,,-0.00202700007,1.34000,1.44000
,,,-0.00202680007,1.34000,1.44000
,,,-0.00202660006,1.32000,1.42000
,,,-0.00202640006,1.32000,1.44000
,,,-0.00202620006,1.34000,1.44000
,,,-0.00202600006,1.32000,1.42000
,,,-0.00202580006,1.34000,1.44000
,,,-0.00202560006,1.34000,1.46000
,,,-0.00202540006,1.32000,1.46000
,,,-0.00202520005,1.34000,1.44000
,,,-0.00202500005,1.34000,1.46000
,,,-0.00202480005,1.32000,1.44000
,,,-0.00202460005,1.32000,1.44000
,,,-0.00202440005,1.34000,1.46000
,,,-0.00202420005,1.34000,1.46000
,,,-0.00202400004,1.32000,1.46000
,,,-0.00202380004,1.32000,1.44000
,,,-0.00202360004,1.34000,1.46000
,,,-0.00202340004,1.34000,1.46000
,,,-0.00202320004,1.32000,1.46000
,,,-0.00202300004,1.34000,1.46000
,,,-0.00202280004,1.34000,1.46000
,,,-0.00202260003,1.34000,1.46000
,,,-0.00202240003,1.34000,1.46000
,,,-0.00202220003,1.34000,1.46000
,,,-0.00202200003,1.34000,1.46000
,,,-0.00202180003,1.34000,1.46000
,,,-0.00202160003,1.32000,1.46000
,,,-0.00202140003,1.32000,1.46000
,,,-0.00202120002,1.34000,1.46000
,,,-0.00202100002,1.34000,1.46000
,,,-0.00202080002,1.34000,1.46000
,,,-0.00202060002,1.32000,1.46000
,,,-0.00202040002,1.34000,1.46000
,,,-0.00202020002,1.32000,1.46000
,,,-0.00202000001,1.34000,1.46000
,,,-0.00201980001,1.34000,1.46000
,,,-0.00201960001,1.36000,1.46000
,,,-0.00201940001,1.34000,1.48000
,,,-0.00201920001,1.30000,1.46000
,,,-0.00201900001,1.34000,1.46000
,,,-0.00201880001,1.34000,1.46000
,,,-0.00201860000,1.34000,1.46000
,,,-0.00201840000,1.32000,1.46000
,,,-0.00201820000,1.34000,1.48000
,,,-0.00201800000,1.36000,1.50000
,,,-0.00201780000,1.34000,1.48000
,,,-0.00201760000,1.34000,1.48000
,,,-0.00201739999,1.34000,1.48000
,,,-0.00201719999,1.34000,1.50000
,,,-0.00201699999,1.32000,1.46000
,,,-0.00201679999,1.34000,1.50000
,,,-0.00201659999,1.34000,1.50000
,,,-0.00201639999,1.34000,1.50000
,,,-0.00201619999,1.34000,1.50000
,,,-0.00201599998,1.34000,1.50000
,,,-0.00201579998,1.34000,1.50000
,,,-0.00201559998,1.36000,1.50000
,,,-0.00201539998,1.34000,1.50000
,,,-0.00201519998,1.34000,1.50000
,,,-0.00201499998,1.34000,1.50000
,,,-0.00201479997,1.34000,1.50000
,,,-0.00201459997,1.34000,1.50000
,,,-0.00201439997,1.34000,1.50000
,,,-0.00201419997,1.34000,1.50000
,,,-0.00201399997,1.32000,1.50000
,,,-0.00201379997,1.32000,1.50000
,,,-0.00201359997,1.34000,1.50000
,,,-0.00201339996,1.34000,1.50000
,,,-0.00201319996,1.34000,1.50000
,,,-0.00201299996,1.34000,1.50000
,,,-0.00201279996,1.34000,1.50000
,,,-0.00201259996,1.34000,1.50000
,,,-0.00201239996,1.34000,1.50000
,,,-0.00201219996,1.34000,1.50000
,,,-0.00201199995,1.34000,1.50000
,,,-0.00201179995,1.34000,1.50000
,,,-0.00201159995,1.34000,1.50000
,,,-0.00201139995,1.36000,1.50000
,,,-0.00201119995,1.34000,1.50000
,,,-0.00201099995,1.34000,1.50000
,,,-0.00201079994,1.34000,1.50000
,,,-0.00201059994,1.34000,1.50000
,,,-0.00201039994,1.34000,1.52000
,,,-0.00201019994,1.34000,1.50000
,,,-0.00200999994,1.34000,1.50000
,,,-0.00200979994,1.36000,1.50000
,,,-0.00200959994,1.34000,1.50000
,,,-0.00200939993,1.36000,1.50000
,,,-0.00200919993,1.36000,1.50000
,,,-0.00200899993,1.34000,1.52000
,,,-0.00200879993,1.34000,1.52000
,,,-0.00200859993,1.34000,1.52000
,,,-0.00200839993,1.36000,1.52000
,,,-0.00200819992,1.34000,1.52000
,,,-0.00200799992,1.34000,1.52000
,,,-0.00200779992,1.34000,1.52000
,,,-0.00200759992,1.34000,1.50000
,,,-0.00200739992,1.34000,1.52000
,,,-0.00200719992,1.34000,1.52000
,,,-0.00200699992,1.36000,1.52000
,,,-0.00200679991,1.36000,1.52000
,,,-0.00200659991,1.34000,1.52000
,,,-0.00200639991,1.32000,1.52000
,,,-0.00200619991,1.38000,1.52000
,,,-0.00200599991,1.36000,1.52000
,,,-0.00200580014,1.36000,1.52000
,,,-0.00200560014,1.34000,1.54000
,,,-0.00200540014,1.36000,1.52000
,,,-0.00200520013,1.34000,1.52000
,,,-0.00200500013,1.34000,1.54000
,,,-0.00200480013,1.34000,1.52000
,,,-0.00200460013,1.36000,1.52000
,,,-0.00200440013,1.34000,1.54000
,,,-0.00200420013,1.34000,1.54000
,,,-0.00200400013,1.34000,1.54000
,,,-0.00200380012,1.36000,1.52000
,,,-0.00200360012,1.36000,1.54000
,,,-0.00200340012,1.34000,1.54000
,,,-0.00200320012,1.36000,1.54000
,,,-0.00200300012,1.36000,1.54000
,,,-0.00200280012,1.34000,1.54000
,,,-0.00200260011,1.34000,1.54000
,,,-0.00200240011,1.36000,1.54000
,,,-0.00200220011,1.34000,1.54000
,,,-0.00200200011,1.36000,1.54000
,,,-0.00200180011,1.36000,1.54000
,,,-0.00200160011,1.36000,1.54000
,,,-0.00200140011,1.36000,1.54000
,,,-0.00200120010,1.36000,1.54000
,,,-0.00200100010,1.36000,1.54000
,,,-0.00200080010,1.36000,1.54000
,,,-0.00200060010,1.36000,1.56000
,,,-0.00200040010,1.34000,1.54000
,,,-0.00200020010,1.34000,1.54000
,,,-0.00200000009,1.34000,1.54000
,,,-0.00199980009,1.36000,1.54000
,,,-0.00199960009,1.36000,1.54000
,,,-0.00199940009,1.36000,1.56000
,,,-0.00199920009,1.36000,1.54000
,,,-0.00199900009,1.36000,1.54000
,,,-0.00199880009,1.34000,1.54000
,,,-0.00199860008,1.34000,1.54000
,,,-0.00199840008,1.38000,1.54000
,,,-0.00199820008,1.36000,1.56000
,,,-0.00199800008,1.34000,1.54000
,,,-0.00199780008,1.34000,1.54000
,,,-0.00199760008,1.36000,1.54000
,,,-0.00199740008,1.36000,1.58000
,,,-0.00199720007,1.34000,1.58000
,,,-0.00199700007,1.36000,1.54000
,,,-0.00199680007,1.38000,1.58000
,,,-0.00199660007,1.36000,1.58000
,,,-0.00199640007,1.34000,1.54000
,,,-0.00199620007,1.36000,1.58000
,,,-0.00199600006,1.38000,1.58000
,,,-0.00199580006,1.36000,1.58000
,,,-0.00199560006,1.36000,1.56000
,,,-0.00199540006,1.36000,1.58000
,,,-0.00199520006,1.36000,1.58000
,,,-0.00199500006,1.38000,1.58000
,,,-0.00199480006,1.34000,1.58000
,,,-0.00199460005,1.38000,1.58000
,,,-0.00199440005,1.36000,1.58000
,,,-0.00199420005,1.36000,1.58000
,,,-0.00199400005,1.36000,1.58000
,,,-0.00199380005,1.38000,1.58000
,,,-0.00199360005,1.36000,1.58000
,,,-0.00199340004,1.34000,1.58000
,,,-0.00199320004,1.36000,1.58000
,,,-0.00199300004,1.38000,1.58000
,,,-0.00199280004,1.36000,1.58000
,,,-0.00199260004,1.36000,1.58000
,,,-0.00199240004,1.36000,1.58000
,,,-0.00199220004,1.36000,1.58000
,,,-0.00199200003,1.36000,1.58000
,,,-0.00199180003,1.36000,1.58000
,,,-0.00199160003,1.36000,1.58000
,,,-0.00199140003,1.36000,1.58000
,,,-0.00199120003,1.36000,1.60000
,,,-0.00199100003,1.36000,1.58000
,,,-0.00199080002,1.36000,1.58000
,,,-0.00199060002,1.36000,1.60000
,,,-0.00199040002,1.38000,1.60000
,,,-0.00199020002,1.36000,1.60000
,,,-0.00199000002,1.34000,1.60000
,,,-0.00198980002,1.36000,1.60000
,,,-0.00198960002,1.38000,1.60000
,,,-0.00198940001,1.36000,1.60000
,,,-0.00198920001,1.36000,1.60000
,,,-0.00198900001,1.36000,1.60000
,,,-0.00198880001,1.38000,1.60000
,,,-0.00198860001,1.36000,1.60000
,,,-0.00198840001,1.38000,1.60000
,,,-0.00198820001,1.38000,1.60000
,,,-0.00198800000,1.38000,1.60000
,,,-0.00198780000,1.36000,1.60000
,,,-0.00198760000,1.36000,1.60000
,,,-0.00198740000,1.38000,1.62000
,,,-0.00198720000,1.36000,1.60000
,,,-0.00198700000,1.38000,1.60000
,,,-0.00198679999,1.36000,1.60000
,,,-0.00198659999,1.38000,1.62000
,,,-0.00198639999,1.36000,1.60000
,,,-0.00198619999,1.38000,1.60000
,,,-0.00198599999,1.36000,1.62000
,,,-0.00198579999,1.36000,1.62000
,,,-0.00198559999,1.36000,1.60000
,,,-0.00198539998,1.38000,1.62000
,,,-0.00198519998,1.38000,1.62000
,,,-0.00198499998,1.36000,1.62000
,,,-0.00198479998,1.38000,1.60000
,,,-0.00198459998,1.36000,1.62000
,,,-0.00198439998,1.38000,1.62000
,,,-0.00198419997,1.38000,1.62000
,,,-0.00198399997,1.38000,1.62000
,,,-0.00198379997,1.38000,1.62000
,,,-0.00198359997,1.36000,1.62000
,,,-0.00198339997,1.38000,1.62000
,,,-0.00198319997,1.38000,1.62000
,,,-0.00198299997,1.38000,1.62000
,,,-0.00198279996,1.36000,1.62000
,,,-0.00198259996,1.38000,1.62000
,,,-0.00198239996,1.38000,1.62000
,,,-0.00198219996,1.38000,1.62000
,,,-0.00198199996,1.38000,1.62000
,,,-0.00198179996,1.38000,1.62000
,,,-0.00198159995,1.38000,1.62000
,,,-0.00198139995,1.36000,1.62000
,,,-0.00198119995,1.38000,1.64000
,,,-0.00198099995,1.38000,1.62000
,,,-0.00198079995,1.38000,1.62000
,,,-0.00198059995,1.38000,1.66000
,,,-0.00198039995,1.38000,1.66000
,,,-0.00198019994,1.38000,1.62000
,,,-0.00197999994,1.40000,1.62000
,,,-0.00197979994,1.38000,1.66000
,,,-0.00197959994,1.38000,1.62000
,,,-0.00197939994,1.38000,1.62000
,,,-0.00197919994,1.40000,1.66000
,,,-0.00197899994,1.38000,1.64000
,,,-0.00197879993,1.38000,1.62000
,,,-0.00197859993,1.38000,1.62000
,,,-0.00197839993,1.38000,1.62000
,,,-0.00197819993,1.38000,1.66000
,,,-0.00197799993,1.38000,1.66000
,,,-0.00197779993,1.40000,1.62000
,,,-0.00197759992,1.40000,1.66000
,,,-0.00197739992,1.40000,1.64000
,,,-0.00197719992,1.40000,1.66000
,,,-0.00197699992,1.40000,1.66000
,,,-0.00197679992,1.38000,1.66000
,,,-0.00197659992,1.38000,1.66000
,,,-0.00197639992,1.38000,1.66000
,,,-0.00197619991,1.38000,1.66000
,,,-0.00197599991,1.40000,1.66000
,,,-0.00197579991,1.38000,1.66000
,,,-0.00197559991,1.38000,1.66000
,,,-0.00197539991,1.40000,1.64000
,,,-0.00197520014,1.40000,1.66000
,,,-0.00197500014,1.36000,1.66000
,,,-0.00197480014,1.40000,1.66000
,,,-0.00197460013,1.40000,1.66000
,,,-0.00197440013,1.38000,1.66000
,,,-0.00197420013,1.38000,1.66000
,,,-0.00197400013,1.38000,1.66000
,,,-0.00197380013,1.40000,1.66000
,,,-0.00197360013,1.40000,1.66000
,,,-0.00197340013,1.38000,1.66000
,,,-0.00197320012,1.38000,1.66000
,,,-0.00197300012,1.40000,1.66000
,,,-0.00197280012,1.40000,1.68000
,,,-0.00197260012,1.38000,1.66000
,,,-0.00197240012,1.38000,1.66000
,,,-0.00197220012,1.40000,1.66000
,,,-0.00197200011,1.40000,1.68000
,,,-0.00197180011,1.38000,1.66000
,,,-0.00197160011,1.40000,1.66000
,,,-0.00197140011,1.40000,1.68000
,,,-0.00197120011,1.38000,1.68000
,,,-0.00197100011,1.38000,1.66000
,,,-0.00197080011,1.40000,1.66000
,,,-0.00197060010,1.38000,1.66000
,,,-0.00197040010,1.38000,1.66000
,,,-0.00197020010,1.40000,1.66000
,,,-0.00197000010,1.38000,1.68000
,,,-0.00196980010,1.38000,1.68000
,,,-0.00196960010,1.40000,1.68000
,,,-0.00196940009,1.40000,1.68000
,,,-0.00196920009,1.40000,1.68000
,,,-0.00196900009,1.38000,1.68000
,,,-0.00196880009,1.40000,1.68000
,,,-0.00196860009,1.40000,1.66000
,,,-0.00196840009,1.40000,1.68000
,,,-0.00196820009,1.40000,1.68000
,,,-0.00196800008,1.40000,1.68000
,,,-0.00196780008,1.40000,1.68000
,,,-0.00196760008,1.40000,1.70000
,,,-0.00196740008,1.40000,1.68000
,,,-0.00196720008,1.40000,1.68000
,,,-0.00196700008,1.40000,1.70000
,,,-0.00196680008,1.40000,1.68000
,,,-0.00196660007,1.40000,1.68000
,,,-0.00196640007,1.40000,1.70000
,,,-0.00196620007,1.40000,1.70000
,,,-0.00196600007,1.40000,1.70000
,,,-0.00196580007,1.38000,1.70000
,,,-0.00196560007,1.40000,1.70000
,,,-0.00196540006,1.40000,1.70000
,,,-0.00196520006,1.40000,1.70000
,,,-0.00196500006,1.40000,1.70000
,,,-0.00196480006,1.42000,1.70000
,,,-0.00196460006,1.40000,1.70000
,,,-0.00196440006,1.40000,1.70000
,,,-0.00196420006,1.40000,1.70000
,,,-0.00196400005,1.40000,1.70000
,,,-0.00196380005,1.40000,1.70000
,,,-0.00196360005,1.40000,1.70000
,,,-0.00196340005,1.40000,1.70000
,,,-0.00196320005,1.42000,1.70000
,,,-0.00196300005,1.40000,1.70000
,,,-0.00196280004,1.40000,1.70000
,,,-0.00196260004,1.40000,1.70000
,,,-0.00196240004,1.42000,1.70000
,,,-0.00196220004,1.40000,1.70000
,,,-0.00196200004,1.40000,1.70000
,,,-0.00196180004,1.42000,1.70000
,,,-0.00196160004,1.42000,1.70000
,,,-0.00196140003,1.40000,1.70000
,,,-0.00196120003,1.40000,1.70000
,,,-0.00196100003,1.42000,1.70000
,,,-0.00196080003,1.42000,1.70000
,,,-0.00196060003,1.40000,1.72000
,,,-0.00196040003,1.40000,1.70000
,,,-0.00196020002,1.44000,1.70000
,,,-0.00196000002,1.42000,1.70000
,,,-0.00195980002,1.40000,1.72000
,,,-0.00195960002,1.40000,1.70000
,,,-0.00195940002,1.42000,1.70000
,,,-0.00195920002,1.42000,1.72000
,,,-0.00195900002,1.40000,1.72000
,,,-0.00195880001,1.42000,1.72000
,,,-0.00195860001,1.42000,1.74000
,,,-0.00195840001,1.42000,1.72000
,,,-0.00195820001,1.42000,1.70000
,,,-0.00195800001,1.42000,1.74000
,,,-0.00195780001,1.42000,1.72000
,,,-0.00195760000,1.42000,1.74000
,,,-0.00195740000,1.42000,1.74000
,,,-0.00195720000,1.44000,1.72000
,,,-0.00195700000,1.42000,1.74000
,,,-0.00195680000,1.42000,1.74000
,,,-0.00195660000,1.40000,1.72000
,,,-0.00195640000,1.44000,1.74000
,,,-0.00195619999,1.42000,1.74000
,,,-0.00195599999,1.42000,1.74000
,,,-0.00195579999,1.40000,1.72000
,,,-0.00195559999,1.42000,1.74000
,,,-0.00195539999,1.42000,1.74000
,,,-0.00195519999,1.42000,1.74000
,,,-0.00195499999,1.42000,1.74000
,,,-0.00195479998,1.42000,1.74000
,,,-0.00195459998,1.42000,1.74000
,,,-0.00195439998,1.42000,1.74000
,,,-0.00195419998,1.42000,1.74000
,,,-0.00195399998,1.42000,1.74000
,,,-0.00195379998,1.42000,1.74000
,,,-0.00195359997,1.42000,1.74000
,,,-0.00195339997,1.42000,1.74000
,,,-0.00195319997,1.42000,1.74000
,,,-0.00195299997,1.42000,1.74000
,,,-0.00195279997,1.42000,1.74000
,,,-0.00195259997,1.42000,1.74000
,,,-0.00195239997,1.42000,1.74000
,,,-0.00195220008,1.42000,1.74000
,,,-0.00195200008,1.40000,1.74000
,,,-0.00195180008,1.42000,1.74000
,,,-0.00195160008,1.40000,1.74000
,,,-0.00195140007,1.42000,1.74000
,,,-0.00195120007,1.42000,1.74000
,,,-0.00195100007,1.42000,1.74000
,,,-0.00195080007,1.42000,1.74000
,,,-0.00195060007,1.42000,1.74000
,,,-0.00195040007,1.44000,1.74000
,,,-0.00195020007,1.42000,1.74000
,,,-0.00195000006,1.42000,1.74000
,,,-0.00194980006,1.42000,1.74000
,,,-0.00194960006,1.42000,1.74000
,,,-0.00194940006,1.42000,1.76000
,,,-0.00194920006,1.40000,1.78000
,,,-0.00194900006,1.42000,1.76000
,,,-0.00194880005,1.42000,1.74000
,,,-0.00194860005,1.42000,1.76000
,,,-0.00194840005,1.42000,1.74000
,,,-0.00194820005,1.42000,1.74000
,,,-0.00194800005,1.44000,1.76000
,,,-0.00194780005,1.40000,1.76000
,,,-0.00194760005,1.44000,1.76000
,,,-0.00194740004,1.40000,1.76000
,,,-0.00194720004,1.42000,1.76000
,,,-0.00194700004,1.42000,1.78000
,,,-0.00194680004,1.42000,1.76000
,,,-0.00194660004,1.44000,1.76000
,,,-0.00194640004,1.42000,1.76000
,,,-0.00194620003,1.42000,1.78000
,,,-0.00194600003,1.44000,1.76000
,,,-0.00194580003,1.42000,1.76000
,,,-0.00194560003,1.42000,1.78000
,,,-0.00194540003,1.42000,1.78000
,,,-0.00194520003,1.44000,1.76000
,,,-0.00194500003,1.44000,1.76000
,,,-0.00194480002,1.44000,1.78000
,,,-0.00194460002,1.42000,1.78000
,,,-0.00194440002,1.42000,1.78000
,,,-0.00194420002,1.44000,1.78000
,,,-0.00194400002,1.42000,1.78000
,,,-0.00194380002,1.42000,1.78000
,,,-0.00194360001,1.42000,1.76000
,,,-0.00194340001,1.44000,1.78000
,,,-0.00194320001,1.42000,1.78000
,,,-0.00194300001,1.42000,1.78000
,,,-0.00194280001,1.44000,1.76000
,,,-0.00194260001,1.44000,1.78000
,,,-0.00194240001,1.44000,1.78000
,,,-0.00194220000,1.44000,1.78000
,,,-0.00194200000,1.44000,1.78000
,,,-0.00194180000,1.44000,1.78000
,,,-0.00194160000,1.42000,1.78000
,,,-0.00194140000,1.44000,1.78000
,,,-0.00194120000,1.46000,1.78000
,,,-0.00194099999,1.44000,1.78000
,,,-0.00194079999,1.44000,1.78000
,,,-0.00194059999,1.44000,1.78000
,,,-0.00194039999,1.46000,1.78000
,,,-0.00194019999,1.44000,1.78000
,,,-0.00193999999,1.44000,1.78000
,,,-0.00193979999,1.44000,1.78000
,,,-0.00193959998,1.48000,1.78000
,,,-0.00193939998,1.44000,1.78000
,,,-0.00193919998,1.44000,1.78000
,,,-0.00193899998,1.44000,1.78000
,,,-0.00193879998,1.46000,1.78000
,,,-0.00193859998,1.46000,1.82000
,,,-0.00193839998,1.44000,1.80000
,,,-0.00193819997,1.44000,1.78000
,,,-0.00193799997,1.46000,1.78000
,,,-0.00193779997,1.46000,1.80000
,,,-0.00193759997,1.44000,1.82000
,,,-0.00193739997,1.44000,1.80000
,,,-0.00193719997,1.46000,1.80000
,,,-0.00193699996,1.44000,1.82000
,,,-0.00193680008,1.44000,1.78000
,,,-0.00193660008,1.46000,1.80000
,,,-0.00193640008,1.46000,1.82000
,,,-0.00193620007,1.44000,1.82000
,,,-0.00193600007,1.46000,1.82000
,,,-0.00193580007,1.46000,1.78000
,,,-0.00193560007,1.46000,1.82000
,,,-0.00193540007,1.44000,1.82000
,,,-0.00193520007,1.44000,1.82000
,,,-0.00193500007,1.46000,1.82000
,,,-0.00193480006,1.46000,1.82000
,,,-0.00193460006,1.46000,1.82000
,,,-0.00193440006,1.46000,1.80000
,,,-0.00193420006,1.46000,1.82000
,,,-0.00193400006,1.46000,1.82000
,,,-0.00193380006,1.48000,1.82000
,,,-0.00193360006,1.46000,1.82000
,,,-0.00193340005,1.46000,1.82000
,,,-0.00193320005,1.46000,1.82000
,,,-0.00193300005,1.46000,1.82000
,,,-0.00193280005,1.46000,1.82000
,,,-0.00193260005,1.48000,1.82000
