Documentos/Otros_resultados/Pruebas A/SDS00013.CSV

Record Length,20480,,Source,CH1,CH2
Sample Interval,CH1:0.0000040000000 CH2:0.0000040000000,,Second,Volt,Volt
Vertical Units,CH1:V CH2:V,,-0.04095999897,1.54000,1.70000
Vertical Scale,CH1:0.50 CH2:0.50,,-0.04095600173,1.54000,1.70000
Vertical Offset,CH1:-1.50000 CH2:-1.50000,,-0.04095200077,1.54000,1.70000
Horizontal Units,s,,-0.04094799981,1.56000,1.70000
Horizontal Scale,0.0024999999,,-0.04094399884,1.54000,1.72000
Model Number,SDS1102CNL+,,-0.04094000161,1.56000,1.70000
Serial Number,SDS10BA3163724,,-0.04093600065,1.56000,1.74000
Software Version,6.01.01.17,,-0.04093199968,1.54000,1.74000
,,,-0.04092799872,1.56000,1.70000
,,,-0.04092400149,1.56000,1.74000
,,,-0.04092000052,1.56000,1.74000
,,,-0.04091599956,1.56000,1.74000
,,,-0.04091199860,1.56000,1.74000
,,,-0.04090800136,1.56000,1.74000
,,,-0.04090400040,1.56000,1.74000
,,,-0.04089999944,1.58000,1.74000
,,,-0.04089599848,1.58000,1.74000
,,,-0.04089200124,1.58000,1.74000
,,,-0.04088800028,1.58000,1.76000
,,,-0.04088399932,1.60000,1.76000
,,,-0.04087999836,1.58000,1.76000
,,,-0.04087600112,1.60000,1.76000
,,,-0.04087200016,1.60000,1.76000
,,,-0.04086799920,1.60000,1.78000
,,,-0.04086399823,1.60000,1.78000
,,,-0.04086000100,1.60000,1.76000
,,,-0.04085600004,1.62000,1.78000
,,,-0.04085199907,1.62000,1.78000
,,,-0.04084799811,1.62000,1.78000
,,,-0.04084400088,1.62000,1.78000
,,,-0.04083999991,1.62000,1.78000
,,,-0.04083599895,1.62000,1.78000
,,,-0.04083200172,1.62000,1.78000
,,,-0.04082800075,1.64000,1.82000
,,,-0.04082399979,1.64000,1.80000
,,,-0.04081999883,1.62000,1.82000
,,,-0.04081600159,1.64000,1.82000
,,,-0.04081200063,1.64000,1.82000
,,,-0.04080799967,1.64000,1.82000
,,,-0.04080399871,1.66000,1.82000
,,,-0.04080000147,1.66000,1.82000
,,,-0.04079600051,1.66000,1.82000
,,,-0.04079199955,1.66000,1.82000
,,,-0.04078799859,1.66000,1.84000
,,,-0.04078400135,1.66000,1.82000
,,,-0.04078000039,1.66000,1.84000
,,,-0.04077599943,1.66000,1.84000
,,,-0.04077199847,1.68000,1.84000
,,,-0.04076800123,1.66000,1.84000
,,,-0.04076400027,1.68000,1.84000
,,,-0.04075999931,1.68000,1.84000
,,,-0.04075599834,1.70000,1.86000
,,,-0.04075200111,1.68000,1.86000
,,,-0.04074800014,1.70000,1.86000
,,,-0.04074399918,1.70000,1.86000
,,,-0.04073999822,1.70000,1.86000
,,,-0.04073600098,1.72000,1.86000
,,,-0.04073200002,1.72000,1.86000
,,,-0.04072799906,1.70000,1.88000
,,,-0.04072399810,1.72000,1.88000
,,,-0.04072000086,1.72000,1.86000
,,,-0.04071599990,1.72000,1.86000
,,,-0.04071199894,1.72000,1.88000
,,,-0.04070800170,1.72000,1.90000
,,,-0.04070400074,1.74000,1.90000
,,,-0.04069999978,1.72000,1.90000
,,,-0.04069599882,1.74000,1.90000
,,,-0.04069200158,1.74000,1.90000
,,,-0.04068800062,1.74000,1.90000
,,,-0.04068399966,1.74000,1.90000
,,,-0.04067999870,1.74000,1.92000
,,,-0.04067600146,1.74000,1.92000
,,,-0.04067200050,1.74000,1.92000
,,,-0.04066799954,1.74000,1.92000
,,,-0.04066399857,1.76000,1.92000
,,,-0.04066000134,1.76000,1.92000
,,,-0.04065600038,1.76000,1.92000
,,,-0.04065199941,1.76000,1.94000
,,,-0.04064799845,1.76000,1.92000
,,,-0.04064400122,1.78000,1.94000
,,,-0.04064000025,1.78000,1.94000
,,,-0.04063599929,1.78000,1.94000
,,,-0.04063199833,1.78000,1.94000
,,,-0.04062800109,1.78000,1.94000
,,,-0.04062400013,1.76000,1.94000
,,,-0.04061999917,1.78000,1.94000
,,,-0.04061599821,1.78000,1.94000
,,,-0.04061200097,1.80000,1.94000
,,,-0.04060800001,1.80000,1.98000
,,,-0.04060399905,1.80000,1.98000
,,,-0.04059999809,1.80000,1.96000
,,,-0.04059600085,1.80000,1.98000
,,,-0.04059199989,1.80000,1.98000
,,,-0.04058799893,1.80000,1.98000
,,,-0.04058400169,1.80000,1.98000
,,,-0.04058000073,1.82000,1.98000
,,,-0.04057599977,1.82000,1.98000
,,,-0.04057199880,1.82000,1.98000
,,,-0.04056800157,1.84000,1.98000
,,,-0.04056400061,1.82000,1.98000
,,,-0.04055999964,1.84000,2.00000
,,,-0.04055599868,1.82000,2.00000
,,,-0.04055200145,1.82000,2.02000
,,,-0.04054800048,1.84000,2.00000
,,,-0.04054399952,1.86000,2.00000
,,,-0.04053999856,1.84000,2.00000
,,,-0.04053600132,1.84000,2.00000
,,,-0.04053200036,1.86000,2.00000
,,,-0.04052799940,1.86000,2.02000
,,,-0.04052399844,1.86000,2.02000
,,,-0.04052000120,1.86000,2.02000
,,,-0.04051600024,1.86000,2.02000
,,,-0.04051199928,1.88000,2.02000
,,,-0.04050799832,1.86000,2.02000
,,,-0.04050400108,1.88000,2.02000
,,,-0.04050000012,1.88000,2.02000
,,,-0.04049599916,1.88000,2.06000
,,,-0.04049199820,1.88000,2.02000
,,,-0.04048800096,1.88000,2.02000
,,,-0.04048400000,1.90000,2.06000
,,,-0.04047999904,1.88000,2.06000
,,,-0.04047599807,1.88000,2.06000
,,,-0.04047200084,1.88000,2.06000
,,,-0.04046799988,1.90000,2.06000
,,,-0.04046399891,1.90000,2.06000
,,,-0.04046000168,1.90000,2.06000
,,,-0.04045600072,1.90000,2.06000
,,,-0.04045199975,1.92000,2.06000
,,,-0.04044799879,1.92000,2.08000
,,,-0.04044400156,1.90000,2.08000
,,,-0.04044000059,1.92000,2.08000
,,,-0.04043599963,1.92000,2.08000
,,,-0.04043199867,1.92000,2.10000
,,,-0.04042800143,1.92000,2.10000
,,,-0.04042400047,1.92000,2.10000
,,,-0.04041999951,1.94000,2.10000
,,,-0.04041599855,1.94000,2.10000
,,,-0.04041200131,1.92000,2.10000
,,,-0.04040800035,1.94000,2.10000
,,,-0.04040399939,1.94000,2.10000
,,,-0.04039999843,1.94000,2.10000
,,,-0.04039600119,1.94000,2.14000
,,,-0.04039200023,1.96000,2.10000
,,,-0.04038799927,1.96000,2.10000
,,,-0.04038399830,1.96000,2.10000
,,,-0.04038000107,1.96000,2.12000
,,,-0.04037600011,1.96000,2.14000
,,,-0.04037199914,1.98000,2.14000
,,,-0.04036799818,1.96000,2.12000
,,,-0.04036400095,1.98000,2.14000
,,,-0.04035999998,1.98000,2.14000
,,,-0.04035599902,1.98000,2.16000
,,,-0.04035199806,2.00000,2.14000
,,,-0.04034800082,1.98000,2.14000
,,,-0.04034399986,1.98000,2.14000
,,,-0.04033999890,1.98000,2.14000
,,,-0.04033600166,1.98000,2.14000
,,,-0.04033200070,2.00000,2.14000
,,,-0.04032799974,2.00000,2.16000
,,,-0.04032399878,2.00000,2.16000
,,,-0.04032000154,2.02000,2.14000
,,,-0.04031600058,2.00000,2.16000
,,,-0.04031199962,2.00000,2.16000
,,,-0.04030799866,2.02000,2.16000
,,,-0.04030400142,2.02000,2.18000
,,,-0.04030000046,2.02000,2.16000
,,,-0.04029599950,2.02000,2.16000
,,,-0.04029199854,2.02000,2.16000
,,,-0.04028800130,2.04000,2.16000
,,,-0.04028400034,2.04000,2.16000
,,,-0.04027999938,2.02000,2.18000
,,,-0.04027599841,2.02000,2.18000
,,,-0.04027200118,2.04000,2.16000
,,,-0.04026800022,2.04000,2.18000
,,,-0.04026399925,2.04000,2.18000
,,,-0.04025999829,2.04000,2.18000
,,,-0.04025600106,2.04000,2.18000
,,,-0.04025200009,2.04000,2.20000
,,,-0.04024799913,2.06000,2.18000
,,,-0.04024399817,2.04000,2.20000
,,,-0.04024000093,2.04000,2.22000
,,,-0.04023599997,2.06000,2.22000
,,,-0.04023199901,2.06000,2.18000
,,,-0.04022799805,2.06000,2.22000
,,,-0.04022400081,2.06000,2.22000
,,,-0.04021999985,2.04000,2.22000
,,,-0.04021599889,2.06000,2.20000
,,,-0.04021200165,2.06000,2.22000
,,,-0.04020800069,2.06000,2.22000
,,,-0.04020399973,2.08000,2.24000
,,,-0.04019999877,2.08000,2.22000
,,,-0.04019600153,2.08000,2.22000
,,,-0.04019200057,2.08000,2.22000
,,,-0.04018799961,2.08000,2.22000
,,,-0.04018399864,2.08000,2.24000
,,,-0.04018000141,2.10000,2.24000
,,,-0.04017600045,2.08000,2.24000
,,,-0.04017199948,2.08000,2.24000
,,,-0.04016799852,2.10000,2.22000
,,,-0.04016400129,2.10000,2.24000
,,,-0.04016000032,2.12000,2.24000
,,,-0.04015599936,2.12000,2.26000
,,,-0.04015199840,2.10000,2.26000
,,,-0.04014800116,2.12000,2.24000
,,,-0.04014400020,2.12000,2.24000
,,,-0.04013999924,2.12000,2.26000
,,,-0.04013599828,2.12000,2.26000
,,,-0.04013200104,2.12000,2.26000
,,,-0.04012800008,2.12000,2.26000
,,,-0.04012399912,2.12000,2.26000
,,,-0.04011999816,2.12000,2.24000
,,,-0.04011600092,2.14000,2.26000
,,,-0.04011199996,2.14000,2.26000
,,,-0.04010799900,2.14000,2.28000
,,,-0.04010400176,2.12000,2.30000
,,,-0.04010000080,2.14000,2.30000
,,,-0.04009599984,2.12000,2.30000
,,,-0.04009199888,2.14000,2.26000
,,,-0.04008800164,2.14000,2.30000
,,,-0.04008400068,2.16000,2.30000
,,,-0.04007999972,2.14000,2.30000
,,,-0.04007599875,2.16000,2.30000
,,,-0.04007200152,2.16000,2.30000
,,,-0.04006800056,2.16000,2.30000
,,,-0.04006399959,2.16000,2.30000
,,,-0.04005999863,2.16000,2.30000
,,,-0.04005600139,2.16000,2.32000
,,,-0.04005200043,2.16000,2.30000
,,,-0.04004799947,2.16000,2.32000
,,,-0.04004399851,2.16000,2.30000
,,,-0.04004000127,2.18000,2.30000
,,,-0.04003600031,2.18000,2.30000
,,,-0.04003199935,2.18000,2.32000
,,,-0.04002799839,2.18000,2.32000
,,,-0.04002400115,2.18000,2.32000
,,,-0.04002000019,2.18000,2.32000
,,,-0.04001599923,2.20000,2.32000
,,,-0.04001199827,2.20000,2.32000
,,,-0.04000800103,2.20000,2.34000
,,,-0.04000400007,2.18000,2.34000
,,,-0.03999999911,2.20000,2.34000
,,,-0.03999599814,2.20000,2.34000
,,,-0.03999200091,2.20000,2.32000
,,,-0.03998799995,2.20000,2.34000
,,,-0.03998399898,2.22000,2.34000
,,,-0.03998000175,2.20000,2.34000
,,,-0.03997600079,2.20000,2.34000
,,,-0.03997199982,2.22000,2.34000
,,,-0.03996799886,2.22000,2.34000
,,,-0.03996400163,2.22000,2.34000
,,,-0.03996000066,2.22000,2.34000
,,,-0.03995599970,2.20000,2.34000
,,,-0.03995199874,2.22000,2.34000
,,,-0.03994800150,2.22000,2.34000
,,,-0.03994400054,2.22000,2.34000
,,,-0.03993999958,2.22000,2.38000
,,,-0.03993599862,2.22000,2.34000
,,,-0.03993200138,2.24000,2.36000
,,,-0.03992800042,2.24000,2.36000
,,,-0.03992399946,2.24000,2.36000
,,,-0.03991999850,2.22000,2.36000
,,,-0.03991600126,2.24000,2.38000
,,,-0.03991200030,2.24000,2.36000
,,,-0.03990799934,2.26000,2.38000
,,,-0.03990399837,2.24000,2.38000
,,,-0.03990000114,2.24000,2.38000
,,,-0.03989600018,2.26000,2.38000
,,,-0.03989199921,2.26000,2.38000
,,,-0.03988799825,2.24000,2.38000
,,,-0.03988400102,2.24000,2.38000
,,,-0.03988000005,2.24000,2.38000
,,,-0.03987599909,2.28000,2.38000
,,,-0.03987199813,2.26000,2.38000
,,,-0.03986800089,2.26000,2.38000
,,,-0.03986399993,2.28000,2.38000
,,,-0.03985999897,2.26000,2.38000
,,,-0.03985600173,2.28000,2.40000
,,,-0.03985200077,2.28000,2.40000
,,,-0.03984799981,2.28000,2.40000
,,,-0.03984399885,2.26000,2.40000
,,,-0.03984000161,2.28000,2.40000
,,,-0.03983600065,2.28000,2.40000
,,,-0.03983199969,2.28000,2.40000
,,,-0.03982799873,2.28000,2.40000
,,,-0.03982400149,2.28000,2.40000
,,,-0.03982000053,2.28000,2.42000
,,,-0.03981599957,2.28000,2.40000
,,,-0.03981199861,2.28000,2.42000
,,,-0.03980800137,2.28000,2.42000
,,,-0.03980400041,2.30000,2.42000
,,,-0.03979999945,2.30000,2.42000
,,,-0.03979599848,2.30000,2.42000
,,,-0.03979200125,2.30000,2.42000
,,,-0.03978800029,2.30000,2.42000
,,,-0.03978399932,2.30000,2.42000
,,,-0.03977999836,2.30000,2.42000
,,,-0.03977600113,2.30000,2.42000
,,,-0.03977200016,2.32000,2.42000
,,,-0.03976799920,2.30000,2.42000
,,,-0.03976399824,2.30000,2.42000
,,,-0.03976000100,2.32000,2.42000
,,,-0.03975600004,2.30000,2.44000
,,,-0.03975199908,2.32000,2.44000
,,,-0.03974799812,2.30000,2.42000
,,,-0.03974400088,2.32000,2.42000
,,,-0.03973999992,2.32000,2.42000
,,,-0.03973599896,2.30000,2.44000
,,,-0.03973200172,2.32000,2.42000
,,,-0.03972800076,2.34000,2.42000
,,,-0.03972399980,2.34000,2.46000
,,,-0.03971999884,2.34000,2.46000
,,,-0.03971600160,2.34000,2.44000
,,,-0.03971200064,2.34000,2.46000
,,,-0.03970799968,2.34000,2.46000
,,,-0.03970399871,2.34000,2.46000
,,,-0.03970000148,2.34000,2.44000
,,,-0.03969600052,2.34000,2.46000
,,,-0.03969199955,2.34000,2.46000
,,,-0.03968799859,2.34000,2.46000
,,,-0.03968400136,2.34000,2.46000
,,,-0.03968000039,2.34000,2.46000
,,,-0.03967599943,2.34000,2.46000
,,,-0.03967199847,2.34000,2.46000
,,,-0.03966800123,2.34000,2.46000
,,,-0.03966400027,2.34000,2.46000
,,,-0.03965999931,2.34000,2.46000
,,,-0.03965599835,2.34000,2.46000
,,,-0.03965200111,2.34000,2.48000
,,,-0.03964800015,2.34000,2.46000
,,,-0.03964399919,2.36000,2.46000
,,,-0.03963999823,2.34000,2.48000
,,,-0.03963600099,2.34000,2.48000
,,,-0.03963200003,2.34000,2.48000
,,,-0.03962799907,2.36000,2.46000
,,,-0.03962399811,2.36000,2.48000
,,,-0.03962000087,2.36000,2.46000
,,,-0.03961599991,2.34000,2.48000
,,,-0.03961199895,2.34000,2.48000
,,,-0.03960800171,2.36000,2.48000
,,,-0.03960400075,2.36000,2.46000
,,,-0.03959999979,2.36000,2.48000
,,,-0.03959599882,2.36000,2.48000
,,,-0.03959200159,2.38000,2.48000
,,,-0.03958800063,2.38000,2.48000
,,,-0.03958399966,2.38000,2.46000
,,,-0.03957999870,2.36000,2.50000
,,,-0.03957600147,2.38000,2.48000
,,,-0.03957200050,2.38000,2.48000
,,,-0.03956799954,2.38000,2.50000
,,,-0.03956399858,2.38000,2.48000
,,,-0.03956000134,2.36000,2.50000
,,,-0.03955600038,2.36000,2.50000
,,,-0.03955199942,2.38000,2.50000
,,,-0.03954799846,2.40000,2.50000
,,,-0.03954400122,2.38000,2.50000
,,,-0.03954000026,2.38000,2.50000
,,,-0.03953599930,2.40000,2.50000
,,,-0.03953199834,2.40000,2.50000
,,,-0.03952800110,2.40000,2.50000
,,,-0.03952400014,2.40000,2.50000
,,,-0.03951999918,2.38000,2.50000
,,,-0.03951599821,2.40000,2.50000
,,,-0.03951200098,2.40000,2.50000
,,,-0.03950800002,2.40000,2.50000
,,,-0.03950399905,2.40000,2.50000
,,,-0.03949999809,2.40000,2.50000
,,,-0.03949600086,2.42000,2.50000
,,,-0.03949199989,2.40000,2.50000
,,,-0.03948799893,2.40000,2.50000
,,,-0.03948400170,2.42000,2.50000
,,,-0.03948000073,2.42000,2.50000
,,,-0.03947599977,2.40000,2.52000
,,,-0.03947199881,2.40000,2.50000
,,,-0.03946800157,2.42000,2.50000
,,,-0.03946400061,2.42000,2.50000
,,,-0.03945999965,2.40000,2.50000
,,,-0.03945599869,2.42000,2.54000
,,,-0.03945200145,2.42000,2.50000
,,,-0.03944800049,2.42000,2.52000
,,,-0.03944399953,2.42000,2.52000
,,,-0.03943999857,2.40000,2.50000
,,,-0.03943600133,2.42000,2.50000
,,,-0.03943200037,2.42000,2.54000
,,,-0.03942799941,2.42000,2.54000
,,,-0.03942399845,2.42000,2.54000
,,,-0.03942000121,2.42000,2.54000
,,,-0.03941600025,2.42000,2.54000
,,,-0.03941199929,2.42000,2.54000
,,,-0.03940799832,2.42000,2.50000
,,,-0.03940400109,2.44000,2.50000
,,,-0.03940000013,2.42000,2.54000
,,,-0.03939599916,2.44000,2.54000
,,,-0.03939199820,2.42000,2.54000
,,,-0.03938800097,2.42000,2.54000
,,,-0.03938400000,2.44000,2.50000
,,,-0.03937999904,2.44000,2.54000
,,,-0.03937599808,2.44000,2.54000
,,,-0.03937200084,2.44000,2.54000
,,,-0.03936799988,2.44000,2.54000
,,,-0.03936399892,2.42000,2.54000
,,,-0.03936000168,2.44000,2.54000
,,,-0.03935600072,2.44000,2.54000
,,,-0.03935199976,2.44000,2.54000
,,,-0.03934799880,2.44000,2.54000
,,,-0.03934400156,2.44000,2.54000
,,,-0.03934000060,2.44000,2.54000
,,,-0.03933599964,2.44000,2.54000
,,,-0.03933199868,2.42000,2.54000
,,,-0.03932800144,2.44000,2.54000
,,,-0.03932400048,2.44000,2.54000
,,,-0.03931999952,2.44000,2.54000
,,,-0.03931599855,2.46000,2.54000
,,,-0.03931200132,2.46000,2.54000
,,,-0.03930800036,2.44000,2.54000
,,,-0.03930399939,2.46000,2.54000
,,,-0.03929999843,2.44000,2.54000
,,,-0.03929600120,2.46000,2.54000
,,,-0.03929200023,2.46000,2.54000
,,,-0.03928799927,2.44000,2.56000
,,,-0.03928399831,2.44000,2.54000
,,,-0.03928000107,2.46000,2.54000
,,,-0.03927600011,2.46000,2.54000
,,,-0.03927199915,2.48000,2.54000
,,,-0.03926799819,2.46000,2.56000
,,,-0.03926400095,2.46000,2.54000
,,,-0.03925999999,2.46000,2.54000
,,,-0.03925599903,2.46000,2.54000
,,,-0.03925199807,2.46000,2.54000
,,,-0.03924800083,2.46000,2.54000
,,,-0.03924399987,2.48000,2.54000
,,,-0.03923999891,2.46000,2.54000
,,,-0.03923600167,2.44000,2.54000
,,,-0.03923200071,2.48000,2.56000
,,,-0.03922799975,2.46000,2.56000
,,,-0.03922399879,2.48000,2.54000
,,,-0.03922000155,2.48000,2.56000
,,,-0.03921600059,2.46000,2.56000
,,,-0.03921199962,2.48000,2.54000
,,,-0.03920799866,2.46000,2.54000
,,,-0.03920400143,2.48000,2.54000
,,,-0.03920000046,2.48000,2.54000
,,,-0.03919599950,2.48000,2.54000
,,,-0.03919199854,2.48000,2.54000
,,,-0.03918800130,2.48000,2.56000
,,,-0.03918400034,2.48000,2.56000
,,,-0.03917999938,2.46000,2.56000
,,,-0.03917599842,2.48000,2.56000
,,,-0.03917200118,2.48000,2.54000
,,,-0.03916800022,2.48000,2.56000
,,,-0.03916399926,2.48000,2.54000
,,,-0.03915999830,2.48000,2.54000
,,,-0.03915600106,2.48000,2.56000
,,,-0.03915200010,2.48000,2.56000
,,,-0.03914799914,2.46000,2.56000
,,,-0.03914399818,2.46000,2.54000
,,,-0.03914000094,2.50000,2.54000
,,,-0.03913599998,2.48000,2.54000
,,,-0.03913199902,2.48000,2.54000
,,,-0.03912799805,2.48000,2.56000
,,,-0.03912400082,2.48000,2.54000
,,,-0.03911999986,2.50000,2.54000
,,,-0.03911599889,2.48000,2.54000
,,,-0.03911200166,2.48000,2.54000
,,,-0.03910800070,2.50000,2.54000
,,,-0.03910399973,2.50000,2.54000
,,,-0.03909999877,2.48000,2.56000
,,,-0.03909600154,2.50000,2.54000
,,,-0.03909200057,2.50000,2.54000
,,,-0.03908799961,2.48000,2.56000
,,,-0.03908399865,2.50000,2.56000
,,,-0.03908000141,2.50000,2.54000
,,,-0.03907600045,2.48000,2.56000
,,,-0.03907199949,2.50000,2.56000
,,,-0.03906799853,2.50000,2.54000
,,,-0.03906400129,2.50000,2.56000
,,,-0.03906000033,2.48000,2.56000
,,,-0.03905599937,2.48000,2.54000
,,,-0.03905199841,2.50000,2.54000
,,,-0.03904800117,2.50000,2.56000
,,,-0.03904400021,2.50000,2.54000
,,,-0.03903999925,2.50000,2.54000
,,,-0.03903599828,2.48000,2.54000
,,,-0.03903200105,2.50000,2.54000
,,,-0.03902800009,2.50000,2.56000
,,,-0.03902399912,2.50000,2.54000
,,,-0.03901999816,2.52000,2.54000
,,,-0.03901600093,2.50000,2.54000
,,,-0.03901199996,2.50000,2.54000
,,,-0.03900799900,2.50000,2.56000
,,,-0.03900399804,2.50000,2.54000
,,,-0.03900000080,2.50000,2.54000
,,,-0.03899599984,2.50000,2.54000
,,,-0.03899199888,2.50000,2.54000
,,,-0.03898800164,2.48000,2.54000
,,,-0.03898400068,2.50000,2.54000
,,,-0.03897999972,2.48000,2.56000
,,,-0.03897599876,2.50000,2.56000
,,,-0.03897200152,2.50000,2.56000
,,,-0.03896800056,2.48000,2.54000
,,,-0.03896399960,2.50000,2.56000
,,,-0.03895999864,2.48000,2.54000
,,,-0.03895600140,2.50000,2.54000
,,,-0.03895200044,2.50000,2.54000
,,,-0.03894799948,2.50000,2.54000
,,,-0.03894399852,2.50000,2.54000
,,,-0.03894000128,2.50000,2.54000
,,,-0.03893600032,2.50000,2.54000
,,,-0.03893199936,2.48000,2.56000
,,,-0.03892799839,2.50000,2.54000
,,,-0.03892400116,2.50000,2.54000
,,,-0.03892000020,2.50000,2.54000
,,,-0.03891599923,2.50000,2.54000
,,,-0.03891199827,2.50000,2.54000
,,,-0.03890800104,2.48000,2.54000
,,,-0.03890400007,2.50000,2.54000
,,,-0.03889999911,2.48000,2.54000
,,,-0.03889599815,2.50000,2.54000
,,,-0.03889200091,2.52000,2.54000
,,,-0.03888799995,2.50000,2.54000
,,,-0.03888399899,2.50000,2.54000
,,,-0.03888000175,2.50000,2.54000
,,,-0.03887600079,2.50000,2.54000
,,,-0.03887199983,2.50000,2.54000
,,,-0.03886799887,2.50000,2.54000
,,,-0.03886400163,2.48000,2.54000
,,,-0.03886000067,2.48000,2.54000
,,,-0.03885599971,2.48000,2.54000
,,,-0.03885199875,2.50000,2.52000
,,,-0.03884800151,2.50000,2.54000
,,,-0.03884400055,2.50000,2.54000
,,,-0.03883999959,2.50000,2.54000
,,,-0.03883599862,2.50000,2.54000
,,,-0.03883200139,2.50000,2.52000
,,,-0.03882800043,2.50000,2.52000
,,,-0.03882399946,2.50000,2.52000
,,,-0.03881999850,2.50000,2.54000
,,,-0.03881600127,2.52000,2.50000
,,,-0.03881200030,2.50000,2.54000
,,,-0.03880799934,2.48000,2.54000
,,,-0.03880399838,2.50000,2.50000
,,,-0.03880000114,2.50000,2.52000
,,,-0.03879600018,2.50000,2.54000
,,,-0.03879199922,2.50000,2.54000
,,,-0.03878799826,2.48000,2.52000
,,,-0.03878400102,2.48000,2.50000
,,,-0.03878000006,2.50000,2.52000
,,,-0.03877599910,2.50000,2.50000
,,,-0.03877199814,2.48000,2.52000
,,,-0.03876800090,2.50000,2.52000
,,,-0.03876399994,2.50000,2.50000
,,,-0.03875999898,2.50000,2.50000
,,,-0.03875600174,2.48000,2.50000
,,,-0.03875200078,2.50000,2.50000
,,,-0.03874799982,2.50000,2.50000
,,,-0.03874399886,2.50000,2.50000
,,,-0.03874000162,2.50000,2.50000
,,,-0.03873600066,2.50000,2.50000
,,,-0.03873199970,2.50000,2.52000
,,,-0.03872799873,2.50000,2.52000
,,,-0.03872400150,2.50000,2.50000
,,,-0.03872000054,2.50000,2.50000
,,,-0.03871599957,2.50000,2.50000
,,,-0.03871199861,2.48000,2.50000
,,,-0.03870800138,2.48000,2.50000
,,,-0.03870400041,2.50000,2.50000
,,,-0.03869999945,2.50000,2.50000
,,,-0.03869599849,2.48000,2.50000
,,,-0.03869200125,2.50000,2.48000
,,,-0.03868800029,2.48000,2.48000
,,,-0.03868399933,2.48000,2.48000
,,,-0.03867999837,2.50000,2.50000
,,,-0.03867600113,2.48000,2.50000
,,,-0.03867200017,2.48000,2.48000
,,,-0.03866799921,2.48000,2.48000
,,,-0.03866399825,2.48000,2.48000
,,,-0.03866000101,2.48000,2.50000
,,,-0.03865600005,2.48000,2.50000
,,,-0.03865199909,2.48000,2.48000
