Documentos/Otros_resultados/Pruebas A/TSC.CSV

Record Length,40000,,Source,CH1,CH2
Sample Interval,CH1:0.0001999999949 CH2:0.0001999999949,,Second,Volt,Volt
Vertical Units,CH1:V CH2:V,,-4.00000000000,0.66000,2.34000
Vertical Scale,CH1:0.50 CH2:0.50,,-3.99979996681,0.66000,2.34000
Vertical Offset,CH1:-1.50000 CH2:-1.50000,,-3.99959993362,0.68000,2.34000
Horizontal Units,s,,-3.99939990044,0.68000,2.34000
Horizontal Scale,0.5000000000,,-3.99919986725,0.66000,2.38000
Model Number,SDS1102CNL+,,-3.99899983406,0.68000,2.34000
Serial Number,SDS10BA3163724,,-3.99879980087,0.66000,2.34000
Software Version,6.01.01.17,,-3.99860000610,0.68000,2.34000
,,,-3.99839997292,0.68000,2.34000
,,,-3.99819993973,0.68000,2.34000
,,,-3.99799990654,0.66000,2.34000
,,,-3.99779987335,0.66000,2.34000
,,,-3.99759984016,0.68000,2.36000
,,,-3.99739980698,0.66000,2.34000
,,,-3.99720001221,0.66000,2.34000
,,,-3.99699997902,0.68000,2.34000
,,,-3.99679994583,0.66000,2.34000
,,,-3.99659991264,0.66000,2.34000
,,,-3.99639987946,0.66000,2.34000
,,,-3.99619984627,0.66000,2.34000
,,,-3.99599981308,0.68000,2.34000
,,,-3.99579977989,0.66000,2.34000
,,,-3.99559998512,0.66000,2.36000
,,,-3.99539995193,0.66000,2.34000
,,,-3.99519991875,0.66000,2.34000
,,,-3.99499988556,0.66000,2.34000
,,,-3.99479985237,0.66000,2.34000
,,,-3.99459981918,0.68000,2.34000
,,,-3.99439978600,0.66000,2.34000
,,,-3.99419999123,0.66000,2.34000
,,,-3.99399995804,0.66000,2.34000
,,,-3.99379992485,0.66000,2.34000
,,,-3.99359989166,0.68000,2.34000
,,,-3.99339985847,0.66000,2.34000
,,,-3.99319982529,0.66000,2.34000
,,,-3.99299979210,0.66000,2.34000
,,,-3.99279999733,0.66000,2.34000
,,,-3.99259996414,0.66000,2.34000
,,,-3.99239993095,0.68000,2.34000
,,,-3.99219989777,0.66000,2.34000
,,,-3.99199986458,0.66000,2.34000
,,,-3.99179983139,0.66000,2.34000
,,,-3.99159979820,0.66000,2.34000
,,,-3.99140000343,0.66000,2.34000
,,,-3.99119997025,0.66000,2.34000
,,,-3.99099993706,0.66000,2.34000
,,,-3.99079990387,0.66000,2.34000
,,,-3.99059987068,0.66000,2.34000
,,,-3.99039983749,0.66000,2.34000
,,,-3.99019980431,0.66000,2.34000
,,,-3.99000000954,0.66000,2.34000
,,,-3.98979997635,0.66000,2.34000
,,,-3.98959994316,0.66000,2.34000
,,,-3.98939990997,0.68000,2.34000
,,,-3.98919987679,0.68000,2.34000
,,,-3.98899984360,0.66000,2.34000
,,,-3.98879981041,0.66000,2.34000
,,,-3.98860001564,0.66000,2.34000
,,,-3.98839998245,0.68000,2.34000
,,,-3.98819994926,0.66000,2.34000
,,,-3.98799991608,0.66000,2.34000
,,,-3.98779988289,0.66000,2.34000
,,,-3.98759984970,0.68000,2.34000
,,,-3.98739981651,0.66000,2.34000
,,,-3.98719978333,0.66000,2.34000
,,,-3.98699998856,0.68000,2.34000
,,,-3.98679995537,0.66000,2.34000
,,,-3.98659992218,0.66000,2.34000
,,,-3.98639988899,0.66000,2.32000
,,,-3.98619985580,0.66000,2.34000
,,,-3.98599982262,0.68000,2.34000
,,,-3.98579978943,0.68000,2.34000
,,,-3.98559999466,0.66000,2.34000
,,,-3.98539996147,0.66000,2.34000
,,,-3.98519992828,0.68000,2.34000
,,,-3.98499989510,0.66000,2.34000
,,,-3.98479986191,0.66000,2.34000
,,,-3.98459982872,0.66000,2.34000
,,,-3.98439979553,0.66000,2.34000
,,,-3.98420000076,0.66000,2.34000
,,,-3.98399996758,0.66000,2.34000
,,,-3.98379993439,0.66000,2.34000
,,,-3.98359990120,0.66000,2.34000
,,,-3.98339986801,0.66000,2.34000
,,,-3.98319983482,0.66000,2.34000
,,,-3.98299980164,0.66000,2.34000
,,,-3.98280000687,0.66000,2.34000
,,,-3.98259997368,0.66000,2.34000
,,,-3.98239994049,0.66000,2.34000
,,,-3.98219990730,0.68000,2.34000
,,,-3.98199987411,0.66000,2.34000
,,,-3.98179984093,0.66000,2.34000
,,,-3.98159980774,0.66000,2.34000
,,,-3.98140001297,0.66000,2.34000
,,,-3.98119997978,0.66000,2.34000
,,,-3.98099994659,0.66000,2.34000
,,,-3.98079991341,0.66000,2.34000
,,,-3.98059988022,0.68000,2.34000
,,,-3.98039984703,0.66000,2.34000
,,,-3.98019981384,0.68000,2.34000
,,,-3.97999978065,0.66000,2.34000
,,,-3.97979998589,0.66000,2.34000
,,,-3.97959995270,0.66000,2.34000
,,,-3.97939991951,0.66000,2.34000
,,,-3.97919988632,0.66000,2.34000
,,,-3.97899985313,0.66000,2.34000
,,,-3.97879981995,0.68000,2.34000
,,,-3.97859978676,0.68000,2.34000
,,,-3.97839999199,0.66000,2.34000
,,,-3.97819995880,0.66000,2.34000
,,,-3.97799992561,0.66000,2.34000
,,,-3.97779989243,0.66000,2.34000
,,,-3.97759985924,0.66000,2.34000
,,,-3.97739982605,0.66000,2.34000
,,,-3.97719979286,0.66000,2.34000
,,,-3.97699999809,0.66000,2.34000
,,,-3.97679996490,0.68000,2.34000
,,,-3.97659993172,0.66000,2.34000
,,,-3.97639989853,0.66000,2.34000
,,,-3.97619986534,0.66000,2.34000
,,,-3.97599983215,0.66000,2.34000
,,,-3.97579979897,0.66000,2.34000
,,,-3.97560000420,0.66000,2.34000
,,,-3.97539997101,0.66000,2.34000
,,,-3.97519993782,0.66000,2.34000
,,,-3.97499990463,0.66000,2.34000
,,,-3.97479987144,0.66000,2.34000
,,,-3.97459983826,0.66000,2.36000
,,,-3.97439980507,0.68000,2.34000
,,,-3.97420001030,0.66000,2.34000
,,,-3.97399997711,0.66000,2.34000
,,,-3.97379994392,0.66000,2.34000
,,,-3.97359991074,0.66000,2.34000
,,,-3.97339987755,0.66000,2.34000
,,,-3.97319984436,0.68000,2.34000
,,,-3.97299981117,0.66000,2.34000
,,,-3.97280001640,0.66000,2.34000
,,,-3.97259998322,0.66000,2.34000
,,,-3.97239995003,0.66000,2.34000
,,,-3.97219991684,0.66000,2.34000
,,,-3.97199988365,0.66000,2.34000
,,,-3.97179985046,0.66000,2.34000
,,,-3.97159981728,0.68000,2.34000
,,,-3.97139978409,0.66000,2.34000
,,,-3.97119998932,0.66000,2.34000
,,,-3.97099995613,0.66000,2.34000
,,,-3.97079992294,0.66000,2.34000
,,,-3.97059988976,0.66000,2.34000
,,,-3.97039985657,0.66000,2.34000
,,,-3.97019982338,0.66000,2.34000
,,,-3.96999979019,2.64000,1.36000
,,,-3.96979999542,2.64000,1.36000
,,,-3.96959996223,2.64000,1.36000
,,,-3.96939992905,2.64000,1.36000
,,,-3.96919989586,2.64000,1.36000
,,,-3.96899986267,2.64000,1.36000
,,,-3.96879982948,2.64000,1.36000
,,,-3.96859979630,2.62000,1.36000
,,,-3.96840000153,2.64000,1.36000
,,,-3.96819996834,2.64000,1.38000
,,,-3.96799993515,2.64000,1.36000
,,,-3.96779990196,2.64000,1.36000
,,,-3.96759986877,2.64000,1.36000
,,,-3.96739983559,2.64000,1.36000
,,,-3.96719980240,2.64000,1.36000
,,,-3.96700000763,2.64000,1.36000
,,,-3.96679997444,2.64000,1.36000
,,,-3.96659994125,2.64000,1.36000
,,,-3.96639990807,2.64000,1.36000
,,,-3.96619987488,2.64000,1.36000
,,,-3.96599984169,2.64000,1.36000
,,,-3.96579980850,2.64000,1.36000
,,,-3.96560001373,2.62000,1.36000
,,,-3.96539998055,2.64000,1.38000
,,,-3.96519994736,2.64000,1.36000
,,,-3.96499991417,2.64000,1.36000
,,,-3.96479988098,2.64000,1.36000
,,,-3.96459984779,2.64000,1.36000
,,,-3.96439981461,2.64000,1.38000
,,,-3.96419978142,2.64000,1.36000
,,,-3.96399998665,2.64000,1.36000
,,,-3.96379995346,2.62000,1.38000
,,,-3.96359992027,2.64000,1.36000
,,,-3.96339988708,2.62000,1.36000
,,,-3.96319985390,2.64000,1.38000
,,,-3.96299982071,2.64000,1.36000
,,,-3.96279978752,2.64000,1.36000
,,,-3.96259999275,2.64000,1.36000
,,,-3.96239995956,2.62000,1.36000
,,,-3.96219992638,2.64000,1.38000
,,,-3.96199989319,2.64000,1.36000
,,,-3.96179986000,2.64000,1.38000
,,,-3.96159982681,2.64000,1.36000
,,,-3.96139979362,2.64000,1.36000
,,,-3.96119999886,2.64000,1.38000
,,,-3.96099996567,2.62000,1.38000
,,,-3.96079993248,2.64000,1.36000
,,,-3.96059989929,2.64000,1.36000
,,,-3.96039986610,2.64000,1.36000
,,,-3.96019983292,2.64000,1.38000
,,,-3.95999979973,0.50000,0.96000
,,,-3.95980000496,0.50000,0.98000
,,,-3.95959997177,0.50000,0.98000
,,,-3.95939993858,0.48000,0.98000
,,,-3.95919990540,0.48000,0.98000
,,,-3.95899987221,0.48000,0.98000
,,,-3.95879983902,0.50000,0.98000
,,,-3.95859980583,0.50000,0.98000
,,,-3.95840001106,0.50000,0.96000
,,,-3.95819997787,0.50000,0.96000
,,,-3.95799994469,0.50000,0.98000
,,,-3.95779991150,0.50000,0.98000
,,,-3.95759987831,0.48000,0.98000
,,,-3.95739984512,0.50000,0.98000
,,,-3.95719981194,0.48000,0.98000
,,,-3.95700001717,0.50000,0.98000
,,,-3.95679998398,0.50000,0.98000
,,,-3.95659995079,0.48000,0.98000
,,,-3.95639991760,0.48000,0.96000
,,,-3.95619988441,0.50000,0.96000
,,,-3.95599985123,0.50000,0.96000
,,,-3.95579981804,0.48000,0.98000
,,,-3.95559978485,0.50000,0.96000
,,,-3.95539999008,0.50000,0.96000
,,,-3.95519995689,0.48000,0.98000
,,,-3.95499992371,0.48000,0.96000
,,,-3.95479989052,0.50000,0.96000
,,,-3.95459985733,0.50000,0.96000
,,,-3.95439982414,0.48000,0.96000
,,,-3.95419979095,0.50000,0.98000
,,,-3.95399999619,0.50000,0.96000
,,,-3.95379996300,0.50000,0.98000
,,,-3.95359992981,0.50000,0.96000
,,,-3.95339989662,0.50000,0.96000
,,,-3.95319986343,0.50000,0.98000
,,,-3.95299983025,0.50000,0.98000
,,,-3.95279979706,0.50000,0.96000
,,,-3.95260000229,0.50000,0.98000
,,,-3.95239996910,0.50000,0.96000
,,,-3.95219993591,0.48000,0.98000
,,,-3.95199990273,0.50000,0.98000
,,,-3.95179986954,0.50000,0.96000
,,,-3.95159983635,0.50000,0.98000
,,,-3.95139980316,0.50000,0.98000
,,,-3.95120000839,0.50000,0.98000
,,,-3.95099997520,0.50000,0.96000
,,,-3.95079994202,0.50000,0.96000
,,,-3.95059990883,0.48000,0.98000
,,,-3.95039987564,0.50000,0.98000
,,,-3.95019984245,0.50000,0.96000
,,,-3.94999980927,0.48000,0.98000
,,,-3.94980001450,0.50000,0.98000
,,,-3.94959998131,0.50000,0.98000
,,,-3.94939994812,0.50000,0.96000
,,,-3.94919991493,0.48000,0.98000
,,,-3.94899988174,0.50000,0.96000
,,,-3.94879984856,0.48000,0.96000
,,,-3.94859981537,0.50000,0.98000
,,,-3.94839978218,0.50000,0.96000
,,,-3.94819998741,0.50000,0.96000
,,,-3.94799995422,0.50000,0.96000
,,,-3.94779992104,0.50000,0.96000
,,,-3.94759988785,0.50000,0.98000
,,,-3.94739985466,0.50000,0.98000
,,,-3.94719982147,0.50000,0.94000
,,,-3.94699978828,0.50000,0.96000
,,,-3.94679999352,0.50000,0.96000
,,,-3.94659996033,0.50000,0.98000
,,,-3.94639992714,0.50000,0.96000
,,,-3.94619989395,0.50000,0.98000
,,,-3.94599986076,0.48000,0.96000
,,,-3.94579982758,0.48000,0.98000
,,,-3.94559979439,0.50000,0.98000
,,,-3.94539999962,0.50000,0.96000
,,,-3.94519996643,0.50000,0.98000
,,,-3.94499993324,0.50000,0.96000
,,,-3.94479990005,0.50000,0.98000
,,,-3.94459986687,0.48000,0.96000
,,,-3.94439983368,0.50000,0.96000
,,,-3.94419980049,0.50000,0.96000
,,,-3.94400000572,0.48000,0.98000
,,,-3.94379997253,0.48000,0.98000
,,,-3.94359993935,0.50000,0.96000
,,,-3.94339990616,0.50000,0.98000
,,,-3.94319987297,0.50000,0.96000
,,,-3.94299983978,0.50000,0.96000
,,,-3.94279980659,0.50000,0.96000
,,,-3.94260001183,0.50000,0.96000
,,,-3.94239997864,0.50000,0.98000
,,,-3.94219994545,0.50000,0.96000
,,,-3.94199991226,0.50000,0.96000
,,,-3.94179987907,0.48000,0.96000
,,,-3.94159984589,0.50000,0.98000
,,,-3.94139981270,0.50000,0.96000
,,,-3.94120001793,0.50000,0.96000
,,,-3.94099998474,0.50000,0.96000
,,,-3.94079995155,0.50000,0.96000
,,,-3.94059991837,0.48000,0.98000
,,,-3.94039988518,0.50000,0.96000
,,,-3.94019985199,0.50000,0.96000
,,,-3.93999981880,0.50000,0.98000
,,,-3.93979978561,0.48000,0.98000
,,,-3.93959999084,0.50000,0.98000
,,,-3.93939995766,0.50000,0.96000
,,,-3.93919992447,0.48000,0.96000
,,,-3.93899989128,0.48000,0.96000
,,,-3.93879985809,0.50000,0.96000
,,,-3.93859982491,0.50000,0.96000
,,,-3.93839979172,0.50000,0.96000
,,,-3.93819999695,0.48000,0.94000
,,,-3.93799996376,0.50000,0.98000
,,,-3.93779993057,0.50000,0.96000
,,,-3.93759989738,0.50000,0.96000
,,,-3.93739986420,0.50000,0.96000
,,,-3.93719983101,0.52000,0.96000
,,,-3.93699979782,0.50000,0.96000
,,,-3.93680000305,0.50000,0.94000
,,,-3.93659996986,0.50000,0.96000
,,,-3.93639993668,0.50000,0.96000
,,,-3.93619990349,0.50000,0.96000
,,,-3.93599987030,0.50000,0.96000
,,,-3.93579983711,0.52000,0.96000
,,,-3.93559980392,0.52000,0.96000
,,,-3.93540000916,0.50000,0.96000
,,,-3.93519997597,0.52000,0.96000
,,,-3.93499994278,0.50000,0.96000
,,,-3.93479990959,0.50000,0.96000
,,,-3.93459987640,0.50000,0.96000
,,,-3.93439984322,0.50000,0.96000
,,,-3.93419981003,0.50000,0.96000
,,,-3.93400001526,0.52000,0.94000
,,,-3.93379998207,0.52000,0.96000
,,,-3.93359994888,0.52000,0.96000
,,,-3.93339991570,0.52000,0.96000
,,,-3.93319988251,0.50000,0.96000
,,,-3.93299984932,0.50000,0.96000
,,,-3.93279981613,0.50000,0.96000
,,,-3.93259978294,0.50000,0.94000
,,,-3.93239998817,0.50000,0.96000
,,,-3.93219995499,0.50000,0.96000
,,,-3.93199992180,0.52000,0.96000
,,,-3.93179988861,0.52000,0.96000
,,,-3.93159985542,0.50000,0.94000
,,,-3.93139982224,0.50000,0.96000
,,,-3.93119978905,0.52000,0.96000
,,,-3.93099999428,0.50000,0.96000
,,,-3.93079996109,0.52000,0.94000
,,,-3.93059992790,0.50000,0.94000
,,,-3.93039989471,0.52000,0.96000
,,,-3.93019986153,0.52000,0.94000
,,,-3.92999982834,0.52000,0.94000
,,,-3.92979979515,0.50000,0.94000
,,,-3.92960000038,0.50000,0.96000
,,,-3.92939996719,0.50000,0.96000
,,,-3.92919993401,0.50000,0.96000
,,,-3.92899990082,0.52000,0.96000
,,,-3.92879986763,0.52000,0.96000
,,,-3.92859983444,0.50000,0.96000
,,,-3.92839980125,0.50000,0.96000
,,,-3.92820000648,0.50000,0.94000
,,,-3.92799997330,0.50000,0.96000
,,,-3.92779994011,0.50000,0.96000
,,,-3.92759990692,0.50000,0.96000
,,,-3.92739987373,0.50000,0.96000
,,,-3.92719984055,0.50000,0.94000
,,,-3.92699980736,0.50000,0.96000
,,,-3.92680001259,0.50000,0.98000
,,,-3.92659997940,0.52000,0.96000
,,,-3.92639994621,0.52000,0.94000
,,,-3.92619991302,0.50000,0.94000
,,,-3.92599987984,0.50000,0.94000
,,,-3.92579984665,0.50000,0.96000
,,,-3.92559981346,0.50000,0.96000
,,,-3.92540001869,0.50000,0.96000
,,,-3.92519998550,0.52000,0.94000
,,,-3.92499995232,0.50000,0.94000
,,,-3.92479991913,0.52000,0.94000
,,,-3.92459988594,0.50000,0.94000
,,,-3.92439985275,0.50000,0.96000
,,,-3.92419981956,0.52000,0.94000
,,,-3.92399978638,0.50000,0.94000
,,,-3.92379999161,0.52000,0.94000
,,,-3.92359995842,0.52000,0.94000
,,,-3.92339992523,0.50000,0.94000
,,,-3.92319989204,0.52000,0.96000
,,,-3.92299985886,0.52000,0.94000
,,,-3.92279982567,0.52000,0.94000
,,,-3.92259979248,0.50000,0.96000
,,,-3.92239999771,0.50000,0.94000
,,,-3.92219996452,0.50000,0.94000
,,,-3.92199993134,0.50000,0.94000
,,,-3.92179989815,0.52000,0.94000
,,,-3.92159986496,0.50000,0.94000
,,,-3.92139983177,0.50000,0.94000
,,,-3.92119979858,0.50000,0.94000
,,,-3.92100000381,0.50000,0.94000
,,,-3.92079997063,0.50000,0.94000
,,,-3.92059993744,0.50000,0.96000
,,,-3.92039990425,0.52000,0.94000
,,,-3.92019987106,0.52000,0.94000
,,,-3.91999983788,0.52000,0.94000
,,,-3.91979980469,0.52000,0.94000
,,,-3.91960000992,0.52000,0.96000
,,,-3.91939997673,0.52000,0.94000
,,,-3.91919994354,0.52000,0.94000
,,,-3.91899991035,0.52000,0.96000
,,,-3.91879987717,0.50000,0.94000
,,,-3.91859984398,0.50000,0.94000
,,,-3.91839981079,0.50000,0.94000
,,,-3.91820001602,0.50000,0.94000
,,,-3.91799998283,0.50000,0.94000
,,,-3.91779994965,0.52000,0.96000
,,,-3.91759991646,0.52000,0.94000
,,,-3.91739988327,0.52000,0.94000
,,,-3.91719985008,0.50000,0.94000
,,,-3.91699981689,0.50000,0.94000
,,,-3.91679978371,0.50000,0.96000
,,,-3.91659998894,0.50000,0.94000
,,,-3.91639995575,0.52000,0.94000
,,,-3.91619992256,0.50000,0.96000
,,,-3.91599988937,0.52000,0.94000
,,,-3.91579985619,0.50000,0.94000
,,,-3.91559982300,0.52000,0.96000
,,,-3.91539978981,0.50000,0.94000
,,,-3.91519999504,0.52000,0.94000
,,,-3.91499996185,0.54000,0.96000
,,,-3.91479992867,0.52000,0.94000
,,,-3.91459989548,0.52000,0.94000
,,,-3.91439986229,0.50000,0.94000
,,,-3.91419982910,0.52000,0.94000
,,,-3.91399979591,0.52000,0.94000
,,,-3.91380000114,0.50000,0.94000
,,,-3.91359996796,0.52000,0.94000
,,,-3.91339993477,0.50000,0.94000
,,,-3.91319990158,0.52000,0.94000
,,,-3.91299986839,0.50000,0.94000
,,,-3.91279983521,0.52000,0.94000
,,,-3.91259980202,0.52000,0.94000
,,,-3.91240000725,0.52000,0.94000
,,,-3.91219997406,0.52000,0.94000
,,,-3.91199994087,0.52000,0.94000
,,,-3.91179990768,0.52000,0.96000
,,,-3.91159987450,0.52000,0.94000
,,,-3.91139984131,0.52000,0.94000
,,,-3.91119980812,0.50000,0.96000
,,,-3.91100001335,0.52000,0.94000
,,,-3.91079998016,0.52000,0.94000
,,,-3.91059994698,0.52000,0.94000
,,,-3.91039991379,0.52000,0.94000
,,,-3.91019988060,0.50000,0.96000
,,,-3.90999984741,0.52000,0.94000
,,,-3.90979981422,0.52000,0.94000
,,,-3.90960001945,0.50000,0.94000
,,,-3.90939998627,0.52000,0.94000
,,,-3.90919995308,0.50000,0.96000
,,,-3.90899991989,0.52000,0.96000
,,,-3.90879988670,0.52000,0.94000
,,,-3.90859985352,0.50000,0.94000
,,,-3.90839982033,0.52000,0.94000
,,,-3.90819978714,0.50000,0.94000
,,,-3.90799999237,0.52000,0.94000
,,,-3.90779995918,0.50000,0.94000
,,,-3.90759992599,0.52000,0.94000
,,,-3.90739989281,0.52000,0.94000
,,,-3.90719985962,0.52000,0.94000
,,,-3.90699982643,0.52000,0.94000
,,,-3.90679979324,0.52000,0.94000
,,,-3.90659999847,0.52000,0.94000
,,,-3.90639996529,0.50000,0.94000
,,,-3.90619993210,0.52000,0.94000
,,,-3.90599989891,0.52000,0.94000
,,,-3.90579986572,0.50000,0.94000
,,,-3.90559983253,0.50000,0.94000
,,,-3.90539979935,0.54000,0.92000
,,,-3.90520000458,0.50000,0.94000
,,,-3.90499997139,0.52000,0.94000
,,,-3.90479993820,0.52000,0.94000
,,,-3.90459990501,0.52000,0.94000
,,,-3.90439987183,0.52000,0.94000
,,,-3.90419983864,0.50000,0.94000
,,,-3.90399980545,0.52000,0.94000
,,,-3.90380001068,0.52000,0.94000
,,,-3.90359997749,0.52000,0.96000
,,,-3.90339994431,0.52000,0.94000
,,,-3.90319991112,0.54000,0.94000
,,,-3.90299987793,0.52000,0.94000
,,,-3.90279984474,0.50000,0.92000
,,,-3.90259981155,0.52000,0.94000
,,,-3.90240001678,0.52000,0.94000
,,,-3.90219998360,0.50000,0.92000
,,,-3.90199995041,0.52000,0.94000
,,,-3.90179991722,0.52000,0.94000
,,,-3.90159988403,0.52000,0.94000
,,,-3.90139985085,0.52000,0.94000
,,,-3.90119981766,0.52000,0.94000
,,,-3.90099978447,0.52000,0.94000
,,,-3.90079998970,0.50000,0.94000
,,,-3.90059995651,0.50000,0.94000
,,,-3.90039992332,0.52000,0.94000
,,,-3.90019989014,0.52000,0.94000
,,,-3.89999985695,0.52000,0.94000
,,,-3.89979982376,0.50000,0.94000
,,,-3.89959979057,0.52000,0.94000
,,,-3.89939999580,0.52000,0.94000
,,,-3.89919996262,0.50000,0.94000
,,,-3.89899992943,0.50000,0.92000
,,,-3.89879989624,0.50000,0.94000
,,,-3.89859986305,0.50000,0.92000
,,,-3.89839982986,0.50000,0.94000
,,,-3.89819979668,0.52000,0.94000
,,,-3.89800000191,0.52000,0.94000
,,,-3.89779996872,0.52000,0.96000
,,,-3.89759993553,0.52000,0.94000
,,,-3.89739990234,0.52000,0.94000
,,,-3.89719986916,0.50000,0.94000
,,,-3.89699983597,0.52000,0.94000
,,,-3.89679980278,0.52000,0.94000
,,,-3.89660000801,0.52000,0.92000
,,,-3.89639997482,0.54000,0.90000
,,,-3.89619994164,0.54000,0.94000
,,,-3.89599990845,0.52000,0.94000
,,,-3.89579987526,0.52000,0.94000
,,,-3.89559984207,0.52000,0.94000
,,,-3.89539980888,0.52000,0.94000
,,,-3.89520001411,0.52000,0.94000
,,,-3.89499998093,0.52000,0.92000
,,,-3.89479994774,0.52000,0.94000
,,,-3.89459991455,0.52000,0.92000
,,,-3.89439988136,0.52000,0.92000
,,,-3.89419984818,0.52000,0.92000
,,,-3.89399981499,0.52000,0.94000
,,,-3.89380002022,0.52000,0.94000
,,,-3.89359998703,0.52000,0.90000
,,,-3.89339995384,0.52000,0.94000
,,,-3.89319992065,0.52000,0.90000
,,,-3.89299988747,0.52000,0.92000
,,,-3.89279985428,0.52000,0.92000
,,,-3.89259982109,0.50000,0.94000
,,,-3.89239978790,0.52000,0.94000
,,,-3.89219999313,0.52000,0.94000
,,,-3.89199995995,0.52000,0.90000
,,,-3.89179992676,0.54000,0.94000
,,,-3.89159989357,0.52000,0.92000
,,,-3.89139986038,0.50000,0.94000
,,,-3.89119982719,0.52000,0.90000
,,,-3.89099979401,0.52000,0.90000
,,,-3.89079999924,0.52000,0.90000
,,,-3.89059996605,0.52000,0.94000
,,,-3.89039993286,0.52000,0.94000
,,,-3.89019989967,0.52000,0.94000
,,,-3.88999986649,0.52000,0.90000
,,,-3.88979983330,0.52000,0.94000
,,,-3.88959980011,0.52000,0.90000
,,,-3.88940000534,0.54000,0.94000
,,,-3.88919997215,0.52000,0.90000
,,,-3.88899993896,0.52000,0.92000
,,,-3.88879990578,0.52000,0.94000
,,,-3.88859987259,0.52000,0.92000
,,,-3.88839983940,0.54000,0.94000
,,,-3.88819980621,0.52000,0.92000
,,,-3.88800001144,0.52000,0.92000
,,,-3.88779997826,0.52000,0.94000
,,,-3.88759994507,0.50000,0.94000
,,,-3.88739991188,0.52000,0.90000
,,,-3.88719987869,0.52000,0.92000
,,,-3.88699984550,0.52000,0.90000
,,,-3.88679981232,0.50000,0.94000
,,,-3.88660001755,0.54000,0.90000
,,,-3.88639998436,0.52000,0.94000
,,,-3.88619995117,0.52000,0.90000
,,,-3.88599991798,0.52000,0.90000
,,,-3.88579988480,0.52000,0.94000
,,,-3.88559985161,0.52000,0.92000
,,,-3.88539981842,0.52000,0.94000
,,,-3.88519978523,0.52000,0.92000
,,,-3.88499999046,0.52000,0.94000
,,,-3.88479995728,0.52000,0.94000
,,,-3.88459992409,0.52000,0.90000
