Documentos/Otros_resultados/Pruebas B/T1.CSV

Record Length,8000,,Source,CH1,CH2
Sample Interval,CH1:0.0000020000000 CH2:0.0000020000000,,Second,Volt,Volt
Vertical Units,CH1:V CH2:V,, 0.01200000010,0.58000,1.24000
Vertical Scale,CH1:0.50 CH2:0.50,, 0.01200199965,0.58000,1.24000
Vertical Offset,CH1:-1.00000 CH2:-1.00000,, 0.01200400013,0.60000,1.24000
Horizontal Units,s,, 0.01200599968,0.58000,1.24000
Horizontal Scale,0.0010000000,, 0.01200800017,0.58000,1.26000
Model Number,SDS1102CNL+,, 0.01200999971,0.58000,1.28000
Serial Number,SDS10BA3163724,, 0.01201200020,0.58000,1.26000
Software Version,6.01.01.17,, 0.01201399975,0.58000,1.26000
,,, 0.01201600023,0.58000,1.28000
,,, 0.01201799978,0.58000,1.26000
,,, 0.01202000026,0.58000,1.28000
,,, 0.01202199981,0.60000,1.28000
,,, 0.01202400029,0.58000,1.28000
,,, 0.01202599984,0.60000,1.28000
,,, 0.01202800032,0.60000,1.28000
,,, 0.01202999987,0.58000,1.28000
,,, 0.01203200035,0.58000,1.28000
,,, 0.01203399990,0.60000,1.28000
,,, 0.01203600038,0.60000,1.32000
,,, 0.01203799993,0.58000,1.32000
,,, 0.01204000041,0.58000,1.32000
,,, 0.01204199996,0.60000,1.32000
,,, 0.01204399951,0.58000,1.32000
,,, 0.01204599999,0.58000,1.32000
,,, 0.01204799954,0.58000,1.32000
,,, 0.01205000002,0.58000,1.32000
,,, 0.01205199957,0.60000,1.32000
,,, 0.01205400005,0.58000,1.34000
,,, 0.01205599960,0.58000,1.32000
,,, 0.01205800008,0.58000,1.32000
,,, 0.01205999963,0.58000,1.32000
,,, 0.01206200011,0.60000,1.34000
,,, 0.01206399966,0.58000,1.34000
,,, 0.01206600014,0.56000,1.34000
,,, 0.01206799969,0.58000,1.36000
,,, 0.01207000017,0.58000,1.34000
,,, 0.01207199972,0.58000,1.36000
,,, 0.01207400020,0.58000,1.34000
,,, 0.01207599975,0.58000,1.36000
,,, 0.01207800023,0.58000,1.36000
,,, 0.01207999978,0.58000,1.36000
,,, 0.01208200026,0.60000,1.36000
,,, 0.01208399981,0.58000,1.36000
,,, 0.01208600029,0.58000,1.36000
,,, 0.01208799984,0.58000,1.36000
,,, 0.01209000032,0.58000,1.36000
,,, 0.01209199987,0.58000,1.40000
,,, 0.01209400035,0.60000,1.38000
,,, 0.01209599990,0.58000,1.38000
,,, 0.01209800038,0.58000,1.40000
,,, 0.01209999993,0.58000,1.40000
,,, 0.01210200042,0.58000,1.40000
,,, 0.01210399996,0.60000,1.40000
,,, 0.01210599951,0.58000,1.40000
,,, 0.01210800000,0.60000,1.40000
,,, 0.01210999954,0.58000,1.40000
,,, 0.01211200003,0.58000,1.40000
,,, 0.01211399958,0.58000,1.42000
,,, 0.01211600006,0.58000,1.42000
,,, 0.01211799961,0.58000,1.42000
,,, 0.01212000009,0.58000,1.42000
,,, 0.01212199964,0.58000,1.40000
,,, 0.01212400012,0.58000,1.44000
,,, 0.01212599967,0.60000,1.42000
,,, 0.01212800015,0.60000,1.42000
,,, 0.01212999970,0.60000,1.44000
,,, 0.01213200018,0.58000,1.42000
,,, 0.01213399973,0.60000,1.42000
,,, 0.01213600021,0.58000,1.44000
,,, 0.01213799976,0.60000,1.44000
,,, 0.01214000024,0.60000,1.44000
,,, 0.01214199979,0.60000,1.44000
,,, 0.01214400027,0.60000,1.46000
,,, 0.01214599982,0.58000,1.46000
,,, 0.01214800030,0.60000,1.44000
,,, 0.01214999985,0.60000,1.44000
,,, 0.01215200033,0.60000,1.48000
,,, 0.01215399988,0.58000,1.44000
,,, 0.01215600036,0.58000,1.48000
,,, 0.01215799991,0.58000,1.48000
,,, 0.01216000039,0.58000,1.48000
,,, 0.01216199994,0.60000,1.48000
,,, 0.01216400042,0.60000,1.48000
,,, 0.01216599997,0.60000,1.48000
,,, 0.01216799952,0.60000,1.48000
,,, 0.01217000000,0.60000,1.48000
,,, 0.01217199955,0.60000,1.48000
,,, 0.01217400003,0.60000,1.48000
,,, 0.01217599958,0.62000,1.50000
,,, 0.01217800006,0.60000,1.50000
,,, 0.01217999961,0.60000,1.50000
,,, 0.01218200009,0.60000,1.50000
,,, 0.01218399964,0.60000,1.50000
,,, 0.01218600012,0.60000,1.52000
,,, 0.01218799967,0.60000,1.50000
,,, 0.01219000015,0.60000,1.52000
,,, 0.01219199970,0.60000,1.52000
,,, 0.01219400018,0.60000,1.52000
,,, 0.01219599973,0.60000,1.52000
,,, 0.01219800021,0.60000,1.52000
,,, 0.01219999976,0.60000,1.52000
,,, 0.01220200025,0.62000,1.52000
,,, 0.01220399980,0.60000,1.52000
,,, 0.01220600028,0.60000,1.52000
,,, 0.01220799983,0.60000,1.54000
,,, 0.01221000031,0.60000,1.56000
,,, 0.01221199986,0.62000,1.52000
,,, 0.01221400034,0.62000,1.52000
,,, 0.01221599989,0.62000,1.56000
,,, 0.01221800037,0.62000,1.56000
,,, 0.01221999992,0.60000,1.56000
,,, 0.01222200040,0.62000,1.56000
,,, 0.01222399995,0.62000,1.56000
,,, 0.01222600043,0.62000,1.56000
,,, 0.01222799998,0.62000,1.56000
,,, 0.01222999953,0.62000,1.56000
,,, 0.01223200001,0.60000,1.60000
,,, 0.01223399956,0.62000,1.58000
,,, 0.01223600004,0.62000,1.60000
,,, 0.01223799959,0.62000,1.58000
,,, 0.01224000007,0.62000,1.60000
,,, 0.01224199962,0.62000,1.60000
,,, 0.01224400010,0.62000,1.60000
,,, 0.01224599965,0.64000,1.60000
,,, 0.01224800013,0.64000,1.60000
,,, 0.01224999968,0.64000,1.60000
,,, 0.01225200016,0.62000,1.60000
,,, 0.01225399971,0.64000,1.62000
,,, 0.01225600019,0.62000,1.62000
,,, 0.01225799974,0.62000,1.64000
,,, 0.01226000022,0.62000,1.64000
,,, 0.01226199977,0.64000,1.64000
,,, 0.01226400025,0.62000,1.64000
,,, 0.01226599980,0.64000,1.64000
,,, 0.01226800028,0.62000,1.64000
,,, 0.01226999983,0.64000,1.64000
,,, 0.01227200031,0.64000,1.64000
,,, 0.01227399986,0.66000,1.64000
,,, 0.01227600034,0.62000,1.64000
,,, 0.01227799989,0.64000,1.64000
,,, 0.01228000037,0.62000,1.66000
,,, 0.01228199992,0.64000,1.66000
,,, 0.01228400040,0.64000,1.64000
,,, 0.01228599995,0.64000,1.64000
,,, 0.01228800043,0.64000,1.64000
,,, 0.01228999998,0.64000,1.66000
,,, 0.01229199953,0.64000,1.66000
,,, 0.01229400001,0.66000,1.66000
,,, 0.01229599956,0.66000,1.68000
,,, 0.01229800005,0.64000,1.68000
,,, 0.01229999959,0.66000,1.68000
,,, 0.01230200008,0.66000,1.68000
,,, 0.01230399963,0.66000,1.68000
,,, 0.01230600011,0.64000,1.68000
,,, 0.01230799966,0.66000,1.68000
,,, 0.01231000014,0.66000,1.68000
,,, 0.01231199969,0.66000,1.68000
,,, 0.01231400017,0.66000,1.68000
,,, 0.01231599972,0.66000,1.70000
,,, 0.01231800020,0.66000,1.72000
,,, 0.01231999975,0.66000,1.72000
,,, 0.01232200023,0.64000,1.72000
,,, 0.01232399978,0.66000,1.70000
,,, 0.01232600026,0.66000,1.72000
,,, 0.01232799981,0.68000,1.72000
,,, 0.01233000029,0.66000,1.72000
,,, 0.01233199984,0.66000,1.72000
,,, 0.01233400032,0.66000,1.72000
,,, 0.01233599987,0.66000,1.74000
,,, 0.01233800035,0.66000,1.72000
,,, 0.01233999990,0.66000,1.72000
,,, 0.01234200038,0.66000,1.72000
,,, 0.01234399993,0.66000,1.74000
,,, 0.01234600041,0.66000,1.74000
,,, 0.01234799996,0.68000,1.74000
,,, 0.01234999951,0.68000,1.74000
,,, 0.01235199999,0.66000,1.76000
,,, 0.01235399954,0.68000,1.74000
,,, 0.01235600002,0.68000,1.76000
,,, 0.01235799957,0.68000,1.76000
,,, 0.01236000005,0.68000,1.76000
,,, 0.01236199960,0.68000,1.76000
,,, 0.01236400008,0.68000,1.76000
,,, 0.01236599963,0.68000,1.76000
,,, 0.01236800011,0.68000,1.76000
,,, 0.01236999966,0.70000,1.76000
,,, 0.01237200014,0.68000,1.78000
,,, 0.01237399969,0.68000,1.80000
,,, 0.01237600017,0.70000,1.80000
,,, 0.01237799972,0.68000,1.80000
,,, 0.01238000020,0.68000,1.76000
,,, 0.01238199975,0.68000,1.80000
,,, 0.01238400023,0.68000,1.80000
,,, 0.01238599978,0.72000,1.80000
,,, 0.01238800026,0.68000,1.80000
,,, 0.01238999981,0.70000,1.80000
,,, 0.01239200030,0.70000,1.80000
,,, 0.01239399984,0.70000,1.80000
,,, 0.01239600033,0.70000,1.82000
,,, 0.01239799988,0.72000,1.82000
,,, 0.01240000036,0.70000,1.84000
,,, 0.01240199991,0.70000,1.84000
,,, 0.01240400039,0.72000,1.82000
,,, 0.01240599994,0.70000,1.82000
,,, 0.01240800042,0.72000,1.84000
,,, 0.01240999997,0.72000,1.82000
,,, 0.01241199952,0.72000,1.82000
,,, 0.01241400000,0.72000,1.82000
,,, 0.01241599955,0.72000,1.84000
,,, 0.01241800003,0.72000,1.84000
,,, 0.01241999958,0.72000,1.84000
,,, 0.01242200006,0.72000,1.84000
,,, 0.01242399961,0.72000,1.84000
,,, 0.01242600009,0.74000,1.84000
,,, 0.01242799964,0.74000,1.84000
,,, 0.01243000012,0.72000,1.84000
,,, 0.01243199967,0.72000,1.84000
,,, 0.01243400015,0.72000,1.84000
,,, 0.01243599970,0.74000,1.88000
,,, 0.01243800018,0.74000,1.88000
,,, 0.01243999973,0.74000,1.88000
,,, 0.01244200021,0.74000,1.88000
,,, 0.01244399976,0.74000,1.88000
,,, 0.01244600024,0.74000,1.88000
,,, 0.01244799979,0.72000,1.88000
,,, 0.01245000027,0.74000,1.90000
,,, 0.01245199982,0.74000,1.88000
,,, 0.01245400030,0.74000,1.88000
,,, 0.01245599985,0.74000,1.90000
,,, 0.01245800033,0.74000,1.88000
,,, 0.01245999988,0.74000,1.90000
,,, 0.01246200036,0.76000,1.88000
,,, 0.01246399991,0.76000,1.90000
,,, 0.01246600039,0.74000,1.88000
,,, 0.01246799994,0.76000,1.90000
,,, 0.01247000042,0.76000,1.88000
,,, 0.01247199997,0.76000,1.92000
,,, 0.01247399952,0.76000,1.92000
,,, 0.01247600000,0.76000,1.92000
,,, 0.01247799955,0.76000,1.92000
,,, 0.01248000003,0.76000,1.92000
,,, 0.01248199958,0.78000,1.90000
,,, 0.01248400006,0.76000,1.92000
,,, 0.01248599961,0.76000,1.92000
,,, 0.01248800009,0.76000,1.94000
,,, 0.01248999964,0.78000,1.92000
,,, 0.01249200013,0.78000,1.92000
,,, 0.01249399967,0.78000,1.92000
,,, 0.01249600016,0.78000,1.92000
,,, 0.01249799971,0.78000,1.92000
,,, 0.01250000019,0.78000,1.96000
,,, 0.01250199974,0.78000,1.96000
,,, 0.01250400022,0.78000,1.96000
,,, 0.01250599977,0.78000,1.96000
,,, 0.01250800025,0.80000,1.96000
,,, 0.01250999980,0.80000,1.96000
,,, 0.01251200028,0.80000,1.96000
,,, 0.01251399983,0.80000,1.96000
,,, 0.01251600031,0.80000,1.96000
,,, 0.01251799986,0.78000,1.96000
,,, 0.01252000034,0.80000,1.96000
,,, 0.01252199989,0.80000,1.96000
,,, 0.01252400037,0.78000,1.96000
,,, 0.01252599992,0.80000,1.98000
,,, 0.01252800040,0.82000,1.98000
,,, 0.01252999995,0.80000,1.98000
,,, 0.01253200043,0.82000,1.98000
,,, 0.01253399998,0.84000,1.98000
,,, 0.01253599953,0.84000,1.98000
,,, 0.01253800001,0.84000,1.98000
,,, 0.01253999956,0.84000,1.98000
,,, 0.01254200004,0.84000,2.00000
,,, 0.01254399959,0.82000,2.00000
,,, 0.01254600007,0.82000,2.00000
,,, 0.01254799962,0.84000,2.00000
,,, 0.01255000010,0.84000,2.00000
,,, 0.01255199965,0.84000,2.00000
,,, 0.01255400013,0.84000,2.00000
,,, 0.01255599968,0.84000,2.00000
,,, 0.01255800016,0.84000,2.00000
,,, 0.01255999971,0.86000,2.00000
,,, 0.01256200019,0.84000,2.00000
,,, 0.01256399974,0.84000,2.02000
,,, 0.01256600022,0.84000,2.04000
,,, 0.01256799977,0.84000,2.04000
,,, 0.01257000025,0.84000,2.04000
,,, 0.01257199980,0.86000,2.04000
,,, 0.01257400028,0.84000,2.04000
,,, 0.01257599983,0.86000,2.04000
,,, 0.01257800031,0.88000,2.04000
,,, 0.01257999986,0.88000,2.04000
,,, 0.01258200034,0.88000,2.06000
,,, 0.01258399989,0.86000,2.04000
,,, 0.01258600038,0.88000,2.04000
,,, 0.01258799993,0.88000,2.04000
,,, 0.01259000041,0.88000,2.06000
,,, 0.01259199996,0.88000,2.06000
,,, 0.01259399951,0.88000,2.04000
,,, 0.01259599999,0.88000,2.06000
,,, 0.01259799954,0.88000,2.06000
,,, 0.01260000002,0.88000,2.06000
,,, 0.01260199957,0.88000,2.06000
,,, 0.01260400005,0.90000,2.06000
,,, 0.01260599960,0.88000,2.06000
,,, 0.01260800008,0.90000,2.08000
,,, 0.01260999963,0.90000,2.08000
,,, 0.01261200011,0.90000,2.08000
,,, 0.01261399966,0.90000,2.06000
,,, 0.01261600014,0.90000,2.08000
,,, 0.01261799969,0.90000,2.08000
,,, 0.01262000017,0.90000,2.10000
,,, 0.01262199972,0.90000,2.08000
,,, 0.01262400020,0.92000,2.12000
,,, 0.01262599975,0.92000,2.08000
,,, 0.01262800023,0.92000,2.08000
,,, 0.01262999978,0.92000,2.08000
,,, 0.01263200026,0.92000,2.10000
,,, 0.01263399981,0.92000,2.12000
,,, 0.01263600029,0.94000,2.12000
,,, 0.01263799984,0.90000,2.12000
,,, 0.01264000032,0.92000,2.12000
,,, 0.01264199987,0.92000,2.12000
,,, 0.01264400035,0.92000,2.12000
,,, 0.01264599990,0.92000,2.12000
,,, 0.01264800038,0.92000,2.12000
,,, 0.01264999993,0.96000,2.12000
,,, 0.01265200041,0.94000,2.12000
,,, 0.01265399996,0.96000,2.12000
,,, 0.01265599951,0.94000,2.12000
,,, 0.01265799999,0.94000,2.14000
,,, 0.01265999954,0.98000,2.12000
,,, 0.01266200002,0.96000,2.12000
,,, 0.01266399957,0.98000,2.14000
,,, 0.01266600005,0.96000,2.14000
,,, 0.01266799960,0.96000,2.14000
,,, 0.01267000008,0.96000,2.14000
,,, 0.01267199963,0.96000,2.14000
,,, 0.01267400011,0.96000,2.14000
,,, 0.01267599966,0.98000,2.14000
,,, 0.01267800014,0.96000,2.16000
,,, 0.01267999969,0.98000,2.16000
,,, 0.01268200018,0.96000,2.16000
,,, 0.01268399972,0.98000,2.14000
,,, 0.01268600021,0.98000,2.16000
,,, 0.01268799976,0.98000,2.14000
,,, 0.01269000024,0.98000,2.16000
,,, 0.01269199979,0.98000,2.16000
,,, 0.01269400027,0.98000,2.16000
,,, 0.01269599982,0.98000,2.16000
,,, 0.01269800030,1.00000,2.16000
,,, 0.01269999985,1.00000,2.16000
,,, 0.01270200033,1.00000,2.16000
,,, 0.01270399988,1.00000,2.16000
,,, 0.01270600036,1.00000,2.16000
,,, 0.01270799991,1.00000,2.16000
,,, 0.01271000039,1.00000,2.16000
,,, 0.01271199994,0.98000,2.20000
,,, 0.01271400042,1.00000,2.20000
,,, 0.01271599997,1.00000,2.18000
,,, 0.01271799952,1.02000,2.16000
,,, 0.01272000000,1.00000,2.20000
,,, 0.01272199955,1.00000,2.20000
,,, 0.01272400003,1.00000,2.20000
,,, 0.01272599958,1.04000,2.20000
,,, 0.01272800006,1.02000,2.20000
,,, 0.01272999961,1.04000,2.20000
,,, 0.01273200009,1.04000,2.20000
,,, 0.01273399964,1.02000,2.20000
,,, 0.01273600012,1.04000,2.20000
,,, 0.01273799967,1.04000,2.20000
,,, 0.01274000015,1.04000,2.20000
,,, 0.01274199970,1.04000,2.20000
,,, 0.01274400018,1.04000,2.22000
,,, 0.01274599973,1.04000,2.22000
,,, 0.01274800021,1.04000,2.22000
,,, 0.01274999976,1.06000,2.22000
,,, 0.01275200024,1.06000,2.22000
,,, 0.01275399979,1.06000,2.22000
,,, 0.01275600027,1.06000,2.24000
,,, 0.01275799982,1.06000,2.22000
,,, 0.01276000030,1.06000,2.22000
,,, 0.01276199985,1.06000,2.22000
,,, 0.01276400033,1.06000,2.24000
,,, 0.01276599988,1.08000,2.24000
,,, 0.01276800036,1.08000,2.22000
,,, 0.01276999991,1.06000,2.24000
,,, 0.01277200039,1.08000,2.24000
,,, 0.01277399994,1.08000,2.26000
,,, 0.01277600043,1.08000,2.24000
,,, 0.01277799997,1.08000,2.24000
,,, 0.01277999952,1.08000,2.24000
,,, 0.01278200001,1.10000,2.24000
,,, 0.01278399955,1.08000,2.24000
,,, 0.01278600004,1.08000,2.24000
,,, 0.01278799959,1.10000,2.24000
,,, 0.01279000007,1.10000,2.24000
,,, 0.01279199962,1.10000,2.24000
,,, 0.01279400010,1.10000,2.24000
,,, 0.01279599965,1.10000,2.26000
,,, 0.01279800013,1.12000,2.28000
,,, 0.01279999968,1.12000,2.24000
,,, 0.01280200016,1.12000,2.28000
,,, 0.01280399971,1.12000,2.28000
,,, 0.01280600019,1.12000,2.28000
,,, 0.01280799974,1.12000,2.28000
,,, 0.01281000022,1.12000,2.28000
,,, 0.01281199977,1.12000,2.28000
,,, 0.01281400025,1.12000,2.28000
,,, 0.01281599980,1.14000,2.28000
,,, 0.01281800028,1.12000,2.28000
,,, 0.01281999983,1.12000,2.28000
,,, 0.01282200031,1.14000,2.28000
,,, 0.01282399986,1.14000,2.28000
,,, 0.01282600034,1.14000,2.28000
,,, 0.01282799989,1.14000,2.28000
,,, 0.01283000037,1.14000,2.28000
,,, 0.01283199992,1.16000,2.28000
,,, 0.01283400040,1.16000,2.30000
,,, 0.01283599995,1.16000,2.28000
,,, 0.01283800043,1.16000,2.30000
,,, 0.01283999998,1.16000,2.30000
,,, 0.01284199953,1.16000,2.30000
,,, 0.01284400001,1.16000,2.30000
,,, 0.01284599956,1.16000,2.28000
,,, 0.01284800004,1.16000,2.30000
,,, 0.01284999959,1.18000,2.30000
,,, 0.01285200007,1.18000,2.30000
,,, 0.01285399962,1.18000,2.30000
,,, 0.01285600010,1.18000,2.30000
,,, 0.01285799965,1.20000,2.32000
,,, 0.01286000013,1.20000,2.32000
,,, 0.01286199968,1.18000,2.30000
,,, 0.01286400016,1.20000,2.32000
,,, 0.01286599971,1.20000,2.30000
,,, 0.01286800019,1.22000,2.32000
,,, 0.01286999974,1.20000,2.32000
,,, 0.01287200022,1.20000,2.32000
,,, 0.01287399977,1.22000,2.32000
,,, 0.01287600026,1.20000,2.32000
,,, 0.01287799980,1.22000,2.32000
,,, 0.01288000029,1.20000,2.32000
,,, 0.01288199984,1.22000,2.32000
,,, 0.01288400032,1.22000,2.32000
,,, 0.01288599987,1.22000,2.32000
,,, 0.01288800035,1.22000,2.32000
,,, 0.01288999990,1.24000,2.32000
,,, 0.01289200038,1.22000,2.32000
,,, 0.01289399993,1.24000,2.32000
,,, 0.01289600041,1.22000,2.32000
,,, 0.01289799996,1.24000,2.34000
,,, 0.01289999951,1.24000,2.32000
,,, 0.01290199999,1.24000,2.36000
,,, 0.01290399954,1.24000,2.36000
,,, 0.01290600002,1.24000,2.34000
,,, 0.01290799957,1.26000,2.36000
,,, 0.01291000005,1.24000,2.32000
,,, 0.01291199960,1.26000,2.32000
,,, 0.01291400008,1.26000,2.36000
,,, 0.01291599963,1.26000,2.34000
,,, 0.01291800011,1.28000,2.34000
,,, 0.01291999966,1.26000,2.36000
,,, 0.01292200014,1.26000,2.36000
,,, 0.01292399969,1.28000,2.36000
,,, 0.01292600017,1.26000,2.32000
,,, 0.01292799972,1.28000,2.36000
,,, 0.01293000020,1.30000,2.36000
,,, 0.01293199975,1.30000,2.38000
,,, 0.01293400023,1.28000,2.36000
,,, 0.01293599978,1.30000,2.36000
,,, 0.01293800026,1.30000,2.36000
,,, 0.01293999981,1.30000,2.36000
,,, 0.01294200029,1.30000,2.36000
,,, 0.01294399984,1.30000,2.36000
,,, 0.01294600032,1.30000,2.36000
,,, 0.01294799987,1.30000,2.36000
,,, 0.01295000035,1.32000,2.38000
,,, 0.01295199990,1.30000,2.36000
,,, 0.01295400038,1.32000,2.36000
,,, 0.01295599993,1.32000,2.36000
,,, 0.01295800041,1.32000,2.38000
,,, 0.01295999996,1.32000,2.38000
,,, 0.01296199951,1.32000,2.36000
,,, 0.01296399999,1.32000,2.36000
,,, 0.01296599954,1.32000,2.36000
,,, 0.01296800002,1.32000,2.38000
,,, 0.01296999957,1.32000,2.38000
,,, 0.01297200006,1.32000,2.36000
,,, 0.01297399960,1.34000,2.38000
,,, 0.01297600009,1.34000,2.38000
,,, 0.01297799964,1.34000,2.36000
,,, 0.01298000012,1.34000,2.38000
,,, 0.01298199967,1.34000,2.38000
,,, 0.01298400015,1.36000,2.38000
,,, 0.01298599970,1.36000,2.38000
,,, 0.01298800018,1.36000,2.38000
,,, 0.01298999973,1.38000,2.38000
,,, 0.01299200021,1.36000,2.38000
,,, 0.01299399976,1.38000,2.38000
,,, 0.01299600024,1.36000,2.40000
,,, 0.01299799979,1.38000,2.38000
,,, 0.01300000027,1.38000,2.38000
,,, 0.01300199982,1.38000,2.38000
,,, 0.01300400030,1.38000,2.40000
,,, 0.01300599985,1.36000,2.40000
,,, 0.01300800033,1.40000,2.40000
,,, 0.01300999988,1.38000,2.40000
,,, 0.01301200036,1.40000,2.38000
,,, 0.01301399991,1.40000,2.40000
,,, 0.01301600039,1.42000,2.40000
,,, 0.01301799994,1.40000,2.40000
,,, 0.01302000042,1.40000,2.40000
,,, 0.01302199997,1.40000,2.40000
,,, 0.01302399952,1.42000,2.40000
,,, 0.01302600000,1.40000,2.40000
,,, 0.01302799955,1.42000,2.40000
,,, 0.01303000003,1.40000,2.40000
,,, 0.01303199958,1.42000,2.40000
,,, 0.01303400006,1.44000,2.40000
,,, 0.01303599961,1.44000,2.40000
,,, 0.01303800009,1.42000,2.40000
,,, 0.01303999964,1.44000,2.40000
,,, 0.01304200012,1.46000,2.40000
,,, 0.01304399967,1.44000,2.40000
,,, 0.01304600015,1.44000,2.44000
,,, 0.01304799970,1.46000,2.40000
,,, 0.01305000018,1.44000,2.40000
,,, 0.01305199973,1.46000,2.40000
,,, 0.01305400021,1.46000,2.44000
,,, 0.01305599976,1.46000,2.40000
,,, 0.01305800024,1.46000,2.40000
,,, 0.01305999979,1.46000,2.40000
,,, 0.01306200027,1.48000,2.40000
,,, 0.01306399982,1.46000,2.40000
,,, 0.01306600031,1.48000,2.40000
,,, 0.01306799985,1.46000,2.40000
,,, 0.01307000034,1.48000,2.42000
,,, 0.01307199989,1.48000,2.44000
,,, 0.01307400037,1.48000,2.44000
,,, 0.01307599992,1.50000,2.44000
,,, 0.01307800040,1.50000,2.42000
,,, 0.01307999995,1.48000,2.40000
,,, 0.01308200043,1.50000,2.42000
,,, 0.01308399998,1.50000,2.42000
,,, 0.01308599953,1.50000,2.44000
,,, 0.01308800001,1.50000,2.40000
,,, 0.01308999956,1.50000,2.44000
,,, 0.01309200004,1.50000,2.44000
,,, 0.01309399959,1.52000,2.44000
,,, 0.01309600007,1.52000,2.44000
,,, 0.01309799962,1.52000,2.40000
,,, 0.01310000010,1.52000,2.44000
,,, 0.01310199965,1.52000,2.44000
,,, 0.01310400013,1.52000,2.44000
,,, 0.01310599968,1.52000,2.44000
,,, 0.01310800016,1.54000,2.44000
,,, 0.01310999971,1.52000,2.44000
,,, 0.01311200019,1.54000,2.44000
,,, 0.01311399974,1.52000,2.44000
,,, 0.01311600022,1.54000,2.44000
,,, 0.01311799977,1.54000,2.42000
,,, 0.01312000025,1.56000,2.44000
,,, 0.01312199980,1.54000,2.44000
,,, 0.01312400028,1.56000,2.44000
,,, 0.01312599983,1.56000,2.44000
,,, 0.01312800031,1.54000,2.46000
,,, 0.01312999986,1.54000,2.44000
,,, 0.01313200034,1.56000,2.44000
,,, 0.01313399989,1.56000,2.44000
,,, 0.01313600037,1.56000,2.44000
,,, 0.01313799992,1.58000,2.44000
,,, 0.01314000040,1.58000,2.44000
,,, 0.01314199995,1.58000,2.44000
,,, 0.01314399950,1.60000,2.44000
,,, 0.01314599998,1.58000,2.44000
,,, 0.01314799953,1.58000,2.44000
,,, 0.01315000001,1.58000,2.44000
,,, 0.01315199956,1.58000,2.44000
,,, 0.01315400004,1.60000,2.44000
