Documentos/Otros_resultados/Pruebas B/TRTU.CSV

Record Length,20480,,Source,CH1,CH2
Sample Interval,CH1:0.0000080000000 CH2:0.0000080000000,,Second,Volt,Volt
Vertical Units,CH1:V CH2:V,,-0.06191999838,2.24000,0.00
Vertical Scale,CH1:0.50 CH2:1.00,,-0.06191200018,2.24000,0.04000
Vertical Offset,CH1:-1.00000 CH2:-2.00000,,-0.06190399826,2.24000,0.00
Horizontal Units,s,,-0.06189600006,2.22000,0.00
Horizontal Scale,0.0049999999,,-0.06188799813,2.22000,0.00
Model Number,SDS1102CNL+,,-0.06187999994,2.24000,0.00
Serial Number,SDS10BA3163724,,-0.06187199801,2.20000,0.00
Software Version,6.01.01.17,,-0.06186399981,2.20000,0.00
,,,-0.06185600162,2.20000,0.00
,,,-0.06184799969,2.18000,0.04000
,,,-0.06184000149,2.20000,0.00
,,,-0.06183199957,2.18000,0.00
,,,-0.06182400137,2.18000,0.00
,,,-0.06181599945,2.16000,-0.04000
,,,-0.06180800125,2.16000,0.00
,,,-0.06179999933,2.16000,0.04000
,,,-0.06179200113,2.16000,0.00
,,,-0.06178399920,2.14000,0.00
,,,-0.06177600101,2.14000,0.00
,,,-0.06176799908,2.12000,0.08000
,,,-0.06176000088,2.12000,0.00
,,,-0.06175199896,2.10000,0.00
,,,-0.06174400076,2.12000,0.00
,,,-0.06173599884,2.10000,0.00
,,,-0.06172800064,2.08000,0.00
,,,-0.06171999872,2.06000,0.00
,,,-0.06171200052,2.06000,0.00
,,,-0.06170399860,2.08000,0.00
,,,-0.06169600040,2.04000,0.00
,,,-0.06168799847,2.04000,0.00
,,,-0.06168000028,2.02000,0.00
,,,-0.06167199835,2.02000,0.00
,,,-0.06166400015,2.00000,0.00
,,,-0.06165599823,2.00000,0.00
,,,-0.06164800003,2.00000,0.00
,,,-0.06163999811,1.98000,0.00
,,,-0.06163199991,1.98000,0.00
,,,-0.06162399799,1.98000,0.00
,,,-0.06161599979,1.98000,0.00
,,,-0.06160800159,1.94000,0.04000
,,,-0.06159999967,1.94000,0.08000
,,,-0.06159200147,1.94000,0.04000
,,,-0.06158399954,1.92000,0.00
,,,-0.06157600135,1.92000,0.00
,,,-0.06156799942,1.92000,0.04000
,,,-0.06156000122,1.92000,0.00
,,,-0.06155199930,1.88000,0.00
,,,-0.06154400110,1.88000,0.00
,,,-0.06153599918,1.88000,0.00
,,,-0.06152800098,1.86000,0.00
,,,-0.06151999906,1.84000,0.00
,,,-0.06151200086,1.84000,0.04000
,,,-0.06150399894,1.84000,0.08000
,,,-0.06149600074,1.84000,0.04000
,,,-0.06148799881,1.80000,0.00
,,,-0.06148000062,1.80000,0.04000
,,,-0.06147199869,1.80000,0.00
,,,-0.06146400049,1.80000,0.00
,,,-0.06145599857,1.78000,0.00
,,,-0.06144800037,1.78000,0.00
,,,-0.06143999845,1.78000,0.00
,,,-0.06143200025,1.74000,0.00
,,,-0.06142399833,1.74000,0.00
,,,-0.06141600013,1.74000,0.04000
,,,-0.06140799820,1.72000,0.00
,,,-0.06140000001,1.72000,0.08000
,,,-0.06139199808,1.70000,0.00
,,,-0.06138399988,1.70000,0.00
,,,-0.06137600169,1.68000,0.00
,,,-0.06136799976,1.68000,0.00
,,,-0.06136000156,1.66000,0.00
,,,-0.06135199964,1.64000,0.04000
,,,-0.06134400144,1.64000,0.00
,,,-0.06133599952,1.62000,0.00
,,,-0.06132800132,1.62000,0.00
,,,-0.06131999940,1.62000,0.00
,,,-0.06131200120,1.60000,0.00
,,,-0.06130399927,1.60000,0.00
,,,-0.06129600108,1.58000,0.00
,,,-0.06128799915,1.54000,0.00
,,,-0.06128000095,1.54000,0.04000
,,,-0.06127199903,1.54000,0.00
,,,-0.06126400083,1.52000,0.00
,,,-0.06125599891,1.52000,0.00
,,,-0.06124800071,1.52000,0.04000
,,,-0.06123999879,1.50000,0.04000
,,,-0.06123200059,1.50000,0.00
,,,-0.06122399867,1.48000,0.00
,,,-0.06121600047,1.46000,0.04000
,,,-0.06120799854,1.46000,0.04000
,,,-0.06120000035,1.46000,0.00
,,,-0.06119199842,1.46000,0.00
,,,-0.06118400022,1.42000,0.00
,,,-0.06117599830,1.42000,0.00
,,,-0.06116800010,1.40000,0.04000
,,,-0.06115999818,1.38000,0.04000
,,,-0.06115199998,1.38000,0.00
,,,-0.06114399806,1.34000,0.00
,,,-0.06113599986,1.34000,0.00
,,,-0.06112800166,1.32000,0.00
,,,-0.06111999974,1.32000,0.00
,,,-0.06111200154,1.32000,0.00
,,,-0.06110399961,1.30000,0.00
,,,-0.06109600142,1.30000,0.00
,,,-0.06108799949,1.28000,0.00
,,,-0.06108000129,1.28000,0.00
,,,-0.06107199937,1.26000,0.04000
,,,-0.06106400117,1.24000,0.04000
,,,-0.06105599925,1.24000,0.00
,,,-0.06104800105,1.22000,0.00
,,,-0.06103999913,1.22000,0.00
,,,-0.06103200093,1.22000,0.00
,,,-0.06102399901,1.20000,0.08000
,,,-0.06101600081,1.18000,0.04000
,,,-0.06100799888,1.18000,0.00
,,,-0.06100000069,1.16000,0.00
,,,-0.06099199876,1.16000,0.00
,,,-0.06098400056,1.14000,0.00
,,,-0.06097599864,1.14000,0.00
,,,-0.06096800044,1.14000,0.00
,,,-0.06095999852,1.12000,0.04000
,,,-0.06095200032,1.10000,0.00
,,,-0.06094399840,1.10000,0.00
,,,-0.06093600020,1.08000,0.00
,,,-0.06092799827,1.08000,0.00
,,,-0.06092000008,1.06000,0.00
,,,-0.06091199815,1.04000,0.08000
,,,-0.06090399995,1.06000,0.00
,,,-0.06089599803,1.04000,0.00
,,,-0.06088799983,1.02000,0.00
,,,-0.06088000163,1.04000,0.00
,,,-0.06087199971,1.00000,0.00
,,,-0.06086400151,1.00000,0.00
,,,-0.06085599959,1.00000,0.00
,,,-0.06084800139,0.98000,0.00
,,,-0.06083999947,0.98000,0.00
,,,-0.06083200127,0.96000,0.00
,,,-0.06082399935,0.96000,0.00
,,,-0.06081600115,0.96000,0.00
,,,-0.06080799922,0.94000,0.00
,,,-0.06080000103,0.92000,0.08000
,,,-0.06079199910,0.94000,0.00
,,,-0.06078400090,0.90000,0.00
,,,-0.06077599898,0.90000,0.00
,,,-0.06076800078,0.90000,0.00
,,,-0.06075999886,0.90000,0.00
,,,-0.06075200066,0.88000,0.00
,,,-0.06074399874,0.88000,0.04000
,,,-0.06073600054,0.88000,0.04000
,,,-0.06072799861,0.86000,0.04000
,,,-0.06072000042,0.84000,0.00
,,,-0.06071199849,0.84000,0.00
,,,-0.06070400029,0.82000,0.00
,,,-0.06069599837,0.82000,0.00
,,,-0.06068800017,0.80000,0.00
,,,-0.06067999825,0.80000,0.00
,,,-0.06067200005,0.80000,0.00
,,,-0.06066399813,0.78000,0.00
,,,-0.06065599993,0.78000,0.00
,,,-0.06064799801,0.76000,0.00
,,,-0.06063999981,0.78000,0.00
,,,-0.06063200161,0.76000,0.00
,,,-0.06062399969,0.74000,0.04000
,,,-0.06061600149,0.76000,0.00
,,,-0.06060799956,0.74000,0.00
,,,-0.06060000136,0.72000,0.00
,,,-0.06059199944,0.74000,0.00
,,,-0.06058400124,0.72000,0.00
,,,-0.06057599932,0.72000,0.00
,,,-0.06056800112,0.70000,0.04000
,,,-0.06055999920,0.70000,0.00
,,,-0.06055200100,0.70000,0.00
,,,-0.06054399908,0.70000,0.04000
,,,-0.06053600088,0.68000,0.00
,,,-0.06052799895,0.68000,0.00
,,,-0.06052000076,0.68000,0.00
,,,-0.06051199883,0.68000,0.04000
,,,-0.06050400063,0.68000,0.00
,,,-0.06049599871,0.66000,0.00
,,,-0.06048800051,0.66000,0.00
,,,-0.06047999859,0.66000,0.00
,,,-0.06047200039,0.66000,0.00
,,,-0.06046399847,0.66000,0.00
,,,-0.06045600027,0.64000,0.04000
,,,-0.06044799834,0.64000,0.00
,,,-0.06044000015,0.62000,0.00
,,,-0.06043199822,0.64000,0.00
,,,-0.06042400002,0.64000,0.00
,,,-0.06041599810,0.64000,0.00
,,,-0.06040799990,0.62000,0.04000
,,,-0.06040000170,0.62000,0.00
,,,-0.06039199978,0.62000,0.00
,,,-0.06038400158,0.60000,0.00
,,,-0.06037599966,0.62000,0.00
,,,-0.06036800146,0.62000,0.00
,,,-0.06035999954,0.62000,0.00
,,,-0.06035200134,0.60000,0.00
,,,-0.06034399942,0.60000,0.00
,,,-0.06033600122,0.60000,0.00
,,,-0.06032799929,0.58000,0.00
,,,-0.06032000110,0.60000,0.00
,,,-0.06031199917,0.60000,0.08000
,,,-0.06030400097,0.58000,0.00
,,,-0.06029599905,0.60000,0.04000
,,,-0.06028800085,0.58000,0.04000
,,,-0.06027999893,0.58000,0.00
,,,-0.06027200073,0.58000,0.00
,,,-0.06026399881,0.58000,0.00
,,,-0.06025600061,0.58000,0.04000
,,,-0.06024799868,0.58000,0.00
,,,-0.06024000049,0.58000,0.00
,,,-0.06023199856,0.58000,0.00
,,,-0.06022400036,0.58000,0.08000
,,,-0.06021599844,0.58000,0.00
,,,-0.06020800024,0.58000,0.00
,,,-0.06019999832,0.58000,0.00
,,,-0.06019200012,0.58000,0.00
,,,-0.06018399820,0.58000,0.08000
,,,-0.06017600000,0.60000,0.00
,,,-0.06016799808,0.58000,0.00
,,,-0.06015999988,0.58000,0.00
,,,-0.06015200168,0.58000,0.00
,,,-0.06014399976,0.58000,0.04000
,,,-0.06013600156,0.58000,0.00
,,,-0.06012799963,0.60000,0.08000
,,,-0.06012000144,0.60000,0.04000
,,,-0.06011199951,0.60000,0.00
,,,-0.06010400131,0.60000,0.00
,,,-0.06009599939,0.58000,0.00
,,,-0.06008800119,0.58000,0.04000
,,,-0.06007999927,0.60000,0.00
,,,-0.06007200107,0.60000,0.04000
,,,-0.06006399915,0.60000,0.00
,,,-0.06005600095,0.62000,0.00
,,,-0.06004799902,0.60000,0.00
,,,-0.06004000083,0.60000,0.04000
,,,-0.06003199890,0.62000,0.00
,,,-0.06002400070,0.62000,0.00
,,,-0.06001599878,0.62000,0.00
,,,-0.06000800058,0.62000,0.00
,,,-0.05999999866,0.64000,0.00
,,,-0.05999200046,0.64000,0.00
,,,-0.05998399854,0.64000,0.00
,,,-0.05997600034,0.64000,0.08000
,,,-0.05996799842,0.66000,0.00
,,,-0.05996000022,0.64000,0.00
,,,-0.05995199829,0.66000,0.08000
,,,-0.05994400010,0.66000,0.00
,,,-0.05993599817,0.66000,0.04000
,,,-0.05992799997,0.66000,0.00
,,,-0.05991999805,0.66000,0.00
,,,-0.05991199985,0.66000,0.00
,,,-0.05990400165,0.68000,0.00
,,,-0.05989599973,0.68000,0.04000
,,,-0.05988800153,0.68000,0.00
,,,-0.05987999961,0.70000,0.04000
,,,-0.05987200141,0.70000,0.00
,,,-0.05986399949,0.70000,0.00
,,,-0.05985600129,0.70000,0.00
,,,-0.05984799936,0.72000,0.00
,,,-0.05984000117,0.72000,0.00
,,,-0.05983199924,0.72000,0.00
,,,-0.05982400104,0.74000,0.04000
,,,-0.05981599912,0.74000,0.00
,,,-0.05980800092,0.74000,0.04000
,,,-0.05979999900,0.76000,0.00
,,,-0.05979200080,0.76000,0.00
,,,-0.05978399888,0.76000,0.00
,,,-0.05977600068,0.76000,0.00
,,,-0.05976799875,0.78000,0.00
,,,-0.05976000056,0.78000,0.00
,,,-0.05975199863,0.80000,0.00
,,,-0.05974400043,0.80000,0.04000
,,,-0.05973599851,0.80000,0.04000
,,,-0.05972800031,0.80000,0.00
,,,-0.05971999839,0.82000,0.00
,,,-0.05971200019,0.82000,0.00
,,,-0.05970399827,0.84000,0.04000
,,,-0.05969600007,0.84000,0.00
,,,-0.05968799815,0.86000,0.00
,,,-0.05967999995,0.86000,0.00
,,,-0.05967199802,0.88000,0.00
,,,-0.05966399983,0.88000,0.04000
,,,-0.05965600163,0.88000,0.00
,,,-0.05964799970,0.90000,0.00
,,,-0.05964000151,0.92000,0.00
,,,-0.05963199958,0.90000,0.04000
,,,-0.05962400138,0.92000,0.00
,,,-0.05961599946,0.94000,0.00
,,,-0.05960800126,0.94000,0.00
,,,-0.05959999934,0.94000,0.00
,,,-0.05959200114,0.96000,0.00
,,,-0.05958399922,0.98000,0.00
,,,-0.05957600102,0.98000,0.04000
,,,-0.05956799909,1.00000,0.00
,,,-0.05956000090,1.00000,0.00
,,,-0.05955199897,1.00000,0.00
,,,-0.05954400077,1.02000,0.00
,,,-0.05953599885,1.02000,0.00
,,,-0.05952800065,1.04000,0.00
,,,-0.05951999873,1.04000,0.04000
,,,-0.05951200053,1.06000,0.04000
,,,-0.05950399861,1.06000,0.00
,,,-0.05949600041,1.06000,0.00
,,,-0.05948799849,1.08000,0.00
,,,-0.05948000029,1.08000,0.04000
,,,-0.05947199836,1.10000,0.00
,,,-0.05946400017,1.10000,0.00
,,,-0.05945599824,1.12000,0.04000
,,,-0.05944800004,1.14000,0.04000
,,,-0.05943999812,1.14000,0.00
,,,-0.05943199992,1.14000,0.00
,,,-0.05942399800,1.16000,0.00
,,,-0.05941599980,1.16000,0.08000
,,,-0.05940800160,1.18000,0.00
,,,-0.05939999968,1.20000,0.00
,,,-0.05939200148,1.20000,0.00
,,,-0.05938399956,1.22000,0.00
,,,-0.05937600136,1.22000,0.00
,,,-0.05936799943,1.24000,0.00
,,,-0.05936000124,1.24000,0.08000
,,,-0.05935199931,1.26000,0.00
,,,-0.05934400111,1.26000,0.00
,,,-0.05933599919,1.28000,0.00
,,,-0.05932800099,1.30000,0.00
,,,-0.05931999907,1.30000,0.00
,,,-0.05931200087,1.30000,0.00
,,,-0.05930399895,1.30000,0.08000
,,,-0.05929600075,1.32000,0.00
,,,-0.05928799883,1.34000,0.00
,,,-0.05928000063,1.36000,0.04000
,,,-0.05927199870,1.36000,0.00
,,,-0.05926400051,1.36000,0.04000
,,,-0.05925599858,1.40000,0.00
,,,-0.05924800038,1.40000,0.04000
,,,-0.05923999846,1.42000,0.04000
,,,-0.05923200026,1.42000,0.00
,,,-0.05922399834,1.44000,0.00
,,,-0.05921600014,1.44000,0.04000
,,,-0.05920799822,1.46000,0.08000
,,,-0.05920000002,1.46000,0.00
,,,-0.05919199809,1.46000,0.00
,,,-0.05918399990,1.48000,0.08000
,,,-0.05917600170,1.50000,0.08000
,,,-0.05916799977,1.52000,0.00
,,,-0.05916000158,1.52000,0.08000
,,,-0.05915199965,1.54000,0.04000
,,,-0.05914400145,1.56000,0.00
,,,-0.05913599953,1.56000,0.08000
,,,-0.05912800133,1.56000,0.00
,,,-0.05911999941,1.58000,0.04000
,,,-0.05911200121,1.60000,0.00
,,,-0.05910399929,1.60000,0.00
,,,-0.05909600109,1.60000,0.00
,,,-0.05908799917,1.62000,0.00
,,,-0.05908000097,1.64000,0.00
,,,-0.05907199904,1.62000,0.04000
,,,-0.05906400084,1.64000,0.00
,,,-0.05905599892,1.66000,0.00
,,,-0.05904800072,1.68000,0.00
,,,-0.05903999880,1.68000,0.00
,,,-0.05903200060,1.70000,0.00
,,,-0.05902399868,1.70000,0.04000
,,,-0.05901600048,1.70000,0.00
,,,-0.05900799856,1.72000,0.00
,,,-0.05900000036,1.74000,0.00
,,,-0.05899199843,1.74000,0.00
,,,-0.05898400024,1.76000,0.08000
,,,-0.05897599831,1.78000,0.00
,,,-0.05896800011,1.78000,0.00
,,,-0.05895999819,1.78000,0.00
,,,-0.05895199999,1.80000,0.04000
,,,-0.05894399807,1.80000,0.04000
,,,-0.05893599987,1.82000,0.00
,,,-0.05892800167,1.84000,0.04000
,,,-0.05891999975,1.84000,0.00
,,,-0.05891200155,1.84000,0.04000
,,,-0.05890399963,1.84000,0.00
,,,-0.05889600143,1.86000,0.00
,,,-0.05888799950,1.86000,0.04000
,,,-0.05888000131,1.88000,0.00
,,,-0.05887199938,1.88000,0.04000
,,,-0.05886400118,1.88000,0.08000
,,,-0.05885599926,1.90000,0.00
,,,-0.05884800106,1.90000,0.00
,,,-0.05883999914,1.92000,0.00
,,,-0.05883200094,1.92000,0.04000
,,,-0.05882399902,1.94000,0.00
,,,-0.05881600082,1.94000,0.00
,,,-0.05880799890,1.94000,0.00
,,,-0.05880000070,1.96000,0.00
,,,-0.05879199877,1.96000,0.04000
,,,-0.05878400058,1.98000,0.00
,,,-0.05877599865,2.00000,0.00
,,,-0.05876800045,2.00000,0.00
,,,-0.05875999853,2.00000,0.04000
,,,-0.05875200033,2.02000,0.04000
,,,-0.05874399841,2.02000,0.00
,,,-0.05873600021,2.02000,0.00
,,,-0.05872799829,2.04000,0.08000
,,,-0.05872000009,2.04000,0.00
,,,-0.05871199816,2.06000,0.08000
,,,-0.05870399997,2.06000,0.00
,,,-0.05869599804,2.06000,0.00
,,,-0.05868799984,2.08000,0.00
,,,-0.05868000165,2.08000,0.00
,,,-0.05867199972,2.10000,0.00
,,,-0.05866400152,2.12000,0.00
,,,-0.05865599960,2.12000,0.00
,,,-0.05864800140,2.14000,0.00
,,,-0.05863999948,2.14000,0.00
,,,-0.05863200128,2.14000,0.00
,,,-0.05862399936,2.16000,0.00
,,,-0.05861600116,2.14000,0.00
,,,-0.05860799924,2.16000,0.04000
,,,-0.05860000104,2.16000,0.00
,,,-0.05859199911,2.18000,0.00
,,,-0.05858400092,2.18000,0.04000
,,,-0.05857599899,2.20000,0.00
,,,-0.05856800079,2.20000,0.00
,,,-0.05855999887,2.20000,0.00
,,,-0.05855200067,2.22000,0.00
,,,-0.05854399875,2.24000,0.00
,,,-0.05853600055,2.22000,0.00
,,,-0.05852799863,2.24000,0.00
,,,-0.05852000043,2.24000,0.04000
,,,-0.05851199850,2.24000,0.08000
,,,-0.05850400031,2.24000,0.00
,,,-0.05849599838,2.24000,0.00
,,,-0.05848800018,2.24000,0.04000
,,,-0.05847999826,2.26000,0.00
,,,-0.05847200006,2.24000,0.00
,,,-0.05846399814,2.24000,0.00
,,,-0.05845599994,2.28000,0.04000
,,,-0.05844799802,2.28000,0.00
,,,-0.05843999982,2.28000,0.00
,,,-0.05843200162,2.30000,0.00
,,,-0.05842399970,2.30000,0.00
,,,-0.05841600150,2.30000,0.08000
,,,-0.05840799958,2.30000,0.00
,,,-0.05840000138,2.32000,0.04000
,,,-0.05839199945,2.30000,0.00
,,,-0.05838400126,2.32000,0.00
,,,-0.05837599933,2.32000,0.00
,,,-0.05836800113,2.32000,0.04000
,,,-0.05835999921,2.32000,0.04000
,,,-0.05835200101,2.34000,0.04000
,,,-0.05834399909,2.32000,0.00
,,,-0.05833600089,2.34000,0.04000
,,,-0.05832799897,2.32000,0.04000
,,,-0.05832000077,2.34000,0.00
,,,-0.05831199884,2.34000,0.00
,,,-0.05830400065,2.34000,0.00
,,,-0.05829599872,2.34000,0.00
,,,-0.05828800052,2.34000,0.00
,,,-0.05827999860,2.34000,0.00
,,,-0.05827200040,2.36000,0.04000
,,,-0.05826399848,2.36000,0.04000
,,,-0.05825600028,2.34000,0.00
,,,-0.05824799836,2.36000,0.00
,,,-0.05824000016,2.34000,0.08000
,,,-0.05823199823,2.34000,0.04000
,,,-0.05822400004,2.36000,0.04000
,,,-0.05821599811,2.36000,0.00
,,,-0.05820799991,2.34000,0.04000
,,,-0.05819999799,2.36000,0.00
,,,-0.05819199979,2.36000,0.00
,,,-0.05818400159,2.36000,0.00
,,,-0.05817599967,2.36000,0.04000
,,,-0.05816800147,2.36000,0.00
,,,-0.05815999955,2.38000,0.00
,,,-0.05815200135,2.36000,0.04000
,,,-0.05814399943,2.36000,0.00
,,,-0.05813600123,2.36000,0.00
,,,-0.05812799931,2.36000,0.04000
,,,-0.05812000111,2.36000,0.00
,,,-0.05811199918,2.38000,0.00
,,,-0.05810400099,2.36000,0.04000
,,,-0.05809599906,2.36000,0.04000
,,,-0.05808800086,2.34000,0.00
,,,-0.05807999894,2.36000,0.00
,,,-0.05807200074,2.34000,0.04000
,,,-0.05806399882,2.36000,0.00
,,,-0.05805600062,2.36000,0.08000
,,,-0.05804799870,2.34000,0.00
,,,-0.05804000050,2.34000,0.00
,,,-0.05803199857,2.34000,0.00
,,,-0.05802400038,2.34000,0.00
,,,-0.05801599845,2.34000,0.00
,,,-0.05800800025,2.34000,0.00
,,,-0.05799999833,2.34000,0.00
,,,-0.05799200013,2.32000,0.00
,,,-0.05798399821,2.32000,0.00
,,,-0.05797600001,2.34000,0.00
,,,-0.05796799809,2.32000,0.00
,,,-0.05795999989,2.32000,0.00
,,,-0.05795200169,2.32000,0.04000
,,,-0.05794399977,2.32000,0.00
,,,-0.05793600157,2.32000,0.00
,,,-0.05792799965,2.30000,0.04000
,,,-0.05792000145,2.30000,0.04000
,,,-0.05791199952,2.30000,0.00
,,,-0.05790400133,2.30000,0.00
,,,-0.05789599940,2.28000,0.00
,,,-0.05788800120,2.30000,0.00
,,,-0.05787999928,2.30000,0.00
,,,-0.05787200108,2.26000,0.00
,,,-0.05786399916,2.26000,0.00
,,,-0.05785600096,2.26000,0.04000
,,,-0.05784799904,2.26000,0.00
,,,-0.05784000084,2.26000,0.00
,,,-0.05783199891,2.26000,0.08000
,,,-0.05782400072,2.24000,0.00
,,,-0.05781599879,2.26000,0.00
,,,-0.05780800059,2.24000,0.08000
,,,-0.05779999867,2.24000,0.08000
,,,-0.05779200047,2.22000,0.04000
,,,-0.05778399855,2.22000,0.00
,,,-0.05777600035,2.20000,0.04000
,,,-0.05776799843,2.20000,0.00
,,,-0.05776000023,2.20000,0.00
,,,-0.05775199831,2.20000,0.00
,,,-0.05774400011,2.18000,0.00
,,,-0.05773599818,2.20000,0.00
,,,-0.05772799999,2.18000,0.00
,,,-0.05771999806,2.16000,0.08000
,,,-0.05771199986,2.16000,0.00
,,,-0.05770400167,2.16000,0.04000
,,,-0.05769599974,2.14000,0.08000
,,,-0.05768800154,2.14000,0.00
,,,-0.05767999962,2.14000,0.00
,,,-0.05767200142,2.12000,0.04000
,,,-0.05766399950,2.12000,0.00
,,,-0.05765600130,2.10000,0.04000
,,,-0.05764799938,2.10000,0.00
,,,-0.05764000118,2.10000,0.00
,,,-0.05763199925,2.08000,0.04000
,,,-0.05762400106,2.08000,0.00
,,,-0.05761599913,2.06000,0.00
,,,-0.05760800093,2.06000,0.04000
,,,-0.05759999901,2.08000,0.00
,,,-0.05759200081,2.06000,0.00
,,,-0.05758399889,2.02000,0.00
,,,-0.05757600069,2.02000,0.00
,,,-0.05756799877,2.02000,0.00
,,,-0.05756000057,2.00000,0.00
,,,-0.05755199865,2.00000,0.04000
,,,-0.05754400045,1.98000,0.00
,,,-0.05753599852,1.98000,0.08000
,,,-0.05752800032,1.96000,0.00
,,,-0.05751999840,1.96000,0.00
,,,-0.05751200020,1.96000,0.00
,,,-0.05750399828,1.94000,0.00
,,,-0.05749600008,1.94000,0.04000
,,,-0.05748799816,1.92000,0.00
,,,-0.05747999996,1.92000,0.00
,,,-0.05747199804,1.90000,0.00
,,,-0.05746399984,1.92000,0.04000
,,,-0.05745600164,1.90000,0.00
,,,-0.05744799972,1.88000,0.00
,,,-0.05744000152,1.86000,0.00
,,,-0.05743199959,1.86000,0.00
,,,-0.05742400140,1.84000,0.04000
,,,-0.05741599947,1.84000,0.00
,,,-0.05740800127,1.84000,0.00
,,,-0.05739999935,1.84000,0.00
,,,-0.05739200115,1.84000,0.00
,,,-0.05738399923,1.82000,0.04000
,,,-0.05737600103,1.82000,0.00
,,,-0.05736799911,1.80000,0.00
,,,-0.05736000091,1.78000,0.00
,,,-0.05735199898,1.76000,0.00
,,,-0.05734400079,1.78000,0.00
,,,-0.05733599886,1.76000,0.04000
,,,-0.05732800066,1.76000,0.00
,,,-0.05731999874,1.74000,0.04000
,,,-0.05731200054,1.72000,0.00
,,,-0.05730399862,1.72000,0.00
,,,-0.05729600042,1.70000,0.00
,,,-0.05728799850,1.70000,0.00
,,,-0.05728000030,1.68000,0.00
,,,-0.05727199838,1.68000,0.08000
,,,-0.05726400018,1.66000,0.00
,,,-0.05725599825,1.64000,0.00
,,,-0.05724800006,1.64000,0.04000
,,,-0.05723999813,1.64000,0.00
,,,-0.05723199993,1.62000,0.00
,,,-0.05722399801,1.62000,0.00
,,,-0.05721599981,1.60000,0.00
,,,-0.05720800161,1.60000,0.00
,,,-0.05719999969,1.58000,0.08000
,,,-0.05719200149,1.56000,0.00
,,,-0.05718399957,1.56000,0.00
,,,-0.05717600137,1.54000,0.04000
,,,-0.05716799945,1.54000,0.08000
,,,-0.05716000125,1.52000,0.00
,,,-0.05715199932,1.50000,0.04000
,,,-0.05714400113,1.52000,0.00
,,,-0.05713599920,1.50000,0.04000
,,,-0.05712800100,1.48000,0.00
,,,-0.05711999908,1.48000,0.00
,,,-0.05711200088,1.46000,0.00
,,,-0.05710399896,1.46000,0.04000
,,,-0.05709600076,1.42000,0.04000
,,,-0.05708799884,1.42000,0.00
,,,-0.05708000064,1.40000,0.04000
,,,-0.05707199872,1.40000,0.04000
,,,-0.05706400052,1.38000,0.00
,,,-0.05705599859,1.38000,0.00
,,,-0.05704800040,1.36000,0.04000
,,,-0.05703999847,1.34000,0.04000
,,,-0.05703200027,1.34000,0.00
,,,-0.05702399835,1.32000,0.00
,,,-0.05701600015,1.30000,0.04000
,,,-0.05700799823,1.30000,0.00
,,,-0.05700000003,1.30000,0.00
,,,-0.05699199811,1.28000,0.00
,,,-0.05698399991,1.28000,0.00
