Documentos/Funciones_Matlab/regla_digital/ReglaDigital_Oscilo/NewFile8.csv

X,CH1,CH2,Start,Increment,
Sequence,Volt,Volt,-6.000000e-02,1.000000e-04
0,1.36e+00,1.32e+00,
1,1.28e+00,1.24e+00,
2,1.36e+00,1.24e+00,
3,1.28e+00,1.32e+00,
4,1.40e+00,1.32e+00,
5,1.32e+00,1.24e+00,
6,1.40e+00,1.32e+00,
7,1.32e+00,1.24e+00,
8,1.36e+00,1.28e+00,
9,1.48e+00,1.20e+00,
10,1.48e+00,1.20e+00,
11,1.36e+00,1.28e+00,
12,1.48e+00,1.28e+00,
13,1.36e+00,1.20e+00,
14,1.44e+00,1.28e+00,
15,1.52e+00,1.20e+00,
16,1.44e+00,1.28e+00,
17,1.52e+00,1.20e+00,
18,1.48e+00,1.28e+00,
19,1.56e+00,1.20e+00,
20,1.48e+00,1.20e+00,
21,1.56e+00,1.28e+00,
22,1.48e+00,1.20e+00,
23,1.60e+00,1.28e+00,
24,1.52e+00,1.20e+00,
25,1.60e+00,1.28e+00,
26,1.52e+00,1.28e+00,
27,1.64e+00,1.16e+00,
28,1.56e+00,1.20e+00,
29,1.64e+00,1.28e+00,
30,1.64e+00,1.20e+00,
31,1.56e+00,1.28e+00,
32,1.68e+00,1.20e+00,
33,1.60e+00,1.28e+00,
34,1.68e+00,1.28e+00,
35,1.60e+00,1.20e+00,
36,1.72e+00,1.24e+00,
37,1.64e+00,1.28e+00,
38,1.72e+00,1.28e+00,
39,1.64e+00,1.20e+00,
40,1.64e+00,1.28e+00,
41,1.76e+00,1.20e+00,
42,1.76e+00,1.20e+00,
43,1.68e+00,1.28e+00,
44,1.68e+00,1.28e+00,
45,1.80e+00,1.20e+00,
46,1.80e+00,1.24e+00,
47,1.72e+00,1.32e+00,
48,1.72e+00,1.24e+00,
49,1.80e+00,1.32e+00,
50,1.76e+00,1.24e+00,
51,1.88e+00,1.32e+00,
52,1.76e+00,1.32e+00,
53,1.88e+00,1.24e+00,
54,1.76e+00,1.24e+00,
55,1.88e+00,1.36e+00,
56,1.80e+00,1.36e+00,
57,1.92e+00,1.28e+00,
58,1.92e+00,1.36e+00,
59,1.84e+00,1.28e+00,
60,1.84e+00,1.36e+00,
61,1.92e+00,1.28e+00,
62,1.84e+00,1.32e+00,
63,1.96e+00,1.40e+00,
64,1.88e+00,1.40e+00,
65,1.96e+00,1.32e+00,
66,1.88e+00,1.32e+00,
67,1.96e+00,1.44e+00,
68,1.88e+00,1.44e+00,
69,1.96e+00,1.36e+00,
70,1.96e+00,1.44e+00,
71,1.88e+00,1.36e+00,
72,1.92e+00,1.36e+00,
73,2.00e+00,1.48e+00,
74,2.00e+00,1.52e+00,
75,1.92e+00,1.40e+00,
76,1.92e+00,1.40e+00,
77,2.00e+00,1.52e+00,
78,2.00e+00,1.48e+00,
79,1.92e+00,1.56e+00,
80,1.92e+00,1.48e+00,
81,2.00e+00,1.56e+00,
82,1.92e+00,1.48e+00,
83,2.00e+00,1.60e+00,
84,2.00e+00,1.52e+00,
85,1.92e+00,1.60e+00,
86,1.92e+00,1.52e+00,
87,2.04e+00,1.60e+00,
88,1.92e+00,1.56e+00,
89,2.00e+00,1.64e+00,
90,2.00e+00,1.64e+00,
91,1.92e+00,1.56e+00,
92,2.00e+00,1.60e+00,
93,1.92e+00,1.68e+00,
94,1.92e+00,1.60e+00,
95,2.00e+00,1.68e+00,
96,1.92e+00,1.60e+00,
97,2.00e+00,1.72e+00,
98,1.92e+00,1.72e+00,
99,2.00e+00,1.64e+00,
100,1.92e+00,1.72e+00,
101,2.00e+00,1.64e+00,
102,1.92e+00,1.68e+00,
103,2.00e+00,1.76e+00,
104,2.00e+00,1.76e+00,
105,1.92e+00,1.68e+00,
106,1.92e+00,1.68e+00,
107,2.00e+00,1.80e+00,
108,1.96e+00,1.80e+00,
109,1.88e+00,1.72e+00,
110,1.88e+00,1.80e+00,
111,1.96e+00,1.72e+00,
112,1.96e+00,1.72e+00,
113,1.88e+00,1.84e+00,
114,1.88e+00,1.84e+00,
115,1.96e+00,1.76e+00,
116,1.96e+00,1.76e+00,
117,1.84e+00,1.84e+00,
118,1.84e+00,1.80e+00,
119,1.92e+00,1.88e+00,
120,1.84e+00,1.88e+00,
121,1.92e+00,1.80e+00,
122,1.92e+00,1.88e+00,
123,1.80e+00,1.80e+00,
124,1.88e+00,1.84e+00,
125,1.76e+00,1.96e+00,
126,1.88e+00,1.84e+00,
127,1.80e+00,1.96e+00,
128,1.88e+00,1.96e+00,
129,1.76e+00,1.84e+00,
130,1.80e+00,1.88e+00,
131,1.72e+00,2.00e+00,
132,1.80e+00,1.92e+00,
133,1.72e+00,2.00e+00,
134,1.76e+00,1.92e+00,
135,1.68e+00,2.00e+00,
136,1.76e+00,1.92e+00,
137,1.68e+00,2.00e+00,
138,1.76e+00,1.92e+00,
139,1.68e+00,2.00e+00,
140,1.72e+00,2.00e+00,
141,1.64e+00,1.92e+00,
142,1.72e+00,1.92e+00,
143,1.64e+00,2.04e+00,
144,1.68e+00,1.96e+00,
145,1.60e+00,2.04e+00,
146,1.68e+00,2.04e+00,
147,1.60e+00,1.96e+00,
148,1.68e+00,2.04e+00,
149,1.56e+00,2.00e+00,
150,1.64e+00,2.04e+00,
151,1.56e+00,1.96e+00,
152,1.64e+00,1.96e+00,
153,1.52e+00,2.04e+00,
154,1.60e+00,2.04e+00,
155,1.52e+00,1.96e+00,
156,1.60e+00,2.04e+00,
157,1.52e+00,1.96e+00,
158,1.56e+00,2.04e+00,
159,1.48e+00,1.96e+00,
160,1.48e+00,1.96e+00,
161,1.56e+00,2.04e+00,
162,1.56e+00,1.96e+00,
163,1.44e+00,2.04e+00,
164,1.44e+00,2.04e+00,
165,1.52e+00,1.96e+00,
166,1.52e+00,2.04e+00,
167,1.36e+00,1.96e+00,
168,1.36e+00,1.96e+00,
169,1.48e+00,2.04e+00,
170,1.36e+00,2.04e+00,
171,1.48e+00,1.92e+00,
172,1.40e+00,2.00e+00,
173,1.32e+00,1.92e+00,
174,1.40e+00,1.92e+00,
175,1.32e+00,2.00e+00,
176,1.36e+00,1.92e+00,
177,1.28e+00,2.00e+00,
178,1.28e+00,1.92e+00,
179,1.36e+00,2.00e+00,
180,1.36e+00,1.92e+00,
181,1.28e+00,2.00e+00,
182,1.36e+00,2.00e+00,
183,1.24e+00,1.88e+00,
184,1.32e+00,1.88e+00,
185,1.24e+00,1.96e+00,
186,1.32e+00,1.96e+00,
187,1.20e+00,1.88e+00,
188,1.28e+00,1.96e+00,
189,1.20e+00,1.84e+00,
190,1.28e+00,1.88e+00,
191,1.20e+00,1.80e+00,
192,1.20e+00,1.88e+00,
193,1.28e+00,1.80e+00,
194,1.28e+00,1.88e+00,
195,1.16e+00,1.80e+00,
196,1.16e+00,1.84e+00,
197,1.24e+00,1.76e+00,
198,1.24e+00,1.76e+00,
199,1.16e+00,1.84e+00,
200,1.24e+00,1.84e+00,
201,1.16e+00,1.76e+00,
202,1.20e+00,1.80e+00,
203,1.12e+00,1.72e+00,
204,1.12e+00,1.80e+00,
205,1.20e+00,1.72e+00,
206,1.20e+00,1.80e+00,
207,1.12e+00,1.68e+00,
208,1.16e+00,1.76e+00,
209,1.20e+00,1.68e+00,
210,1.20e+00,1.68e+00,
211,1.12e+00,1.76e+00,
212,1.20e+00,1.76e+00,
213,1.12e+00,1.64e+00,
214,1.20e+00,1.64e+00,
215,1.08e+00,1.72e+00,
216,1.08e+00,1.72e+00,
217,1.16e+00,1.60e+00,
218,1.16e+00,1.68e+00,
219,1.08e+00,1.60e+00,
220,1.16e+00,1.68e+00,
221,1.08e+00,1.60e+00,
222,1.08e+00,1.64e+00,
223,1.16e+00,1.56e+00,
224,1.08e+00,1.64e+00,
225,1.16e+00,1.56e+00,
226,1.08e+00,1.64e+00,
227,1.16e+00,1.52e+00,
228,1.16e+00,1.52e+00,
229,1.08e+00,1.60e+00,
230,1.16e+00,1.60e+00,
231,1.08e+00,1.48e+00,
232,1.16e+00,1.48e+00,
233,1.08e+00,1.56e+00,
234,1.16e+00,1.56e+00,
235,1.08e+00,1.48e+00,
236,1.12e+00,1.56e+00,
237,1.20e+00,1.40e+00,
238,1.12e+00,1.44e+00,
239,1.20e+00,1.52e+00,
240,1.12e+00,1.52e+00,
241,1.20e+00,1.36e+00,
242,1.20e+00,1.44e+00,
243,1.12e+00,1.36e+00,
244,1.20e+00,1.44e+00,
245,1.12e+00,1.36e+00,
246,1.12e+00,1.44e+00,
247,1.20e+00,1.32e+00,
248,1.16e+00,1.32e+00,
249,1.24e+00,1.40e+00,
250,1.24e+00,1.40e+00,
251,1.20e+00,1.32e+00,
252,1.24e+00,1.36e+00,
253,1.16e+00,1.28e+00,
254,1.24e+00,1.28e+00,
255,1.16e+00,1.36e+00,
256,1.20e+00,1.36e+00,
257,1.28e+00,1.28e+00,
258,1.28e+00,1.32e+00,
259,1.20e+00,1.24e+00,
260,1.28e+00,1.32e+00,
261,1.20e+00,1.24e+00,
262,1.20e+00,1.32e+00,
263,1.32e+00,1.24e+00,
264,1.24e+00,1.28e+00,
265,1.32e+00,1.20e+00,
266,1.32e+00,1.20e+00,
267,1.24e+00,1.28e+00,
268,1.24e+00,1.28e+00,
269,1.36e+00,1.20e+00,
270,1.28e+00,1.28e+00,
271,1.36e+00,1.20e+00,
272,1.36e+00,1.24e+00,
273,1.28e+00,1.16e+00,
274,1.28e+00,1.16e+00,
275,1.40e+00,1.24e+00,
276,1.40e+00,1.16e+00,
277,1.32e+00,1.24e+00,
278,1.40e+00,1.24e+00,
279,1.32e+00,1.16e+00,
280,1.40e+00,1.24e+00,
281,1.48e+00,1.16e+00,
282,1.48e+00,1.12e+00,
283,1.36e+00,1.20e+00,
284,1.40e+00,1.20e+00,
285,1.52e+00,1.12e+00,
286,1.52e+00,1.12e+00,
287,1.44e+00,1.20e+00,
288,1.44e+00,1.12e+00,
289,1.56e+00,1.20e+00,
290,1.48e+00,1.12e+00,
291,1.56e+00,1.20e+00,
292,1.56e+00,1.20e+00,
293,1.48e+00,1.12e+00,
294,1.52e+00,1.12e+00,
295,1.60e+00,1.20e+00,
296,1.60e+00,1.20e+00,
297,1.52e+00,1.12e+00,
298,1.56e+00,1.20e+00,
299,1.64e+00,1.12e+00,
300,1.56e+00,1.12e+00,
301,1.64e+00,1.20e+00,
302,1.56e+00,1.20e+00,
303,1.68e+00,1.12e+00,
304,1.68e+00,1.20e+00,
305,1.60e+00,1.12e+00,
306,1.60e+00,1.20e+00,
307,1.68e+00,1.12e+00,
308,1.64e+00,1.20e+00,
309,1.72e+00,1.12e+00,
310,1.72e+00,1.12e+00,
311,1.64e+00,1.20e+00,
312,1.64e+00,1.12e+00,
313,1.76e+00,1.20e+00,
314,1.76e+00,1.12e+00,
315,1.68e+00,1.20e+00,
316,1.76e+00,1.16e+00,
317,1.68e+00,1.24e+00,
318,1.80e+00,1.24e+00,
319,1.72e+00,1.16e+00,
320,1.80e+00,1.24e+00,
321,1.72e+00,1.16e+00,
322,1.76e+00,1.24e+00,
323,1.88e+00,1.16e+00,
324,1.88e+00,1.24e+00,
325,1.76e+00,1.16e+00,
326,1.76e+00,1.20e+00,
327,1.92e+00,1.28e+00,
328,1.84e+00,1.20e+00,
329,1.92e+00,1.28e+00,
330,1.92e+00,1.20e+00,
331,1.84e+00,1.28e+00,
332,1.84e+00,1.20e+00,
333,1.96e+00,1.28e+00,
334,1.96e+00,1.24e+00,
335,1.84e+00,1.32e+00,
336,1.96e+00,1.32e+00,
337,1.88e+00,1.24e+00,
338,1.88e+00,1.24e+00,
339,1.96e+00,1.32e+00,
340,1.92e+00,1.28e+00,
341,2.00e+00,1.36e+00,
342,2.00e+00,1.36e+00,
343,1.92e+00,1.28e+00,
344,2.00e+00,1.36e+00,
345,1.92e+00,1.28e+00,
346,1.92e+00,1.28e+00,
347,2.00e+00,1.40e+00,
348,1.96e+00,1.40e+00,
349,2.04e+00,1.32e+00,
350,1.96e+00,1.40e+00,
351,2.04e+00,1.32e+00,
352,2.04e+00,1.36e+00,
353,1.96e+00,1.44e+00,
354,2.04e+00,1.44e+00,
355,1.96e+00,1.36e+00,
356,1.96e+00,1.36e+00,
357,2.04e+00,1.48e+00,
358,2.04e+00,1.40e+00,
359,1.96e+00,1.52e+00,
360,2.08e+00,1.40e+00,
361,1.96e+00,1.52e+00,
362,2.00e+00,1.44e+00,
363,2.08e+00,1.56e+00,
364,2.08e+00,1.48e+00,
365,2.00e+00,1.56e+00,
366,2.08e+00,1.48e+00,
367,2.00e+00,1.60e+00,
368,2.08e+00,1.52e+00,
369,2.00e+00,1.60e+00,
370,2.00e+00,1.52e+00,
371,2.08e+00,1.60e+00,
372,2.00e+00,1.52e+00,
373,2.08e+00,1.64e+00,
374,2.00e+00,1.64e+00,
375,2.08e+00,1.56e+00,
376,2.08e+00,1.56e+00,
377,2.00e+00,1.68e+00,
378,2.08e+00,1.60e+00,
379,2.00e+00,1.68e+00,
380,2.08e+00,1.68e+00,
381,2.00e+00,1.60e+00,
382,2.00e+00,1.64e+00,
383,2.08e+00,1.72e+00,
384,2.00e+00,1.72e+00,
385,2.08e+00,1.64e+00,
386,2.04e+00,1.64e+00,
387,2.00e+00,1.76e+00,
388,2.04e+00,1.76e+00,
389,1.96e+00,1.68e+00,
390,2.04e+00,1.68e+00,
391,1.96e+00,1.80e+00,
392,1.96e+00,1.72e+00,
393,2.04e+00,1.80e+00,
394,1.96e+00,1.80e+00,
395,2.04e+00,1.72e+00,
396,2.04e+00,1.72e+00,
397,1.96e+00,1.84e+00,
398,2.04e+00,1.84e+00,
399,1.92e+00,1.76e+00,
400,2.00e+00,1.84e+00,
401,1.92e+00,1.76e+00,
402,1.92e+00,1.80e+00,
403,2.00e+00,1.88e+00,
404,2.00e+00,1.88e+00,
405,1.92e+00,1.80e+00,
406,1.92e+00,1.88e+00,
407,2.00e+00,1.80e+00,
408,1.96e+00,1.80e+00,
409,1.88e+00,1.92e+00,
410,1.96e+00,1.96e+00,
411,1.88e+00,1.84e+00,
412,1.96e+00,1.84e+00,
413,1.88e+00,1.96e+00,
414,1.92e+00,1.88e+00,
415,1.84e+00,2.00e+00,
416,1.84e+00,1.92e+00,
417,1.92e+00,2.00e+00,
418,1.92e+00,2.00e+00,
419,1.84e+00,1.92e+00,
420,1.88e+00,1.92e+00,
421,1.76e+00,2.00e+00,
422,1.76e+00,1.96e+00,
423,1.88e+00,2.04e+00,
424,1.76e+00,2.04e+00,
425,1.88e+00,1.96e+00,
426,1.80e+00,2.04e+00,
427,1.72e+00,1.96e+00,
428,1.80e+00,2.04e+00,
429,1.72e+00,1.96e+00,
430,1.80e+00,2.04e+00,
431,1.68e+00,1.96e+00,
432,1.68e+00,2.08e+00,
433,1.76e+00,1.96e+00,
434,1.76e+00,2.08e+00,
435,1.68e+00,2.00e+00,
436,1.72e+00,2.08e+00,
437,1.64e+00,2.00e+00,
438,1.64e+00,2.08e+00,
439,1.72e+00,2.00e+00,
440,1.72e+00,2.00e+00,
441,1.60e+00,2.08e+00,
442,1.60e+00,2.00e+00,
443,1.68e+00,2.08e+00,
444,1.68e+00,2.00e+00,
445,1.56e+00,2.08e+00,
446,1.56e+00,2.00e+00,
447,1.64e+00,2.08e+00,
448,1.64e+00,2.00e+00,
449,1.56e+00,2.08e+00,
450,1.60e+00,2.08e+00,
451,1.52e+00,2.00e+00,
452,1.52e+00,2.08e+00,
453,1.60e+00,2.00e+00,
454,1.60e+00,2.00e+00,
455,1.48e+00,2.08e+00,
456,1.48e+00,2.00e+00,
457,1.56e+00,2.08e+00,
458,1.56e+00,2.00e+00,
459,1.44e+00,2.08e+00,
460,1.44e+00,2.08e+00,
461,1.52e+00,2.00e+00,
462,1.44e+00,2.00e+00,
463,1.52e+00,2.08e+00,
464,1.48e+00,2.00e+00,
465,1.36e+00,2.08e+00,
466,1.36e+00,2.08e+00,
467,1.48e+00,2.00e+00,
468,1.44e+00,2.00e+00,
469,1.36e+00,2.08e+00,
470,1.40e+00,2.04e+00,
471,1.32e+00,2.08e+00,
472,1.40e+00,2.08e+00,
473,1.28e+00,2.00e+00,
474,1.36e+00,2.08e+00,
475,1.28e+00,1.96e+00,
476,1.36e+00,1.96e+00,
477,1.28e+00,2.04e+00,
478,1.36e+00,1.96e+00,
479,1.24e+00,2.04e+00,
480,1.32e+00,1.96e+00,
481,1.24e+00,2.04e+00,
482,1.32e+00,2.04e+00,
483,1.24e+00,1.96e+00,
484,1.32e+00,2.04e+00,
485,1.20e+00,1.92e+00,
486,1.20e+00,1.92e+00,
487,1.28e+00,2.00e+00,
488,1.28e+00,1.92e+00,
489,1.20e+00,2.00e+00,
490,1.28e+00,2.00e+00,
491,1.16e+00,1.92e+00,
492,1.24e+00,2.00e+00,
493,1.16e+00,1.84e+00,
494,1.24e+00,1.96e+00,
495,1.16e+00,1.84e+00,
496,1.24e+00,1.84e+00,
497,1.12e+00,1.96e+00,
498,1.12e+00,1.96e+00,
499,1.20e+00,1.80e+00,
500,1.12e+00,1.88e+00,
501,1.20e+00,1.80e+00,
502,1.20e+00,1.88e+00,
503,1.12e+00,1.80e+00,
504,1.20e+00,1.88e+00,
505,1.08e+00,1.80e+00,
506,1.16e+00,1.84e+00,
507,1.08e+00,1.76e+00,
508,1.08e+00,1.84e+00,
509,1.16e+00,1.76e+00,
510,1.08e+00,1.84e+00,
511,1.16e+00,1.76e+00,
512,1.08e+00,1.80e+00,
513,1.16e+00,1.72e+00,
514,1.08e+00,1.80e+00,
515,1.16e+00,1.72e+00,
516,1.04e+00,1.80e+00,
517,1.12e+00,1.68e+00,
518,1.12e+00,1.68e+00,
519,1.04e+00,1.76e+00,
520,1.04e+00,1.76e+00,
521,1.12e+00,1.64e+00,
522,1.04e+00,1.72e+00,
523,1.12e+00,1.64e+00,
524,1.04e+00,1.72e+00,
525,1.12e+00,1.64e+00,
526,1.04e+00,1.72e+00,
527,1.12e+00,1.60e+00,
528,1.12e+00,1.68e+00,
529,1.04e+00,1.60e+00,
530,1.04e+00,1.60e+00,
531,1.12e+00,1.68e+00,
532,1.12e+00,1.64e+00,
533,1.04e+00,1.56e+00,
534,1.12e+00,1.64e+00,
535,1.04e+00,1.56e+00,
536,1.12e+00,1.60e+00,
537,1.04e+00,1.52e+00,
538,1.04e+00,1.52e+00,
539,1.12e+00,1.60e+00,
540,1.04e+00,1.60e+00,
541,1.12e+00,1.48e+00,
542,1.12e+00,1.56e+00,
543,1.04e+00,1.48e+00,
544,1.04e+00,1.56e+00,
545,1.12e+00,1.48e+00,
546,1.04e+00,1.56e+00,
547,1.12e+00,1.44e+00,
548,1.04e+00,1.40e+00,
549,1.12e+00,1.52e+00,
550,1.04e+00,1.52e+00,
551,1.16e+00,1.40e+00,
552,1.04e+00,1.44e+00,
553,1.16e+00,1.36e+00,
554,1.16e+00,1.44e+00,
555,1.08e+00,1.36e+00,
556,1.08e+00,1.44e+00,
557,1.16e+00,1.32e+00,
558,1.08e+00,1.40e+00,
559,1.16e+00,1.32e+00,
560,1.08e+00,1.40e+00,
561,1.16e+00,1.32e+00,
562,1.08e+00,1.36e+00,
563,1.20e+00,1.28e+00,
564,1.20e+00,1.28e+00,
565,1.12e+00,1.36e+00,
566,1.20e+00,1.36e+00,
567,1.12e+00,1.28e+00,
568,1.20e+00,1.32e+00,
569,1.12e+00,1.24e+00,
570,1.12e+00,1.32e+00,
571,1.24e+00,1.24e+00,
572,1.16e+00,1.32e+00,
573,1.24e+00,1.24e+00,
574,1.24e+00,1.28e+00,
575,1.16e+00,1.20e+00,
576,1.16e+00,1.28e+00,
577,1.28e+00,1.20e+00,
578,1.20e+00,1.20e+00,
579,1.28e+00,1.28e+00,
580,1.28e+00,1.24e+00,
581,1.20e+00,1.16e+00,
582,1.28e+00,1.16e+00,
583,1.20e+00,1.24e+00,
584,1.20e+00,1.16e+00,
585,1.32e+00,1.24e+00,
586,1.32e+00,1.24e+00,
587,1.24e+00,1.16e+00,
588,1.24e+00,1.24e+00,
589,1.32e+00,1.12e+00,
590,1.28e+00,1.12e+00,
591,1.36e+00,1.20e+00,
592,1.28e+00,1.12e+00,
593,1.36e+00,1.20e+00,
594,1.28e+00,1.20e+00,
595,1.40e+00,1.12e+00,
596,1.40e+00,1.20e+00,
597,1.32e+00,1.12e+00,
598,1.40e+00,1.12e+00,
599,1.32e+00,1.20e+00,
600,1.36e+00,1.16e+00,
601,1.48e+00,1.08e+00,
602,1.48e+00,1.16e+00,
603,1.36e+00,1.08e+00,
604,1.36e+00,1.08e+00,
605,1.48e+00,1.16e+00,
606,1.52e+00,1.08e+00,
607,1.44e+00,1.16e+00,
608,1.44e+00,1.08e+00,
609,1.52e+00,1.16e+00,
610,1.48e+00,1.08e+00,
611,1.56e+00,1.16e+00,
612,1.56e+00,1.08e+00,
613,1.48e+00,1.16e+00,
614,1.48e+00,1.08e+00,
615,1.60e+00,1.16e+00,
616,1.52e+00,1.08e+00,
617,1.60e+00,1.16e+00,
618,1.52e+00,1.08e+00,
619,1.64e+00,1.16e+00,
620,1.56e+00,1.08e+00,
621,1.64e+00,1.16e+00,
622,1.56e+00,1.08e+00,
623,1.64e+00,1.16e+00,
624,1.60e+00,1.08e+00,
625,1.68e+00,1.16e+00,
626,1.68e+00,1.16e+00,
627,1.60e+00,1.08e+00,
628,1.60e+00,1.16e+00,
629,1.72e+00,1.08e+00,
630,1.64e+00,1.12e+00,
631,1.72e+00,1.16e+00,
632,1.72e+00,1.16e+00,
633,1.64e+00,1.08e+00,
634,1.68e+00,1.16e+00,
635,1.76e+00,1.08e+00,
636,1.76e+00,1.16e+00,
637,1.68e+00,1.08e+00,
638,1.68e+00,1.08e+00,
639,1.80e+00,1.16e+00,
640,1.80e+00,1.08e+00,
641,1.72e+00,1.16e+00,
642,1.80e+00,1.08e+00,
643,1.72e+00,1.20e+00,
644,1.76e+00,1.12e+00,
645,1.88e+00,1.20e+00,
646,1.80e+00,1.12e+00,
647,1.88e+00,1.20e+00,
648,1.88e+00,1.12e+00,
649,1.76e+00,1.20e+00,
650,1.76e+00,1.12e+00,
651,1.92e+00,1.20e+00,
652,1.92e+00,1.16e+00,
653,1.84e+00,1.24e+00,
654,1.84e+00,1.16e+00,
655,1.96e+00,1.24e+00,
656,1.88e+00,1.24e+00,
657,1.96e+00,1.16e+00,
658,1.96e+00,1.24e+00,
659,1.88e+00,1.16e+00,
660,1.88e+00,1.16e+00,
661,2.00e+00,1.28e+00,
662,1.92e+00,1.28e+00,
663,2.00e+00,1.20e+00,
664,1.92e+00,1.28e+00,
665,2.00e+00,1.20e+00,
666,1.92e+00,1.20e+00,
667,2.00e+00,1.28e+00,
668,1.96e+00,1.24e+00,
669,2.04e+00,1.32e+00,
670,2.04e+00,1.32e+00,
671,1.96e+00,1.24e+00,
672,2.04e+00,1.32e+00,
673,1.96e+00,1.24e+00,
674,1.96e+00,1.28e+00,
675,2.04e+00,1.36e+00,
676,2.00e+00,1.36e+00,
677,2.08e+00,1.28e+00,
678,2.08e+00,1.28e+00,
679,2.00e+00,1.36e+00,
680,2.08e+00,1.32e+00,
681,2.00e+00,1.40e+00,
682,2.00e+00,1.40e+00,
683,2.08e+00,1.32e+00,
684,2.08e+00,1.32e+00,
685,2.00e+00,1.40e+00,
686,2.04e+00,1.36e+00,
687,2.12e+00,1.44e+00,
688,2.04e+00,1.44e+00,
689,2.12e+00,1.36e+00,
690,2.12e+00,1.36e+00,
691,2.04e+00,1.48e+00,
692,2.12e+00,1.40e+00,
693,2.04e+00,1.52e+00,
694,2.12e+00,1.40e+00,
695,2.04e+00,1.52e+00,
696,2.12e+00,1.44e+00,
697,2.04e+00,1.56e+00,
698,2.04e+00,1.48e+00,
699,2.12e+00,1.56e+00,
700,2.12e+00,1.48e+00,
701,2.04e+00,1.56e+00,
702,2.12e+00,1.52e+00,
703,2.04e+00,1.60e+00,
704,2.12e+00,1.60e+00,
705,2.04e+00,1.52e+00,
706,2.12e+00,1.52e+00,
707,2.04e+00,1.64e+00,
708,2.12e+00,1.64e+00,
709,2.04e+00,1.56e+00,
710,2.12e+00,1.56e+00,
711,2.04e+00,1.64e+00,
712,2.12e+00,1.60e+00,
713,2.04e+00,1.68e+00,
714,2.12e+00,1.68e+00,
715,2.04e+00,1.60e+00,
716,2.12e+00,1.60e+00,
717,2.04e+00,1.72e+00,
718,2.12e+00,1.72e+00,
719,2.04e+00,1.64e+00,
720,2.12e+00,1.64e+00,
721,2.04e+00,1.72e+00,
722,2.12e+00,1.68e+00,
723,2.04e+00,1.76e+00,
724,2.12e+00,1.68e+00,
725,2.04e+00,1.76e+00,
726,2.12e+00,1.68e+00,
727,2.04e+00,1.80e+00,
728,2.12e+00,1.80e+00,
729,2.04e+00,1.72e+00,
730,2.04e+00,1.80e+00,
731,2.12e+00,1.72e+00,
732,2.08e+00,1.72e+00,
733,2.00e+00,1.84e+00,
734,2.00e+00,1.84e+00,
735,2.08e+00,1.76e+00,
736,2.00e+00,1.76e+00,
737,2.08e+00,1.88e+00,
738,2.08e+00,1.88e+00,
739,2.00e+00,1.80e+00,
740,2.08e+00,1.88e+00,
741,2.00e+00,1.80e+00,
742,2.04e+00,1.80e+00,
743,1.96e+00,1.92e+00,
744,2.04e+00,1.84e+00,
745,1.96e+00,1.96e+00,
746,1.96e+00,1.96e+00,
747,2.04e+00,1.84e+00,
748,2.04e+00,1.84e+00,
749,1.96e+00,1.96e+00,
750,2.04e+00,1.92e+00,
751,1.92e+00,2.00e+00,
752,1.92e+00,2.00e+00,
753,2.00e+00,1.92e+00,
754,2.00e+00,1.92e+00,
755,1.92e+00,2.00e+00,
756,1.92e+00,1.96e+00,
757,2.00e+00,2.04e+00,
758,1.96e+00,2.04e+00,
759,1.88e+00,1.96e+00,
760,1.88e+00,1.96e+00,
761,1.96e+00,2.04e+00,
762,1.96e+00,1.96e+00,
763,1.84e+00,2.08e+00,
764,1.92e+00,1.96e+00,
765,1.84e+00,2.08e+00,
766,1.84e+00,2.08e+00,
767,1.92e+00,2.00e+00,
768,1.84e+00,2.00e+00,
769,1.92e+00,2.08e+00,
770,1.88e+00,2.08e+00,
771,1.76e+00,2.00e+00,
772,1.80e+00,2.04e+00,
773,1.88e+00,2.12e+00,
774,1.88e+00,2.12e+00,
775,1.76e+00,2.00e+00,
776,1.80e+00,2.04e+00,
777,1.72e+00,2.12e+00,
778,1.80e+00,2.04e+00,
779,1.72e+00,2.12e+00,
780,1.80e+00,2.04e+00,
781,1.68e+00,2.12e+00,
782,1.76e+00,2.04e+00,
783,1.68e+00,2.12e+00,
784,1.76e+00,2.04e+00,
785,1.68e+00,2.16e+00,
786,1.76e+00,2.16e+00,
787,1.64e+00,2.08e+00,
788,1.72e+00,2.16e+00,
789,1.64e+00,2.12e+00,
790,1.72e+00,2.12e+00,
791,1.60e+00,2.16e+00,
792,1.60e+00,2.16e+00,
793,1.68e+00,2.08e+00,
794,1.68e+00,2.16e+00,
795,1.60e+00,2.08e+00,
796,1.64e+00,2.16e+00,
797,1.56e+00,2.08e+00,
798,1.56e+00,2.08e+00,
799,1.64e+00,2.16e+00,
800,1.64e+00,2.16e+00,
801,1.52e+00,2.08e+00,
802,1.60e+00,2.08e+00,
803,1.52e+00,2.16e+00,
804,1.60e+00,2.16e+00,
805,1.52e+00,2.08e+00,
806,1.56e+00,2.08e+00,
807,1.48e+00,2.16e+00,
808,1.48e+00,2.16e+00,
809,1.56e+00,2.08e+00,
810,1.56e+00,2.16e+00,
811,1.44e+00,2.08e+00,
812,1.44e+00,2.08e+00,
813,1.52e+00,2.16e+00,
814,1.52e+00,2.08e+00,
815,1.40e+00,2.16e+00,
816,1.48e+00,2.08e+00,
817,1.36e+00,2.16e+00,
818,1.48e+00,2.16e+00,
819,1.36e+00,2.08e+00,
820,1.44e+00,2.16e+00,
821,1.32e+00,2.08e+00,
822,1.40e+00,2.12e+00,
823,1.32e+00,2.16e+00,
824,1.40e+00,2.16e+00,
825,1.32e+00,2.08e+00,
826,1.40e+00,2.16e+00,
827,1.28e+00,2.04e+00,
828,1.36e+00,2.16e+00,
829,1.28e+00,2.04e+00,
830,1.36e+00,2.12e+00,
831,1.24e+00,2.04e+00,
832,1.32e+00,2.12e+00,
833,1.24e+00,2.04e+00,
834,1.32e+00,2.04e+00,
835,1.24e+00,2.12e+00,
836,1.32e+00,2.12e+00,
837,1.20e+00,2.04e+00,
838,1.20e+00,2.12e+00,
839,1.28e+00,2.04e+00,
840,1.28e+00,2.08e+00,
841,1.20e+00,2.00e+00,
842,1.24e+00,2.00e+00,
843,1.16e+00,2.08e+00,
844,1.16e+00,2.08e+00,
845,1.24e+00,2.00e+00,
846,1.24e+00,2.00e+00,
847,1.16e+00,2.08e+00,
848,1.24e+00,2.08e+00,
849,1.12e+00,1.96e+00,
850,1.12e+00,1.96e+00,
851,1.20e+00,2.04e+00,
852,1.20e+00,2.04e+00,
853,1.12e+00,1.96e+00,
854,1.12e+00,1.96e+00,
855,1.20e+00,2.04e+00,
856,1.16e+00,1.92e+00,
857,1.08e+00,2.04e+00,
858,1.08e+00,2.00e+00,
859,1.16e+00,1.92e+00,
860,1.08e+00,2.00e+00,
861,1.16e+00,1.92e+00,
862,1.16e+00,2.00e+00,
863,1.04e+00,1.84e+00,
864,1.04e+00,1.96e+00,
865,1.12e+00,1.84e+00,
866,1.04e+00,1.88e+00,
867,1.12e+00,1.96e+00,
868,1.04e+00,1.96e+00,
869,1.12e+00,1.80e+00,
870,1.04e+00,1.88e+00,
